0.062160254 0.072164297 0.077168703 0.091191292 0.051162004 0.085175037 0.111217499 0.125293970 0.133200645 0.161251307 0.091222286 0.147219419 0.001187562 0.001185564 0.001157188 0.001178765 0.001167540 0.001229486 0.040822459 0.040543531 0.040772219 0.040752188 0.040930563 0.040804700 0.120381544 0.143132079 0.143313653 0.108288443 0.089209918 0.108188266 0.175435604 0.197832897 0.202335401 0.188232254 0.186792334 0.180113635 0.209419696 0.144279020 0.151566214 0.133576629 0.191100629 0.144343800
0.083162546 0.084180117 0.081183910 0.093192577 0.099187613 0.081189632 0.149293661 0.145230293 0.134223461 0.166423559 0.164388657 0.145251989 0.001212415 0.001154507 0.001163314 0.001190939 0.001154032 0.001196699 0.040767677 0.040783785 0.040798220 0.040595647 0.040769096 0.040812324 0.176473457 0.098109243 0.151272955 0.105126581 0.000000000 0.119190346 0.202757567 0.219304170 0.210505560 0.208907263 0.228412486 0.237331495 0.254241408 0.231395483 0.229947823 0.185108005 0.170082925 0.194652763
0.072209597 0.060184956 0.087179899 0.062190294 0.084172487 0.081195116 0.123371124 0.105217457 0.143224001 0.109205246 0.150268793 0.145213842 0.001162920 0.001152849 0.001155694 0.001188157 0.001183249 0.001170419 0.040391921 0.040541539 0.040720438 0.040824158 0.040294399 0.040808419 0.166520746 0.101493804 0.127338074 0.127455480 0.000000000 0.119172806 0.182467921 0.175681285 0.190569364 0.176963864 0.186264560 0.172300174 0.179057526 0.133363226 0.169155934 0.222654220 0.116221536 0.190119419
0.076193571 0.088238955 0.095215321 0.079212904 0.086202860 0.074209213 0.134229422 0.154383421 0.168344498 0.142321110 0.154271126 0.132270336 0.001178522 0.001251153 0.001177209 0.001252937 0.001241022 0.001229013 0.040693618 0.040642631 0.040523658 0.040771533 0.040437772 0.040814531 0.088264840 0.145269541 0.112142807 0.113146357 0.164267290 0.145136897 0.200093542 0.202945402 0.209077505 0.201777037 0.190241406 0.203344548 0.170943930 0.213065576 0.152994347 0.148326254 0.234010173 0.214529838
0.096210957 0.065198183 0.072231054 0.059196234 0.099199295 0.082209110 0.156315327 0.114349365 0.128264427 0.106259584 0.167280436 0.145243168 0.001200791 0.001196119 0.001244679 0.001239623 0.001187242 0.001227457 0.040811304 0.040767897 0.040733255 0.040562438 0.040487687 0.040870123 0.087773769 0.156618368 0.191610608 0.133524951 0.103061870 0.114199065 0.207517396 0.190267790 0.216031469 0.213428926 0.186341647 0.199272448 0.183965311 0.168156584 0.199851534 0.230477103 0.131034536 0.254472155
0.065188646 0.060195446 0.052176476 0.087172985 0.054191589 0.060184240 0.112333059 0.106374741 0.093461752 0.154330969 0.097237587 0.106262922 0.001175009 0.001242576 0.001186763 0.001240499 0.001226146 0.001224857 0.040795031 0.040525922 0.040857185 0.040669466 0.040747145 0.040785284 0.088394510 0.101486493 0.114685186 0.105340105 0.170436798 0.122475524 0.171450899 0.144843504 0.157473842 0.166866887 0.160500709 0.151557739 0.116657275 0.118820647 0.185123892 0.108649800 0.170457203 0.175548422
0.068170786 0.064214706 0.075188160 0.057184458 0.056180716 0.092241049 0.121183395 0.114342213 0.135373592 0.100408554 0.100246429 0.152314901 0.001197309 0.001180441 0.001255070 0.001238529 0.001198841 0.001241060 0.040744874 0.040651131 0.040681810 0.040591251 0.040885543 0.040627427 0.101019529 0.163523858 0.100039947 0.165544716 0.107238721 0.131122233 0.195012663 0.179233361 0.159239295 0.174147651 0.196457511 0.176773849 0.141249786 0.163543955 0.125370040 0.227924552 0.152888487 0.131137483
0.095287085 0.079284668 0.052181244 0.051205397 0.086231470 0.090276718 0.161333799 0.141276121 0.093269825 0.089310884 0.138280392 0.154239416 0.001183883 0.001218363 0.001213394 0.001199164 0.001229462 0.001209864 0.040620226 0.040763813 0.040491206 0.040793169 0.040621170 0.040810317 0.139504012 0.099921666 0.175633703 0.156503855 0.120213131 0.138349405 0.186516101 0.208650369 0.195502606 0.194800014 0.197434143 0.210953332 0.139536913 0.150108909 0.291647244 0.194679595 0.157332419 0.177972361
0.074202776 0.083183527 0.069200039 0.078212500 0.069179535 0.063163996 0.126262188 0.146257877 0.124330759 0.131195068 0.124225855 0.113192081 0.001305635 0.001228427 0.001186073 0.001195311 0.001267410 0.001203381 0.040703949 0.040496242 0.040575241 0.040786281 0.040839918 0.040839089 0.105317921 0.065134751 0.086323537 0.095392787 0.065321686 0.097464026 0.185109337 0.173676156 0.214882131 0.166447967 0.182128269 0.222444089 0.138369178 0.083210176 0.129418655 0.138415914 0.144399954 0.174625872
0.081212282 0.062185049 0.088195324 0.081201077 0.098173857 0.069206953 0.128279448 0.111413240 0.158298731 0.143235683 0.172267914 0.123243093 0.001212556 0.001184946 0.001182291 0.001209421 0.001280821 0.001224357 0.040568945 0.040797714 0.040643136 0.040564843 0.040533862 0.040504125 0.207502830 0.138522882 0.108160102 0.172346493 0.091284340 0.178300333 0.188315239 0.214044027 0.204317979 0.206244012 0.224258914 0.189950349 0.207519986 0.180955847 0.155110447 0.261432142 0.177390016 0.215412420
