0.050171375 0.094187737 0.094206095 0.050170183 0.063192844 0.078187466 0.090292215 0.169277430 0.166213274 0.090285778 0.113439083 0.140307426 0.001140509 0.001168398 0.001204450 0.001197444 0.001181754 0.001160832 0.040836610 0.040859504 0.040826348 0.040849452 0.040794759 0.040844379 2.068531355 0.130323975 0.118268235 2.537233788 3.750684292 1.668328567 0.222894107 0.205052736 0.190415462 0.216861686 0.228004640 0.223553750 2.129398050 0.177635109 0.187140257 2.537692155 3.807057187 1.686930667
0.081194401 0.095188856 0.080195665 0.066171646 0.058143139 0.064159870 0.145262241 0.171339512 0.144272089 0.118326426 0.104246140 0.115319014 0.001216642 0.001168822 0.001185667 0.001155642 0.001171458 0.001200323 0.040724298 0.040882276 0.040905496 0.040919949 0.040841151 0.040839368 1.866915921 0.137252434 2.061296250 3.786183158 0.574182481 0.236893028 0.229699272 0.199003458 0.220692889 0.223353785 0.213402355 0.222136767 1.902854917 0.199001983 2.061537384 3.792549027 0.583589813 0.244669977
0.053190947 0.070195436 0.057184458 0.100194693 0.066182852 0.091175556 0.095404148 0.126288652 0.102293730 0.179365158 0.118301630 0.162270308 0.001166242 0.001190638 0.001182056 0.001182873 0.001198223 0.001189982 0.040852951 0.040854843 0.040868810 0.040920386 0.040942288 0.040811827 2.622473636 4.005993667 2.038282031 0.118225612 0.899378081 1.385641205 0.229208282 0.231453679 0.215534243 0.214280590 0.215929746 0.225027600 2.648035852 4.036845073 2.094136303 0.160318316 0.962409564 1.404886072
0.082210779 0.092190027 0.057162523 0.100178719 0.060182333 0.074167252 0.147237301 0.164346933 0.102293015 0.178325176 0.108270168 0.132349968 0.001143163 0.001161183 0.001184861 0.001185733 0.001171630 0.001172287 0.040806953 0.040729949 0.040849604 0.040782996 0.040852716 0.040939919 1.818127097 0.581620903 1.172589628 0.136390946 1.469484191 2.764972084 0.228356144 0.216849106 0.222651071 0.216277590 0.218846908 0.253234398 1.824575869 0.597071833 1.185056250 0.181433057 1.470101252 2.809868180
0.074210644 0.091200590 0.055177450 0.092192411 0.060173988 0.061180115 0.133215666 0.162369728 0.099296331 0.164378166 0.108441830 0.109342098 0.001171012 0.001201602 0.001168722 0.001169201 0.001173297 0.001163662 0.040881068 0.040821433 0.040856339 0.040807827 0.040848621 0.040891527 2.784705946 0.140403190 1.476231034 0.135498884 0.779406440 0.451475223 0.208364451 0.200325213 0.200331235 0.221840230 0.207971325 0.201837127 2.831985168 0.185222670 1.597449753 0.261429990 0.855813605 0.518336056
0.093206406 0.061196566 0.083184958 0.080196142 0.061185837 0.081198454 0.167265892 0.109395027 0.149378061 0.143275261 0.109205008 0.145287991 0.001169301 0.001168812 0.001173339 0.001162876 0.001175196 0.001177691 0.040828361 0.040873484 0.040818869 0.040847174 0.040863407 0.040797591 0.122358343 3.546951882 1.157100510 1.123522447 3.527813442 0.918298761 0.208269620 0.204765294 0.226046484 0.217261338 0.202407864 0.225517043 0.178506844 3.580156250 1.203835731 1.123538654 3.610624741 0.945287404
0.074199677 0.070180178 0.067168951 0.091176033 0.082201481 0.077166080 0.132256746 0.126262903 0.120282173 0.160370350 0.146386147 0.138279200 0.001190235 0.001154097 0.001171928 0.001212613 0.001203652 0.001171722 0.040841343 0.040919702 0.040936418 0.040823184 0.040695225 0.040774979 2.323214895 2.772581398 3.137022485 0.152167553 1.624640248 1.820819025 0.221302921 0.215610048 0.205395211 0.195208138 0.228383872 0.210445556 2.428668458 2.896824659 3.238395025 0.176268765 1.702221287 1.955395134
0.063190222 0.087180138 0.078177691 0.056168318 0.066169262 0.077142000 0.113258362 0.156384945 0.137265921 0.100272417 0.118351936 0.136291742 0.001167290 0.001178132 0.001204747 0.001174090 0.001174370 0.001214969 0.040847060 0.040813603 0.040822195 0.040813052 0.040881660 0.040870195 2.920785924 0.156345038 1.041621876 0.300431918 2.630784120 1.207358761 0.199723577 0.186227460 0.204444368 0.195062075 0.199585811 0.202129592 2.920807751 0.177495910 1.061299839 0.303800616 2.681222591 1.260575084
0.093186855 0.068189144 0.064194679 0.057174921 0.053162813 0.097204447 0.167294741 0.122266054 0.115254164 0.102245569 0.095278740 0.173331022 0.001181793 0.001171211 0.001189178 0.001201238 0.001175423 0.001176712 0.040757632 0.040869458 0.040834647 0.040862121 0.040879934 0.040866933 0.127143724 3.483541257 0.135329434 1.532018223 1.885764878 0.106343312 0.201540951 0.227053379 0.225052695 0.202514628 0.217131885 0.201112696 0.177594930 3.551250687 0.191358396 1.592501862 1.973644764 0.143267879
0.060188532 0.095168829 0.074204683 0.051192522 0.088182688 0.063183546 0.108287573 0.170358181 0.133256435 0.091323614 0.158220053 0.112249136 0.001200121 0.001208371 0.001160756 0.001163191 0.001178797 0.001180877 0.040895309 0.040802535 0.040798409 0.040866370 0.040865768 0.040876891 0.458797093 0.152334637 2.677579829 2.091385118 0.835102591 3.432629148 0.209580842 0.201159547 0.228008240 0.209492430 0.194808355 0.231896404 0.499320209 0.187315593 2.723720669 2.115088735 0.858605368 3.463907036
0.095189333 0.051180124 0.050158024 0.077190399 0.096196890 0.100201368 0.171262264 0.091278076 0.090301752 0.137297392 0.172221661 0.177277327 0.001160926 0.001175556 0.001180590 0.001184821 0.001192608 0.001167145 0.040815720 0.040879872 0.040819775 0.040786765 0.040771103 0.040773756 0.803847643 2.981285694 0.570851142 3.168754524 0.994396437 0.131128560 0.213137247 0.223624058 0.225629082 0.232783813 0.244867058 0.235556414 0.804463413 2.998681346 0.631655278 3.233094282 1.008248741 0.165516265
0.082175732 0.062179565 0.079188585 0.073163986 0.090204716 0.059199095 0.147294044 0.111301422 0.141255617 0.131305933 0.160321236 0.106306076 0.001186577 0.001187786 0.001175621 0.001159006 0.001192545 0.001199267 0.040889499 0.040806173 0.040927296 0.040899323 0.040856416 0.040868670 1.095819581 3.200074609 1.350639444 2.218965214 0.108356374 0.246753494 0.218906100 0.214856921 0.223925753 0.221625556 0.221680554 0.206784275 1.156864571 3.220787087 1.389516827 2.228471231 0.170256893 0.247276534
0.066170454 0.076181889 0.100187063 0.076175451 0.065181732 0.095191002 0.118376732 0.136371613 0.180406094 0.136281252 0.117275953 0.169292450 0.001213209 0.001174194 0.001217240 0.001169150 0.001178243 0.001188480 0.040832973 0.040817689 0.040839043 0.040891295 0.040809050 0.040836708 0.743600644 3.349295695 0.142436048 3.217105008 0.772767082 0.746884286 0.218957134 0.240670007 0.210234738 0.233735682 0.243382430 0.221667595 0.779081458 3.360375992 0.187427432 3.272366021 0.805874905 0.746901684
0.069175005 0.056172848 0.095196247 0.084188223 0.054176807 0.074169636 0.122274876 0.100326538 0.171221256 0.151343346 0.097292423 0.133253813 0.001181020 0.001186149 0.001175506 0.001173555 0.001204474 0.001182053 0.040809188 0.040834877 0.040835439 0.040863679 0.040954426 0.040856899 3.504978603 1.501067728 0.097262307 1.654548904 1.733568653 2.791940611 0.218690117 0.222203526 0.197262906 0.221095272 0.208604931 0.219978046 3.514356932 1.530333300 0.175841582 1.676193659 1.733859503 2.791958979
0.069177628 0.093183517 0.096191883 0.095218897 0.070182323 0.083198071 0.123363733 0.166266441 0.170270205 0.167365789 0.126237154 0.149485111 0.001180474 0.001191511 0.001183768 0.001175402 0.001166757 0.001171304 0.040881442 0.040780173 0.040901924 0.040785320 0.040870188 0.040888030 3.733221768 0.128944878 0.314996220 0.298022626 3.171791668 1.701832239 0.222356491 0.239347516 0.239059064 0.232884691 0.259754498 0.250138742 3.740524303 0.213963734 0.376667642 0.346918565 3.203936776 1.701846801
0.099187374 0.064177036 0.094195604 0.094184637 0.056150436 0.079165936 0.177334547 0.115291834 0.167268753 0.168294191 0.100333929 0.142266989 0.001194032 0.001161098 0.001178358 0.001211896 0.001165257 0.001201714 0.040832974 0.040845450 0.040869650 0.040842774 0.040872302 0.040820470 0.148202686 0.475645673 0.284781415 0.538480190 1.654306073 2.674407754 0.237375486 0.237750642 0.232305712 0.225870382 0.237160086 0.236887885 0.179800664 0.509574171 0.315033162 0.595905848 1.702806825 2.674426395
0.060174942 0.094171286 0.079181194 0.071174145 0.093192339 0.078180790 0.108326912 0.169242144 0.139404297 0.127336979 0.167283773 0.140283585 0.001187704 0.001184991 0.001201723 0.001158534 0.001210065 0.001137518 0.040885953 0.040907530 0.040825643 0.040894175 0.040763785 0.040836511 0.177657131 0.137333552 2.130969314 2.556465245 0.160223763 1.670268521 0.226843098 0.224927885 0.229968162 0.247036342 0.213982455 0.240967122 0.227188688 0.235953816 2.130995182 2.626102394 0.203542800 1.714173545
0.051180601 0.054159880 0.084186316 0.095199823 0.054191589 0.067174196 0.091300964 0.097339869 0.151264429 0.171275377 0.097289324 0.120269299 0.001141996 0.001150421 0.001203189 0.001166314 0.001171893 0.001187392 0.040823641 0.040831086 0.040816629 0.040837005 0.040799677 0.040861055 2.712509535 1.971739579 1.507819156 0.122203350 1.696249202 3.862577925 0.212748124 0.191741731 0.203517558 0.197418187 0.199537022 0.207434117 2.717398099 2.031040147 1.542330530 0.165521624 1.735521144 3.920245859
0.092177629 0.056169033 0.091202497 0.090194941 0.057174921 0.097169161 0.164374352 0.100308418 0.163250923 0.159199953 0.102296114 0.168254375 0.001134737 0.001190968 0.001196980 0.001189764 0.001144128 0.001167044 0.040861621 0.040819792 0.040834330 0.040842713 0.040881269 0.040852729 1.167217284 1.737073449 0.712564293 1.095517110 1.605504204 0.181252088 0.228202319 0.233760636 0.237326125 0.239070560 0.226431313 0.248428185 1.167231227 1.763833856 0.722952661 1.119488246 1.624051235 0.188926508
0.065188408 0.076172590 0.050177574 0.051152468 0.094173431 0.093174934 0.117274761 0.136339188 0.090348959 0.091339350 0.169235229 0.167215586 0.001180685 0.001201402 0.001134033 0.001153338 0.001180640 0.001153919 0.040817073 0.040864805 0.040867596 0.040877283 0.040819085 0.040866919 3.123310822 2.136983703 2.331740491 1.985803127 0.259718319 0.123136690 0.234631964 0.209529769 0.198244899 0.206903555 0.209793674 0.197423427 3.207139283 2.195117725 2.418964684 2.024115635 0.259741167 0.165191170
0.066173315 0.093180418 0.093205452 0.067180157 0.083179474 0.099205971 0.118305922 0.164362907 0.165318727 0.120222092 0.149271965 0.176257133 0.001191980 0.001219039 0.001213096 0.001168852 0.001202303 0.001206641 0.040858665 0.040861909 0.040885420 0.040847121 0.040850059 0.040833867 3.651165051 0.411996053 0.703982916 3.737667707 1.484975940 0.192191800 0.231104896 0.235450514 0.254286936 0.252716509 0.247738069 0.227817942 3.694763287 0.439340511 0.758706714 3.766972531 1.557681901 0.227098486
0.076180935 0.056169510 0.072190523 0.097195625 0.059198856 0.059172392 0.136362553 0.100281715 0.129230499 0.174262524 0.106376410 0.106233597 0.001190071 0.001167983 0.001186059 0.001205639 0.001199570 0.001189300 0.040833421 0.040826609 0.040810682 0.040857016 0.040837507 0.040827896 2.432235676 1.696727847 2.894274203 0.133146062 1.089857328 0.725622757 0.191609631 0.203977863 0.207273650 0.205029889 0.206601974 0.210869673 2.493661179 1.728442714 2.908008876 0.172084032 1.115787795 0.725643834
0.074182749 0.050159216 0.059153557 0.086180687 0.099174976 0.085199833 0.133398533 0.090394258 0.106363535 0.154258966 0.177312374 0.152413130 0.001187044 0.001173066 0.001162801 0.001176115 0.001179809 0.001182864 0.040831522 0.040882506 0.040886600 0.040951055 0.040814805 0.040845117 2.964578442 2.922498296 1.216630160 1.444152356 0.127206738 2.012071980 0.215145712 0.221460737 0.243579725 0.230014387 0.201289964 0.246635873 2.976769344 2.966432307 1.246056902 1.509341844 0.197467019 2.012087490
0.080196857 0.075204134 0.066175461 0.083195448 0.076184034 0.066197872 0.144323826 0.134415865 0.118313551 0.149279118 0.136222124 0.117219687 0.001177773 0.001143020 0.001182750 0.001147220 0.001195471 0.001181735 0.040871852 0.040794343 0.040805719 0.040841647 0.040942892 0.040840553 0.153584079 0.192486834 1.931361241 0.144648949 0.721083282 1.979571932 0.202375488 0.197588777 0.233156133 0.200725256 0.199064510 0.201921856 0.189200488 0.211569906 1.931581044 0.162890232 0.769475786 2.029110862
0.087188721 0.078187704 0.078188419 0.059177399 0.055195570 0.062163591 0.155244350 0.139260292 0.140233517 0.106253386 0.099320173 0.111327648 0.001155881 0.001191669 0.001178882 0.001174800 0.001129500 0.001186812 0.040786691 0.040850091 0.040781612 0.040858484 0.040861918 0.040815400 0.121335474 1.425868424 1.085834402 3.385788420 0.927342822 3.228576866 0.187320277 0.206935108 0.213851681 0.208670753 0.187808806 0.202835836 0.148320171 1.455117343 1.099071689 3.385803159 0.944757420 3.251126069
0.074184418 0.061174154 0.085189104 0.066181421 0.064199924 0.100183964 0.132399797 0.109296083 0.153278351 0.118369102 0.115378141 0.180292368 0.001187748 0.001134174 0.001194365 0.001169459 0.001153645 0.001161296 0.040795352 0.040831697 0.040853728 0.040869643 0.040949224 0.040866725 2.575766797 0.934302312 2.036331142 0.314116151 0.369429118 0.142256689 0.211414949 0.227113768 0.238527523 0.241293850 0.229863511 0.208195896 2.631423440 0.946789641 2.045744875 0.314760765 0.399875390 0.174754104
0.074184418 0.061174154 0.085189104 0.066181421 0.064199924 0.100183964 0.132399797 0.109296083 0.153278351 0.118369102 0.115378141 0.180292368 0.001187748 0.001134174 0.001194365 0.001169459 0.001153645 0.001161296 0.040795352 0.040831697 0.040853728 0.040869643 0.040949224 0.040866725 2.575766797 0.934302312 2.036331142 0.314116151 0.369429118 0.142256689 0.211414949 0.227113768 0.238527523 0.241293850 0.229863511 0.208195896 2.631423440 0.946789641 2.045744875 0.314760765 0.399875390 0.174754104
0.099187613 0.079171181 0.081176281 0.080175400 0.057165623 0.067172766 0.177384138 0.142345428 0.145216227 0.144240618 0.102279186 0.120261192 0.001198120 0.001179250 0.001219401 0.001176722 0.001157152 0.001188075 0.040823759 0.040857884 0.040857166 0.040936869 0.040861179 0.040801372 0.114156086 2.886776596 2.445394699 2.550925705 1.865997534 0.164326496 0.228957253 0.211496510 0.214193250 0.230931157 0.223494028 0.220248841 0.200938328 2.886855601 2.489598475 2.566221761 1.888228875 0.211161371
0.054156065 0.094173908 0.096194029 0.069178581 0.054155350 0.059187889 0.097419977 0.168261051 0.170338392 0.124284506 0.097313643 0.105250120 0.001185372 0.001201583 0.001173160 0.001189504 0.001182095 0.001173366 0.040969992 0.040835771 0.040840001 0.040877604 0.040884743 0.040873572 1.789097705 0.190685709 0.170417720 3.260491490 1.582753148 0.722362550 0.202517625 0.202173636 0.216826363 0.214708296 0.198825949 0.213955782 1.905398371 0.243147750 0.180897128 3.299215581 1.667964586 0.775529108
0.050157785 0.072172403 0.054180622 0.058181763 0.067166805 0.079173565 0.090278864 0.129251003 0.097330093 0.104447365 0.120342255 0.141258478 0.001179774 0.001183538 0.001165612 0.001186502 0.001154358 0.001182029 0.040861316 0.040909888 0.040939522 0.040823543 0.040871637 0.041142551 0.302470140 0.852869165 2.952796136 2.416306728 1.263262546 0.095265578 0.191199043 0.190577984 0.182250427 0.184452689 0.204534271 0.177695236 0.367036670 0.890794102 2.998787079 2.515553118 1.281276775 0.156283453
0.075175762 0.064190626 0.086182833 0.055175304 0.076173782 0.051174879 0.135327578 0.115404129 0.151236057 0.099280357 0.135247469 0.091305017 0.001164398 0.001163929 0.001186676 0.001138560 0.001172612 0.001191077 0.040861660 0.040879481 0.040832593 0.040893580 0.040810987 0.040849929 1.362013055 2.787104703 0.132192900 0.518350536 1.459514778 1.238560117 0.212527425 0.210742756 0.200072259 0.205845058 0.207461898 0.212287385 1.362179578 2.801166115 0.183712788 0.536692829 1.459539003 1.243604998
0.087172508 0.053186417 0.082190514 0.085191727 0.054183960 0.086200476 0.156258345 0.095420361 0.147257328 0.151336908 0.097419024 0.154306173 0.001194491 0.001188228 0.001134661 0.001176268 0.001178734 0.001196156 0.041076591 0.040833602 0.040962057 0.040848375 0.040888260 0.040780531 0.315805454 0.904623918 0.861457706 0.137221644 0.484051262 0.176309610 0.210268321 0.223003570 0.203572275 0.214238540 0.217001659 0.211917764 0.317969100 0.905059382 0.911401320 0.208075920 0.515560336 0.239566584
0.074155569 0.099182606 0.079193115 0.055198431 0.067177296 0.093194246 0.133254528 0.178302288 0.142369509 0.099293232 0.120224714 0.166249514 0.001185560 0.001188127 0.001177123 0.001178022 0.001202514 0.001157644 0.040819970 0.040847820 0.040826529 0.040789606 0.040923109 0.040851871 3.181225269 0.189167858 2.329448353 1.889894141 3.916785867 0.198473351 0.241775032 0.215692031 0.243591766 0.230495518 0.216730933 0.231706091 3.181251307 0.189190705 2.369829435 1.910413741 3.920665560 0.238805678
0.100170612 0.057134390 0.079207420 0.069197416 0.082170010 0.052172422 0.180236578 0.102264166 0.142356873 0.124307156 0.147297382 0.093258858 0.001150601 0.001166036 0.001193328 0.001152673 0.001174300 0.001188479 0.040675629 0.040880818 0.040895274 0.040811529 0.040885069 0.040843523 0.088291170 1.961022372 2.669794573 0.127348514 2.335497338 0.175088510 0.205327297 0.207691602 0.207682249 0.219398659 0.218791584 0.205042072 0.205326735 1.990269556 2.710663998 0.209739617 2.337835318 0.208334048
0.092203140 0.083183289 0.088185310 0.059150934 0.055172682 0.065117836 0.165199995 0.149282455 0.157285213 0.106349230 0.099391222 0.117264032 0.001152376 0.001192664 0.001187772 0.001178265 0.001165218 0.001150805 0.040951698 0.040877427 0.040805278 0.040924464 0.040865770 0.040846464 0.133103225 1.261099011 0.391071376 0.175521271 1.311303483 3.322581910 0.208994135 0.230405734 0.225448569 0.225715522 0.212697857 0.223099307 0.179780999 1.264993552 0.440519669 0.226582660 1.325570365 3.322598961
0.073165894 0.055190563 0.056174517 0.053183317 0.065196991 0.078202009 0.131247759 0.099288464 0.100241661 0.095359087 0.116350174 0.140271187 0.001192893 0.001165311 0.001198557 0.001203347 0.001183145 0.001198071 0.040866500 0.040819450 0.040819271 0.040850340 0.040832896 0.040863789 0.288870896 2.495717524 2.396846191 2.959597822 1.037573996 0.095275460 0.172738398 0.191436517 0.189014865 0.185441910 0.185749827 0.175693996 0.337100097 2.509896922 2.442595507 2.959944565 1.061388023 0.129840386
0.061185837 0.055173874 0.090180159 0.098197937 0.073203325 0.067184925 0.109281301 0.099277020 0.161297083 0.175283432 0.131253242 0.120305777 0.001192314 0.001179326 0.001213993 0.001182855 0.001170111 0.001170860 0.040807808 0.040854035 0.040760943 0.040915779 0.040862505 0.040896653 0.979925150 1.850999247 1.043490543 0.144040416 2.866916546 3.884460315 0.204081406 0.207705862 0.215753882 0.207221870 0.215614614 0.207090698 1.001059795 1.897063055 1.093493769 0.183198840 2.892635200 3.899485714
0.051197052 0.075190783 0.056180716 0.091174603 0.086198568 0.087178469 0.091253757 0.135297298 0.100280762 0.163314342 0.154240131 0.156266212 0.001139308 0.001188157 0.001188620 0.001156160 0.001185109 0.001181552 0.041067683 0.041078108 0.041016098 0.041024999 0.041113895 0.041107162 1.769511673 1.764555776 0.916570939 0.179429766 0.538355047 0.135505844 0.220497053 0.220791412 0.229025527 0.208125601 0.210071810 0.222329514 1.879463874 1.825897234 1.076220958 0.179489121 0.701621412 0.253677253
0.086347580 0.070395708 0.075344563 0.099339962 0.089371443 0.079336882 0.154495239 0.126584530 0.134464979 0.178613186 0.160548210 0.142591238 0.001187962 0.001367479 0.001244414 0.001317968 0.001333221 0.001327636 0.041061720 0.040996710 0.041070052 0.041047817 0.041041160 0.041034795 1.602760023 3.524125445 3.178106185 0.154553671 1.065308076 2.143115895 0.245268242 0.254938775 0.222377788 0.220481425 0.222246957 0.245455505 1.603631574 3.601272060 3.223280585 0.251970119 1.116420801 2.197226433
0.081368685 0.095275402 0.100337505 0.080397129 0.067273378 0.070357323 0.145774126 0.170440912 0.180586815 0.143578529 0.120563745 0.126676559 0.001412109 0.001230115 0.001322557 0.001401749 0.001259268 0.001374891 0.040993695 0.041093592 0.041057008 0.041093739 0.041061280 0.041093649 1.933280292 0.195092312 0.176336569 2.132457722 3.683472554 2.952315243 0.246511997 0.230913572 0.228854980 0.247460726 0.255378689 0.239590300 2.063903598 0.360819616 0.254662359 2.232850181 3.787485093 3.059481112
0.050357103 0.052358150 0.056340933 0.081395864 0.081332922 0.098269701 0.090601921 0.092649937 0.100588799 0.145550251 0.145632029 0.171444178 0.001260316 0.001353204 0.001330898 0.001186380 0.001317809 0.001284375 0.041062797 0.041067679 0.041102212 0.041016727 0.041124886 0.041073548 2.529283434 2.143997532 1.605823582 1.739054387 1.977830441 0.123506723 0.204175605 0.214427861 0.211399290 0.204042981 0.211080489 0.207598353 2.529336729 2.213708662 1.620075322 1.790683040 1.994324864 0.157755562
0.058376074 0.094260693 0.073316574 0.061377525 0.058352947 0.056265831 0.104591370 0.168564796 0.131546497 0.108614922 0.104389668 0.100570679 0.001176902 0.001251664 0.001432297 0.001290013 0.001345864 0.001163387 0.041020308 0.041082558 0.041071141 0.041083457 0.041068660 0.041218777 0.864441080 0.000000000 2.600471156 0.127216325 0.942740445 1.174339440 0.197505162 0.195491065 0.175549962 0.219605531 0.199719374 0.188295650 0.945984209 0.170812009 2.618822280 0.169528442 0.977712158 1.188192116
0.076417208 0.078363419 0.073271275 0.062263012 0.062269688 0.095388889 0.136562824 0.138694286 0.131639242 0.111583233 0.111431599 0.168583155 0.001242429 0.001354221 0.001357558 0.001192061 0.001400542 0.001321574 0.041024467 0.041048484 0.041013920 0.041125896 0.041071161 0.041062211 1.875233367 1.574695363 2.190789328 0.159025400 3.233612524 0.136313747 0.208763015 0.211922928 0.198409757 0.217469212 0.219663588 0.209668503 1.927476392 1.669339861 2.241612086 0.194119801 3.318189153 0.172959251
0.068289518 0.099332094 0.072268724 0.076244354 0.085411310 0.077208996 0.122586966 0.176672220 0.129600525 0.131706476 0.153554201 0.137540102 0.001355829 0.001180466 0.001354776 0.001335880 0.001273783 0.001348730 0.041074711 0.041017249 0.041061270 0.041017333 0.041032210 0.041119490 3.636297613 0.130470407 3.090647412 3.114892871 1.431763517 2.392256189 0.211566134 0.209581054 0.212374482 0.234545038 0.209909827 0.219831371 3.657980596 0.182498200 3.115310350 3.124520648 1.433187994 2.393268015
0.051313639 0.063338518 0.094255209 0.072338820 0.059301138 0.086360455 0.091583729 0.113587379 0.168596745 0.129579782 0.106533527 0.154597282 0.001355869 0.001306244 0.001367308 0.001329273 0.001326194 0.001246872 0.041059606 0.041050584 0.041055414 0.041035102 0.041130289 0.041043242 1.457965647 3.282139348 0.139579481 2.315869006 0.174773422 0.800525224 0.192335182 0.207721106 0.201471220 0.231663952 0.199469185 0.205326303 1.540509188 3.337048933 0.175010811 2.447409498 0.261188671 0.874641376
0.054243803 0.089343309 0.062367916 0.053331375 0.080386639 0.078334808 0.097506523 0.160605907 0.110572577 0.095608950 0.144601345 0.140522242 0.001217006 0.001334458 0.001407293 0.001340948 0.001336686 0.001273342 0.041058621 0.041030268 0.041135272 0.041134623 0.041103851 0.041011527 0.888910163 0.126686363 3.615746916 1.242604941 1.213959148 1.260039663 0.197412071 0.195557819 0.192200205 0.202086976 0.189584917 0.219973689 0.911662735 0.175488354 3.615797528 1.281719240 1.223814740 1.289469805
0.067326546 0.096378803 0.088327169 0.065284729 0.085317850 0.100357056 0.120531321 0.171469212 0.158516884 0.117602587 0.153721809 0.180447817 0.001349990 0.001392036 0.001272286 0.001328034 0.001358803 0.001491802 0.041062730 0.041062140 0.041028303 0.041104048 0.041115825 0.040998439 3.925138759 0.760633545 1.730182815 0.579611232 2.403042453 0.170956311 0.238480859 0.244684573 0.240636417 0.247596843 0.231162109 0.242990358 3.980659342 0.769330075 1.759508461 0.579628255 2.423682202 0.218219507
0.050213099 0.097271919 0.076347589 0.069306374 0.099290371 0.064237356 0.090580940 0.173568964 0.136507511 0.124496460 0.178444147 0.115414619 0.001300527 0.001351795 0.001313079 0.001254668 0.001284486 0.001340383 0.041074575 0.041020448 0.041032412 0.041087840 0.041091770 0.041033265 2.998037896 0.466989873 3.032130941 3.820772875 0.168632209 0.249064740 0.219793781 0.220643645 0.217987889 0.223400333 0.224150936 0.238894112 3.011668491 0.531537809 3.107328469 3.820843713 0.224147124 0.256379880
0.079368830 0.083345175 0.076279640 0.078310251 0.060335159 0.099270821 0.141543865 0.148513079 0.136548758 0.140589714 0.108696938 0.178488970 0.001353532 0.001371072 0.001346248 0.001244898 0.001352302 0.001475702 0.041004852 0.040993950 0.041074159 0.041067682 0.041031732 0.041021360 2.433915379 1.920364548 2.652133550 2.684669416 0.856473875 0.171767847 0.224900804 0.222230361 0.214881473 0.221071627 0.203647104 0.213617030 2.459855891 1.957121204 2.683032210 2.722920911 0.958055012 0.171832811
0.059270620 0.060340405 0.060250759 0.100345135 0.098352909 0.094372034 0.106584311 0.107488632 0.108525753 0.180499077 0.175612926 0.168527365 0.001169030 0.001143405 0.001147700 0.001182288 0.001196389 0.001207166 0.040995220 0.041071799 0.041029472 0.041088649 0.041009820 0.041030834 1.203714245 1.349619841 1.308251622 0.194673520 0.169594007 0.259938565 0.215119523 0.220974525 0.223638946 0.220017512 0.226426084 0.247205938 1.215771988 1.381554705 1.350466832 0.211908213 0.217056874 0.261342157
0.075149536 0.074161768 0.096159220 0.055154800 0.063164473 0.055155993 0.134187937 0.133217335 0.169169664 0.099301815 0.113459587 0.099307537 0.001122045 0.001143847 0.001139431 0.001148442 0.001138389 0.001141767 0.041046450 0.041010376 0.041011589 0.041007857 0.041090765 0.041053004 2.454034750 2.711055455 0.103147402 1.394625659 0.325714055 1.489718980 0.208846769 0.213513074 0.200146111 0.191909323 0.201210867 0.201123562 2.515040118 2.790173905 0.147540471 1.479143527 0.423720640 1.592377566
0.061298132 0.069365501 0.052221060 0.062351227 0.072304010 0.070261717 0.109483480 0.123522997 0.093612909 0.111589909 0.129495382 0.126715422 0.001356964 0.001234816 0.001311762 0.001289900 0.001221346 0.001308283 0.041087857 0.041091431 0.041070405 0.041047718 0.041041477 0.041023687 1.467366551 0.138444529 2.322374349 1.241659387 0.109534072 0.127730720 0.181142796 0.196816274 0.183968589 0.189669729 0.181837925 0.179793345 1.476239398 0.170248813 2.360521614 1.241669708 0.148205592 0.156392310
0.056280136 0.100355625 0.051233530 0.096279621 0.100381851 0.088367462 0.100648165 0.178416729 0.091562510 0.172419310 0.176493406 0.158645630 0.001264647 0.001258006 0.001216274 0.001215597 0.001313828 0.001276559 0.040978567 0.041090107 0.041069769 0.041099293 0.041032817 0.041042134 1.965818319 0.483083781 0.166889681 0.840764478 0.187517607 1.475739792 0.220247502 0.240499246 0.231876670 0.228143455 0.246453684 0.246208585 2.072607246 0.537275145 0.261228746 0.891703992 0.194808433 1.527059307
0.061309338 0.054288387 0.069348812 0.084221363 0.053268433 0.052260637 0.109577417 0.097564459 0.124567986 0.151475191 0.095570564 0.093402147 0.001299512 0.001343619 0.001294492 0.001258684 0.001206123 0.001283924 0.041069979 0.041046984 0.040997546 0.041072244 0.041092128 0.041093347 3.049182708 0.358164636 2.056350331 0.132490107 0.803291473 0.687146741 0.215226746 0.206454646 0.194072090 0.185608630 0.191757310 0.200511707 3.060602389 0.415138378 2.056392625 0.155564319 0.817221937 0.764397489
0.061199188 0.061318398 0.054250956 0.060375452 0.063359976 0.065261602 0.109621048 0.108608246 0.097596884 0.107575178 0.112602234 0.117581844 0.001216015 0.001289369 0.001248192 0.001165869 0.001298305 0.001262277 0.040988332 0.041010661 0.041064326 0.041048463 0.041064492 0.041039593 0.897067173 0.705901227 1.772690016 1.036430751 0.562745851 0.109566762 0.169644099 0.181330949 0.165397668 0.159189198 0.161798179 0.173651150 0.897083815 0.744503149 1.814173666 1.045960024 0.614320215 0.138704218
0.050230265 0.086236000 0.089191914 0.074247360 0.100244999 0.090215206 0.090491295 0.154529572 0.156550646 0.133466721 0.178534269 0.161591053 0.001346165 0.001286682 0.001219533 0.001259465 0.001200616 0.001224885 0.041011057 0.040973516 0.041042660 0.041024754 0.041046351 0.041031117 0.184126375 1.281593246 1.419359813 3.311839902 0.179551839 1.244606954 0.220536194 0.215119526 0.227132678 0.223701656 0.220943656 0.228206175 0.245856176 1.334238045 1.451615623 3.368432222 0.204128291 1.244671748
0.080235004 0.055201292 0.086186647 0.065192938 0.053258419 0.058318615 0.143605471 0.099403143 0.153621674 0.117593765 0.095516205 0.104503870 0.001340878 0.001220055 0.001256097 0.001270044 0.001191663 0.001260463 0.040966192 0.041050867 0.041021176 0.041042484 0.041088501 0.041083043 1.095219701 0.280725476 0.136163846 2.418439658 0.730613128 3.398643014 0.188891462 0.200142158 0.183178135 0.222473379 0.222907717 0.186076996 1.113207130 0.299879473 0.183229484 2.492968144 0.782416916 3.398678397
0.092266083 0.050322533 0.085344791 0.061323881 0.052233219 0.098374367 0.164490700 0.090362787 0.153581142 0.108586788 0.093465567 0.176546335 0.001237748 0.001320369 0.001188070 0.001241237 0.001242741 0.001336435 0.040985275 0.041070700 0.041009500 0.041079598 0.041090087 0.041102137 0.880300082 0.181136716 2.019105811 0.623537737 2.545030337 0.173363739 0.218107096 0.214765168 0.241744594 0.231853170 0.209381907 0.206681781 0.880362226 0.203493857 2.050699258 0.668885213 2.567545220 0.252807470
0.052353382 0.072361946 0.068246126 0.085346937 0.054310322 0.061356783 0.093577385 0.129472256 0.122593164 0.153542042 0.097623110 0.109586000 0.001221828 0.001385045 0.001254243 0.001224345 0.001227424 0.001192229 0.041056075 0.040982787 0.041097710 0.041067474 0.041068428 0.041063488 1.151211592 1.655641876 2.577969196 0.113562828 0.712940673 3.018857831 0.199902024 0.186210917 0.196567846 0.182332025 0.196443981 0.198928782 1.215959605 1.698805255 2.578061539 0.151890125 0.726307395 3.079537872
0.092277288 0.053282738 0.071246624 0.074266434 0.098370790 0.088356495 0.164609432 0.095616579 0.127603531 0.133549690 0.176683664 0.157603264 0.001243548 0.001248951 0.001143920 0.001337787 0.001380386 0.001266674 0.041048043 0.040978546 0.041029228 0.041059082 0.041052041 0.041118652 0.733586269 1.845506846 2.874352040 2.731809397 0.124631851 1.329103666 0.200846734 0.213446641 0.238810636 0.231153454 0.205333618 0.226346689 0.849225500 1.992802988 3.079889845 2.900723169 0.230948320 1.507866430
0.065300226 0.062234163 0.097334385 0.065294266 0.085351706 0.094332218 0.117508173 0.111604691 0.172591209 0.117599726 0.150599480 0.164278984 0.001325794 0.001231881 0.001335545 0.001301745 0.001286761 0.001356496 0.041104358 0.041104541 0.041039747 0.041113458 0.041089156 0.041045864 3.633900177 0.472862295 0.149544761 0.168218259 1.563231207 0.253121173 0.212610408 0.212572309 0.239457290 0.220622523 0.215679694 0.228978911 3.652594040 0.521880847 0.184457943 0.228719041 1.622593685 0.292782269
0.065346718 0.083380461 0.057187796 0.078274250 0.084311008 0.080358267 0.117815018 0.149734735 0.102596283 0.140426874 0.150547266 0.144571781 0.001330594 0.001251064 0.001191666 0.001303738 0.001225305 0.001275248 0.041086475 0.040972547 0.040982040 0.041013972 0.041048210 0.041039556 2.169451480 0.121199544 0.163255710 0.303060143 0.121792210 0.808664517 0.217838477 0.233880137 0.228463925 0.216773259 0.215523448 0.220816709 2.200857185 0.224766434 0.180341689 0.327739405 0.174079556 0.808734230
0.064321756 0.052242041 0.090346813 0.072330236 0.079380512 0.070365191 0.115848064 0.093482256 0.162395000 0.129409075 0.141578197 0.126523256 0.001272663 0.001170594 0.001238706 0.001225743 0.001208459 0.001296982 0.040973587 0.041170933 0.041081783 0.041037177 0.041077878 0.041047608 3.428332869 1.718675410 0.092572674 2.501902288 1.160125412 2.424260486 0.217190000 0.202241730 0.201504573 0.198344497 0.212027120 0.197900079 3.428773822 1.732640963 0.164481391 2.501957686 1.191403292 2.498618067
0.093342781 0.063313723 0.078235626 0.065299034 0.090348959 0.086303711 0.167565823 0.113597155 0.139630556 0.117498159 0.162566423 0.154439688 0.001331557 0.001248492 0.001278862 0.001211644 0.001236552 0.001327068 0.040978278 0.041078016 0.041114443 0.041050810 0.041045818 0.041125304 0.118964291 3.503414624 1.893851401 3.151989973 0.174570015 0.603088269 0.225076707 0.208054135 0.222429938 0.235264889 0.230643044 0.231280875 0.175367566 3.540583270 1.902338517 3.178652038 0.199278479 0.621721887
0.073357105 0.077358484 0.059303522 0.097362995 0.074351549 0.083360434 0.127396584 0.138549805 0.106780767 0.174593210 0.133701324 0.149535656 0.001281945 0.001351595 0.001312770 0.001271226 0.001195808 0.001235641 0.041017442 0.041058557 0.041100856 0.041024320 0.041064839 0.041082848 2.992687204 2.523209175 0.899476940 0.120545153 2.948535141 2.194990091 0.256814079 0.234007192 0.219774692 0.230573538 0.232059184 0.217732661 3.112178720 2.648938668 0.993179428 0.205484338 3.074709493 2.264721901
0.069334984 0.065258265 0.090276480 0.074275494 0.067308426 0.080343008 0.124577999 0.117576599 0.162501812 0.133493662 0.120460033 0.144489050 0.001256791 0.001255671 0.001193835 0.001287729 0.001260454 0.001327358 0.040995570 0.040963520 0.041031850 0.041054459 0.041076449 0.041079471 2.961182851 3.427339747 0.154637573 2.462738329 3.217264340 1.379200078 0.203673539 0.214758005 0.196541355 0.214865853 0.214639707 0.221398679 2.980886814 3.458494246 0.169549824 2.484719970 3.217322500 1.436084898
0.059302330 0.074320316 0.055262089 0.096259832 0.093350649 0.099267244 0.106617212 0.133608580 0.099602938 0.172379971 0.167505503 0.177594900 0.001227479 0.001320031 0.001198014 0.001326803 0.001314835 0.001238439 0.041027870 0.041080171 0.041017353 0.041008944 0.041089095 0.041016630 1.384187521 2.488187600 1.755630257 0.188991813 0.464645467 0.184744084 0.238142442 0.235421904 0.233422835 0.234011454 0.243311918 0.224141479 1.483608748 2.580184980 1.878043609 0.321528455 0.585601669 0.209630759
0.097277164 0.065207958 0.059305906 0.095362663 0.082334280 0.092297792 0.173516035 0.117575169 0.106544971 0.171542168 0.147572756 0.165523529 0.001262489 0.001213818 0.001277544 0.001200297 0.001206977 0.001283272 0.041044299 0.041075867 0.041021807 0.041040809 0.041009455 0.041183484 0.154022711 3.625237200 0.995428660 0.259123454 2.046632443 0.161656978 0.228488078 0.220228280 0.217891420 0.251600743 0.237506802 0.232898977 0.195602536 3.739951135 1.118621292 0.385598253 2.092226585 0.228139495
0.082338810 0.054323673 0.064257145 0.084331512 0.076288462 0.095332623 0.147615433 0.097583055 0.115572453 0.151560068 0.136537552 0.170570135 0.001186649 0.001209283 0.001243739 0.001320567 0.001365752 0.001347998 0.041010848 0.041367457 0.041040958 0.041032614 0.041102439 0.041016678 1.414300177 1.788271306 3.383460726 1.081170153 2.219750056 0.124557674 0.251066960 0.219079531 0.242559226 0.222407405 0.239468516 0.204158996 1.519006768 1.826662456 3.503981297 1.149316417 2.349578528 0.184501615
0.082298994 0.051209927 0.099309206 0.093337297 0.077403545 0.053313017 0.147420883 0.091490984 0.174529314 0.166580439 0.138549089 0.095606327 0.001279208 0.001234536 0.001307267 0.001253241 0.001144877 0.001183175 0.041025479 0.041070873 0.040986221 0.041022981 0.041107879 0.041110725 1.796580176 2.495669339 0.120527081 0.402610855 2.117066518 1.916623502 0.224978987 0.222182903 0.205512340 0.215748243 0.222045703 0.233197336 1.958896672 2.599702324 0.185930982 0.520974902 2.206383705 2.078800004
0.079358578 0.085329771 0.098423004 0.080273151 0.068370342 0.066333294 0.142590523 0.153562069 0.175535440 0.144503117 0.122435093 0.118534088 0.001220772 0.001335625 0.001299568 0.001245972 0.001296523 0.001255031 0.041013724 0.041023442 0.041109805 0.041035066 0.041047867 0.041041267 2.526819083 1.483232819 0.132478967 2.022347114 3.762234058 3.611110957 0.213139586 0.235418583 0.218771948 0.219295885 0.234984883 0.211263024 2.560585019 1.545606920 0.192645514 2.022398765 3.817315149 3.690517457
0.050271273 0.092259407 0.053255081 0.057282448 0.085317850 0.054241419 0.090596914 0.165477037 0.095629454 0.102599382 0.149575949 0.097561121 0.001268168 0.001202859 0.001234836 0.001216052 0.001223547 0.001314715 0.041016531 0.041003824 0.041096758 0.041115249 0.041069962 0.041078644 2.114317413 0.134687736 1.538410748 1.008349775 0.812538646 1.218407382 0.182835779 0.184569565 0.179543411 0.200310850 0.186504360 0.207886994 2.158947248 0.168712374 1.581058063 1.058827542 0.853926158 1.254201132
0.054316044 0.067371845 0.059312344 0.091317892 0.085301876 0.075330973 0.097690821 0.117578030 0.106529951 0.163426399 0.153505564 0.134561777 0.001249376 0.001158439 0.001214971 0.001208703 0.001206525 0.001332420 0.041028559 0.041078351 0.041026249 0.041039017 0.040982766 0.041026205 0.831023005 3.252517750 0.677375280 0.166873600 1.001611533 2.420562480 0.200600598 0.202663492 0.205105105 0.210967520 0.198915193 0.212530826 0.874242938 3.255953613 0.694254588 0.190569921 1.066878656 2.437857067
0.092359543 0.059268713 0.060369492 0.072396278 0.068247080 0.064355612 0.165535688 0.105564594 0.107447863 0.129620075 0.122588873 0.115541697 0.001333087 0.001222693 0.001323613 0.001251907 0.001223271 0.001240425 0.041034520 0.041006445 0.041100287 0.041114283 0.041114874 0.041103301 0.121224254 0.296323538 0.491078245 2.350780946 3.111335330 3.648232810 0.195649651 0.223498329 0.199920162 0.215215485 0.203078819 0.204376120 0.162528336 0.349895128 0.494862835 2.350842139 3.132008535 3.705162959
0.053201437 0.096356392 0.094319582 0.055231571 0.067173958 0.067366600 0.095672607 0.169595480 0.167585373 0.099566460 0.120590687 0.120568275 0.001233736 0.001243999 0.001231989 0.001214837 0.001289926 0.001334374 0.041008735 0.041015545 0.041068537 0.041085892 0.041130695 0.041021216 1.843780252 0.164476059 0.445877067 1.591518994 3.475859611 3.367471626 0.228178646 0.209746263 0.205645831 0.208983280 0.210641235 0.209710413 1.861642978 0.186764875 0.489869195 1.610276084 3.485075382 3.367530522
0.069308043 0.088263988 0.087268114 0.071365356 0.058210135 0.071361780 0.123584032 0.158596039 0.156591415 0.126498938 0.104550600 0.127550602 0.001367096 0.001364040 0.001272298 0.001269259 0.001217508 0.001314646 0.041049316 0.041097063 0.041073920 0.041027887 0.041107817 0.041023149 2.341958211 0.137653884 0.124486160 1.936001460 3.380142578 1.808449685 0.226502535 0.218449128 0.216547578 0.193852506 0.206358768 0.209437303 2.418824746 0.200104161 0.168352166 2.058640807 3.484512272 1.947800702
0.055201054 0.099360704 0.073345184 0.073364496 0.068270922 0.084362268 0.099788666 0.175532818 0.131584406 0.131764412 0.122611284 0.150576591 0.001309766 0.001349026 0.001309218 0.001185161 0.001227285 0.001194272 0.041037877 0.041039475 0.041096310 0.041065320 0.041025788 0.041038141 1.958392439 0.121807179 2.903794473 3.130943426 0.137985047 1.629512036 0.232932917 0.212342843 0.220590114 0.222562137 0.215538039 0.220947306 2.010695717 0.190084966 2.939811177 3.177089563 0.235459892 1.633096824
0.070273161 0.079314470 0.073295832 0.057211161 0.059357166 0.092346907 0.125606298 0.141577482 0.131504059 0.102595329 0.106562853 0.165434361 0.001327142 0.001305850 0.001198865 0.001335056 0.001238906 0.001197320 0.041025080 0.040992183 0.041007894 0.041076103 0.041053149 0.041093987 2.723748480 1.224883583 2.506257858 0.816804740 0.329952197 0.166693073 0.214356676 0.222201508 0.219805172 0.204692932 0.210858080 0.198890337 2.769231412 1.260964149 2.588216975 0.877410171 0.351847992 0.190214590
0.098198414 0.085222960 0.083344221 0.059333086 0.058186293 0.091352463 0.176590681 0.151640654 0.148585320 0.106493473 0.104616642 0.163530827 0.001227100 0.001219490 0.001238803 0.001326362 0.001270103 0.001264485 0.041035724 0.041059236 0.041077989 0.041134657 0.041076908 0.041018951 0.127543123 1.825592079 1.694397903 1.259677888 1.660387027 1.003219751 0.215973298 0.229872723 0.240048191 0.237034775 0.235782915 0.244146563 0.191134854 1.868545705 1.695620341 1.328033915 1.704580185 1.022004245
0.087342501 0.099307060 0.072255850 0.058245182 0.068350554 0.092309475 0.156242371 0.177473545 0.129502535 0.104558468 0.122499943 0.165487051 0.001255698 0.001291478 0.001195645 0.001243088 0.001260516 0.001233359 0.041029457 0.041001481 0.041051239 0.041012277 0.041016045 0.041073239 1.802773545 0.125565553 3.644030254 1.940145531 0.458430609 1.004797627 0.225797793 0.213739564 0.249843973 0.223173184 0.222534800 0.240912375 1.802863374 0.192650601 3.656455124 1.963076763 0.473396810 1.069606071
0.067368031 0.053274155 0.062347651 0.061351538 0.076331139 0.078252792 0.120596170 0.095468521 0.110882998 0.109527349 0.135641813 0.140520573 0.001313281 0.001301666 0.001305997 0.001241609 0.001343939 0.001288793 0.041055426 0.041067267 0.041021865 0.041112712 0.041076379 0.041007600 1.418670362 0.228979215 2.264113650 2.105068111 0.828960026 0.097676950 0.190867457 0.192351041 0.187202216 0.177418162 0.174789046 0.198021777 1.533330778 0.345592803 2.372417483 2.241041721 0.884079228 0.163680037
0.072265863 0.072283745 0.057292461 0.100353479 0.073287010 0.091355562 0.129567146 0.129462481 0.102627516 0.180575848 0.131578207 0.163548231 0.001165436 0.001232590 0.001283772 0.001348576 0.001245808 0.001329039 0.041026623 0.041067362 0.041109729 0.041054851 0.041156888 0.040996841 3.241899635 3.344336175 1.478194908 0.142578513 3.454941387 1.199764217 0.245427581 0.226879875 0.210513602 0.208422454 0.233857488 0.212620209 3.396418553 3.486086224 1.631890964 0.170794850 3.597749347 1.396729877
0.091343880 0.082345009 0.099290609 0.063304186 0.052242517 0.091341972 0.163512230 0.147452116 0.173581600 0.113581896 0.093576431 0.163612843 0.001158773 0.001208545 0.001339969 0.001227250 0.001280933 0.001273168 0.041054664 0.041036686 0.040961163 0.041047652 0.041024338 0.041021779 1.380880108 2.252188777 0.172514541 0.723468196 2.657048580 0.430386341 0.222525746 0.242588105 0.220921708 0.251894130 0.264147789 0.261706263 1.412414444 2.290216870 0.206186501 0.841034788 2.712084493 0.511404632
0.082343102 0.095355272 0.078304291 0.082312346 0.065263033 0.082290173 0.147238970 0.170547247 0.138577461 0.147528172 0.117482901 0.146609068 0.001205598 0.001323293 0.001231999 0.001200659 0.001268281 0.001184900 0.041003065 0.041071756 0.041031819 0.041027503 0.041068675 0.041019732 1.164726356 0.114667999 1.500006314 0.786494890 3.359330664 1.118743961 0.232007705 0.231490967 0.244193533 0.240487634 0.228449643 0.222936548 1.164786005 0.179633682 1.593357570 0.839644665 3.445334640 1.180064183
0.097395182 0.096346140 0.099300146 0.055349350 0.057263851 0.094324350 0.173714876 0.172474623 0.177609205 0.099613190 0.102611065 0.169547319 0.001432302 0.001339886 0.001318496 0.001255865 0.001257765 0.001287406 0.041083414 0.041037917 0.041004652 0.041054370 0.041059659 0.041110306 0.378215216 0.139542634 0.154520996 2.201611899 1.690287749 0.624085522 0.230124349 0.243053230 0.233565731 0.232105974 0.230228389 0.274472741 0.411755424 0.192499944 0.188457548 2.232177054 1.726012646 0.624316746
0.064287186 0.094331264 0.056250572 0.090383768 0.060342789 0.087302685 0.115500212 0.169550180 0.100618601 0.161365271 0.108603239 0.156601429 0.001197227 0.001266883 0.001213466 0.001393771 0.001317496 0.001240988 0.040993722 0.040986112 0.041031825 0.041008097 0.041116704 0.041262706 0.185140067 0.124751778 1.565677874 1.138231895 0.843649742 1.444738050 0.227582131 0.198519317 0.203495376 0.219622688 0.217841780 0.214820510 0.235806317 0.187131094 1.606757220 1.163992280 0.864243616 1.497917708
0.091348886 0.059325695 0.100280523 0.084313154 0.073341608 0.091274261 0.163538456 0.106706381 0.180584908 0.151704073 0.131598473 0.162600517 0.001197911 0.001303318 0.001221403 0.001282700 0.001212143 0.001189365 0.040968313 0.041038818 0.041034833 0.040984387 0.041057860 0.041032459 1.557477588 1.883073276 0.134584901 2.433708554 3.480578989 1.849627998 0.245297650 0.227672323 0.247206594 0.224084520 0.246789422 0.264966376 1.588021181 1.894638491 0.190442769 2.467376029 3.566061278 1.874226709
0.085328102 0.070310831 0.088286400 0.097433090 0.059332371 0.070279837 0.153741360 0.126602173 0.157474279 0.174487829 0.106587172 0.126595020 0.001232682 0.001304509 0.001343139 0.001240362 0.001213778 0.001290254 0.040989470 0.040993841 0.041036605 0.041070725 0.041008483 0.041034741 1.064013277 2.790210991 1.124513600 0.155610400 0.984949298 3.109592761 0.227239554 0.228317952 0.236670773 0.222764523 0.219640613 0.228926115 1.130259127 2.886690323 1.162894786 0.195422593 1.075494800 3.190429512
0.068216324 0.055257559 0.051367044 0.060284615 0.093273878 0.092349529 0.122567415 0.099724293 0.091595173 0.108591795 0.165449381 0.164489031 0.001196391 0.001304405 0.001291528 0.001182346 0.001371583 0.001248044 0.040981975 0.041073999 0.041011413 0.041026051 0.041046793 0.041070318 3.203731353 1.135982180 1.936281367 0.519070868 0.138968171 0.162544058 0.204682714 0.200296295 0.205928668 0.223111810 0.219113173 0.204102968 3.239146875 1.140876529 1.952100027 0.534236420 0.144395018 0.191540430
0.093373299 0.097338438 0.075280666 0.072292089 0.055233479 0.077311993 0.166487217 0.173573494 0.134515285 0.128448725 0.099531651 0.138461351 0.001366110 0.001277365 0.001283407 0.001221477 0.001277310 0.001222826 0.041005298 0.041042208 0.041056751 0.041045742 0.041086654 0.041030325 0.912665846 0.127468948 2.923702676 3.553912395 1.952344752 3.035019918 0.210702864 0.207567627 0.215038809 0.223697962 0.212412751 0.213333664 0.917620847 0.174650013 2.931247485 3.588058488 1.952399080 3.039301100
0.050217867 0.062197208 0.064318895 0.052254438 0.082280159 0.098309755 0.090606689 0.110612631 0.115589857 0.093572617 0.147585154 0.176481962 0.001162749 0.001315527 0.001241325 0.001275421 0.001199766 0.001143954 0.041027293 0.041153013 0.041091701 0.041020136 0.040997646 0.041028903 0.177096428 0.706281161 0.293882279 2.762320262 2.232128783 0.138651622 0.186880988 0.191123484 0.206732405 0.201354152 0.190427012 0.198861148 0.236212518 0.758544280 0.328972316 2.771733205 2.245358543 0.140337831
0.067291021 0.095334768 0.052234650 0.098277807 0.091325760 0.065309763 0.120604992 0.171586275 0.093661785 0.175592184 0.163623095 0.117633343 0.001306783 0.001239369 0.001274937 0.001270396 0.001303383 0.001325232 0.041007589 0.041026159 0.041035883 0.041074974 0.041039774 0.041006117 3.560228155 0.161631560 2.572134750 0.157504534 0.158891336 3.747971913 0.233049723 0.219586118 0.206831496 0.216287131 0.222967404 0.223650832 3.592872252 0.186557585 2.609793666 0.204227294 0.219454674 3.781055087
0.070294142 0.051303625 0.090356827 0.063344240 0.055346966 0.067321301 0.126514196 0.091584921 0.162602425 0.112581253 0.099599600 0.120577097 0.001268982 0.001164716 0.001259720 0.001207704 0.001268908 0.001242922 0.041053286 0.041022049 0.041021852 0.041050663 0.041070562 0.041019829 2.617334880 1.480267698 0.104501059 3.029652367 1.125517439 2.972136889 0.203114580 0.220304532 0.195014191 0.197753122 0.194250189 0.187371063 2.657544849 1.489540198 0.182322217 3.079171138 1.151173650 3.012716787
0.065274239 0.088274717 0.095274925 0.096359491 0.051351786 0.065287113 0.117533207 0.158494711 0.171529055 0.172534227 0.090531349 0.117587328 0.001223795 0.001242950 0.001249966 0.001364220 0.001324505 0.001244119 0.041023523 0.041031546 0.041028113 0.040987608 0.041063295 0.041176711 3.447680104 1.013273745 0.201951295 0.133550140 2.403313693 3.517445129 0.218281548 0.216780003 0.240999253 0.237373524 0.201506904 0.221451699 3.489270759 1.024706331 0.239250919 0.164555764 2.419688065 3.554638341
0.087254286 0.052288771 0.099300146 0.094363451 0.073307276 0.050290346 0.154668331 0.093615055 0.175563574 0.169488907 0.131575584 0.090528488 0.001228492 0.001167588 0.001274119 0.001312905 0.001171766 0.001282627 0.041001866 0.041038946 0.041095772 0.041063603 0.041116241 0.041076989 1.487290927 2.467947488 0.166583637 0.852464984 3.364871019 0.181521860 0.227303983 0.225030223 0.228134672 0.249162415 0.220716816 0.219844431 1.519136479 2.494270126 0.196958836 0.888976241 3.364936156 0.233447783
0.057302237 0.095339060 0.077323675 0.066309214 0.057261467 0.098311901 0.102593422 0.171510458 0.137502909 0.118560791 0.102557182 0.176456690 0.001318996 0.001353099 0.001347017 0.001317836 0.001212475 0.001210923 0.041023393 0.041015637 0.041128370 0.041051879 0.041039989 0.041097039 1.313181159 0.124687050 2.514616503 3.709816435 1.422634608 0.165503277 0.226156706 0.203500085 0.229587273 0.241990324 0.228817135 0.205080989 1.447030793 0.197096665 2.644898482 3.788199445 1.490772902 0.177839327
0.069288492 0.093348026 0.066319227 0.054278374 0.080297947 0.079352856 0.124586344 0.165590286 0.118526936 0.097644091 0.143546104 0.142591953 0.001218052 0.001280964 0.001243239 0.001354488 0.001260084 0.001229822 0.041051567 0.041075231 0.041065311 0.041083261 0.041009372 0.041259971 3.067121094 0.136587849 3.426416826 1.602780762 1.620429716 1.700584313 0.203547372 0.210549968 0.208473843 0.216509956 0.226517104 0.209381651 3.154639678 0.202735609 3.512922278 1.712550984 1.650488116 1.823276613
0.057269573 0.071342230 0.074273109 0.072318554 0.088347435 0.082268238 0.102530479 0.126578808 0.132585287 0.129610538 0.158579826 0.146614313 0.001146847 0.001152909 0.001138585 0.001142897 0.001139716 0.001141771 0.041017817 0.040980637 0.041007046 0.040979508 0.040972294 0.041072145 0.388501930 2.051789407 1.296747829 1.767160999 0.153760361 0.703669811 0.204296392 0.207842679 0.203581489 0.227006601 0.206087255 0.201679866 0.417911190 2.111560137 1.322584870 1.797006495 0.207811816 0.806143729
0.061173916 0.073198557 0.086203337 0.076189518 0.081199408 0.089188576 0.109368563 0.131347895 0.154245377 0.136298180 0.145351648 0.160208941 0.001160459 0.001183400 0.001180775 0.001160179 0.001199690 0.001213257 0.040859244 0.040839752 0.040801534 0.040909696 0.040877086 0.040805991 0.155506854 2.129386177 0.395905894 1.634780130 1.358344768 0.151349227 0.211897530 0.214108893 0.208098631 0.221774884 0.234833316 0.205543169 0.219123056 2.161631096 0.438653030 1.697327469 1.358358414 0.183148515
0.060166836 0.088212252 0.071204901 0.088179111 0.072191715 0.068221092 0.108225346 0.157304525 0.126337767 0.157269716 0.129296780 0.122412443 0.001194344 0.001169161 0.001154865 0.001209093 0.001184891 0.001164556 0.040843963 0.040748399 0.040890540 0.040856542 0.040819761 0.040840532 3.597517053 0.167263447 2.327371062 0.137958283 2.180118540 2.282679811 0.217532613 0.207860889 0.204936412 0.206044344 0.235187739 0.223643618 3.696743851 0.211679053 2.456289067 0.165949079 2.257406139 2.338236222
0.072197437 0.053151608 0.054179430 0.077174902 0.058173895 0.095174551 0.129293680 0.095284462 0.097396135 0.138267279 0.104315042 0.171450853 0.001194467 0.001167728 0.001171448 0.001180386 0.001148103 0.001164569 0.040944366 0.040863235 0.040811697 0.040880514 0.040881193 0.040934033 3.059778996 2.240271632 1.944792327 2.618482568 1.214248187 0.119329562 0.216298655 0.198089279 0.196234739 0.194990795 0.215842548 0.202315892 3.088198721 2.300536722 2.027223568 2.691770948 1.275329477 0.181572814
