0.070121527 0.069108963 0.080113173 0.066128016 0.050112247 0.089126587 0.070851564 0.069855928 0.080827236 0.066825867 0.050935268 0.089826345 0.000134399 0.000087436 0.000096380 0.000105772 0.000092349 0.000089902 0.021103196 0.021022033 0.021012858 0.021119447 0.021103152 0.021154151 0.115744821 0.092354129 0.106671363 0.112037644 0.104937369 0.103804754 0.203134361 0.204988108 0.196677048 0.201186763 0.197370920 0.198956122
0.051140308 0.092132568 0.056117773 0.072108269 0.070121050 0.100121975 0.051926613 0.092870712 0.056852102 0.072833538 0.070851803 0.100869894 0.000122548 0.000121757 0.000089776 0.000100416 0.000116488 0.000093978 0.021102881 0.021021105 0.021128021 0.021063266 0.021205872 0.021147307 0.096195668 0.108469497 0.108152765 0.120304490 0.120721736 0.100507861 0.219111887 0.215930619 0.216807588 0.214364585 0.214280257 0.221162630
0.091126680 0.094108582 0.096162081 0.078129292 0.087127447 0.087147951 0.091853380 0.094927311 0.096872091 0.078902483 0.087846994 0.087884188 0.000126305 0.000130995 0.000180897 0.000128763 0.000082931 0.000100438 0.021100790 0.021080208 0.021080494 0.021117377 0.021110394 0.021152178 0.113326576 0.124139532 0.112894550 0.127014892 0.126438035 0.135380615 0.229735399 0.234989226 0.233901944 0.234658349 0.235149205 0.240534444
0.081134081 0.086120129 0.093122244 0.066116095 0.079131126 0.071110964 0.081870317 0.086812496 0.093803167 0.067062378 0.079907656 0.071821451 0.000110930 0.000097792 0.000131648 0.000102107 0.000131969 0.000119958 0.021064811 0.021139467 0.021077325 0.021059706 0.021066270 0.021077719 0.115821422 0.112997199 0.105872538 0.107592515 0.129267378 0.116528029 0.227157517 0.220970984 0.219648959 0.218012732 0.221429217 0.216961670
0.079111099 0.078117132 0.054111004 0.096135139 0.076114178 0.053114176 0.079767704 0.078822613 0.054809570 0.096799374 0.076764107 0.053877115 0.000100555 0.000124325 0.000106238 0.000129793 0.000122590 0.000105917 0.021085640 0.021069034 0.021027404 0.021287757 0.021138362 0.021162081 0.113448072 0.110669408 0.108211326 0.072647155 0.120866109 0.119035480 0.212083665 0.213277499 0.210928953 0.168502603 0.217291564 0.207243755
0.093096733 0.065119028 0.051093578 0.051122665 0.082121134 0.071111679 0.093780041 0.065963507 0.051811934 0.051836729 0.082884550 0.071795225 0.000114014 0.000105937 0.000120807 0.000119559 0.000106525 0.000097003 0.021130320 0.021076907 0.021102029 0.021120280 0.021080632 0.021122008 0.088536567 0.108626186 0.096062935 0.099611895 0.105128287 0.108304059 0.187097393 0.197390576 0.201018925 0.202402042 0.199196093 0.202521358
0.092112303 0.055105448 0.086120605 0.058115482 0.098126173 0.067116022 0.093113899 0.055841446 0.086800098 0.058918953 0.099109411 0.067837954 0.000109489 0.000091635 0.000075283 0.000138763 0.000107036 0.000122178 0.021071293 0.021067523 0.021059498 0.021144323 0.021109890 0.021077933 0.111347193 0.116446369 0.125754058 0.106291562 0.111716517 0.123039256 0.227055399 0.217872473 0.230582779 0.221663578 0.214304122 0.226383798
0.067113876 0.050108194 0.062125921 0.054110765 0.074109316 0.066113949 0.067851543 0.050770998 0.062988520 0.054794073 0.074830055 0.067471266 0.000131075 0.000124379 0.000139200 0.000106238 0.000139236 0.000104497 0.021050637 0.021145823 0.021168062 0.021107693 0.021142328 0.021159383 0.093630098 0.092116430 0.093095498 0.104684510 0.093619178 0.095194234 0.176615417 0.184466270 0.180782573 0.182955585 0.169274417 0.180773342
0.050137043 0.067109108 0.074107409 0.061111450 0.081114531 0.073128939 0.050833941 0.067818880 0.074738503 0.061903000 0.081808805 0.073807240 0.000101532 0.000123088 0.000138143 0.000096337 0.000078429 0.000113165 0.021150523 0.021045352 0.021149668 0.021134265 0.021038461 0.021028915 0.107839494 0.110614873 0.110618050 0.102351292 0.096714318 0.109690212 0.188777044 0.191359598 0.192379759 0.190601055 0.185731736 0.191336008
0.061119318 0.064158916 0.060107231 0.058127165 0.052114964 0.073131800 0.061839342 0.064801693 0.060809135 0.058768749 0.052808285 0.073804855 0.000106776 0.000159030 0.000129689 0.000135115 0.000127326 0.000095792 0.021151079 0.021094339 0.021091190 0.021089032 0.021146854 0.021111886 0.097037758 0.088276219 0.093554283 0.101156185 0.093234586 0.090226275 0.174466615 0.175269706 0.177058338 0.175995432 0.177558568 0.170821593
0.078067064 0.058088541 0.068087339 0.065089703 0.087100506 0.098088264 0.078565598 0.058637619 0.068564653 0.065565586 0.087736130 0.098557234 0.000096507 0.000083485 0.000089010 0.000081230 0.000088030 0.000076511 0.020896026 0.020908765 0.020918955 0.020891890 0.020892545 0.020858314 0.106493333 0.116525975 0.129279441 0.118466021 0.109128482 0.074895268 0.214721909 0.209315780 0.223782873 0.224814940 0.212007832 0.209933472
0.078138828 0.093132734 0.100135326 0.094130754 0.055116415 0.076112270 0.078879356 0.093875647 0.100840569 0.094797850 0.055833340 0.076902628 0.000152409 0.000143983 0.000104024 0.000121384 0.000095893 0.000097316 0.021063844 0.021033371 0.021131366 0.021166401 0.021153975 0.021098638 0.120180647 0.129126591 0.120860199 0.108720447 0.129579131 0.129579424 0.232576253 0.235497644 0.222068725 0.234678800 0.229219912 0.234614649
0.093071938 0.080070972 0.074096441 0.051091909 0.078074217 0.069078207 0.093551159 0.080560446 0.074531317 0.051589489 0.078568220 0.069570780 0.000086048 0.000079749 0.000078644 0.000080269 0.000082589 0.000088731 0.020862323 0.020871484 0.020860962 0.021044552 0.020899643 0.020679736 0.080095944 0.102837640 0.105983895 0.081196160 0.103021037 0.108415263 0.194029676 0.208607769 0.213330909 0.206875597 0.208684644 0.208601446
0.060090065 0.080081463 0.055080414 0.062095642 0.085096836 0.056066990 0.060584545 0.080616951 0.055539608 0.062589169 0.085574627 0.056556940 0.000093403 0.000094058 0.000071455 0.000083243 0.000075955 0.000082118 0.021012574 0.020803497 0.020913036 0.020881492 0.020904932 0.020874966 0.095808172 0.097270892 0.104552229 0.097605934 0.085888876 0.083214934 0.188560540 0.188300227 0.187028257 0.188059034 0.189679644 0.191689772
0.055068493 0.088084698 0.050068855 0.100091696 0.090077162 0.067093849 0.055851698 0.088565826 0.050531626 0.100605011 0.090539455 0.067563057 0.000079980 0.000085018 0.000077172 0.000090260 0.000091787 0.000081983 0.020860811 0.021069305 0.020950827 0.020848597 0.020639514 0.021165104 0.096369534 0.088204501 0.085905514 0.076250560 0.102403753 0.105462878 0.219460090 0.227700129 0.221550560 0.209440780 0.228249384 0.226063832
0.055083036 0.095087528 0.059076309 0.053075314 0.053076982 0.083065748 0.055537462 0.095547676 0.059536934 0.053596497 0.053575516 0.083545923 0.000086790 0.000088177 0.000076581 0.000073582 0.000071528 0.000075588 0.020829165 0.020685969 0.020833622 0.020913699 0.020888596 0.020823378 0.091010166 0.065528654 0.096077140 0.094591232 0.093091210 0.101424553 0.207211477 0.160699304 0.202464995 0.198878926 0.200075327 0.198600977
0.071079016 0.096095800 0.071092129 0.097085953 0.079072475 0.092103720 0.071535826 0.096618652 0.071575165 0.097733736 0.079539061 0.092606544 0.000091353 0.000093630 0.000073894 0.000077829 0.000081219 0.000093979 0.020873647 0.020803782 0.020877163 0.020882135 0.020951963 0.020899387 0.127974743 0.128739492 0.133874380 0.123543781 0.145966438 0.139009070 0.233129919 0.239091011 0.232592007 0.240774376 0.235119771 0.231344522
0.068089724 0.099090099 0.074069500 0.083073139 0.064078569 0.077085972 0.068524122 0.099607706 0.074588776 0.083527565 0.064618111 0.077586412 0.000076519 0.000091653 0.000083490 0.000080662 0.000088024 0.000085392 0.020874164 0.020912052 0.020884571 0.020865590 0.021054715 0.020825192 0.094055496 0.074304783 0.119476516 0.109872021 0.110388055 0.125254240 0.222065700 0.175200699 0.214727873 0.218250520 0.227724029 0.215803286
0.098080635 0.055079937 0.093090296 0.091096163 0.084089994 0.075081110 0.098545313 0.055561543 0.093555450 0.091623783 0.084559202 0.075541973 0.000085711 0.000093406 0.000095729 0.000098856 0.000075157 0.000078606 0.020833352 0.020940310 0.020856509 0.020862531 0.021034853 0.020905542 0.120908702 0.107756687 0.104989051 0.122022490 0.129492591 0.118961376 0.228961635 0.225696954 0.234097304 0.234783659 0.233894784 0.227719669
0.077078819 0.094075441 0.078086853 0.094084501 0.095092058 0.084074497 0.077522278 0.094538927 0.078525066 0.094544888 0.095534801 0.084555864 0.000081345 0.000092771 0.000084919 0.000077579 0.000096801 0.000079509 0.020840692 0.020877693 0.020889186 0.020674795 0.020883998 0.020932148 0.124192747 0.122535506 0.115429427 0.124136693 0.112267926 0.138262428 0.232030759 0.223829077 0.235760642 0.225596695 0.222070283 0.232770903
0.057091236 0.070075750 0.085082769 0.077088833 0.089085579 0.099090099 0.057574987 0.070683956 0.085808039 0.077554941 0.089521170 0.099699259 0.000078973 0.000079852 0.000088544 0.000080576 0.000094593 0.000094233 0.020917081 0.020971369 0.020850164 0.020894483 0.020905726 0.020907898 0.097127096 0.107635587 0.121901953 0.118098406 0.110557817 0.119341156 0.219681206 0.229097904 0.226132747 0.224304048 0.217764563 0.219173886
0.093080521 0.082090855 0.072073460 0.071083546 0.069092989 0.051087618 0.093559742 0.082766294 0.072549105 0.071538687 0.069564104 0.051669121 0.000101990 0.000081863 0.000096241 0.000090120 0.000084286 0.000087482 0.020778383 0.020920038 0.020846449 0.020889291 0.020909382 0.020924407 0.079345754 0.122283219 0.107695353 0.105099866 0.121746038 0.111395235 0.206544600 0.206221643 0.212321363 0.204687795 0.206413136 0.204643383
0.087112904 0.063120127 0.083134651 0.092125416 0.076115131 0.079137564 0.087746620 0.063794374 0.083833933 0.092781305 0.076793432 0.079808474 0.000087251 0.000104193 0.000114266 0.000102134 0.000086751 0.000119016 0.021140076 0.021307223 0.021075036 0.021152200 0.021054337 0.021207811 0.130895182 0.119837608 0.138826344 0.112727718 0.122571389 0.121301023 0.218195618 0.215884914 0.222509658 0.214374626 0.219767890 0.220563044
0.054129124 0.082131863 0.097119093 0.099144936 0.071130991 0.082116842 0.054811001 0.082760811 0.097765207 0.099764824 0.071805239 0.082782984 0.000114545 0.000100884 0.000084342 0.000113714 0.000098105 0.000085348 0.021019267 0.021079364 0.021131805 0.021111426 0.021075672 0.021102228 0.132617495 0.140300867 0.115813799 0.113934212 0.124763827 0.128688846 0.230241227 0.235142097 0.225165808 0.227375693 0.232641010 0.228925518
0.068124533 0.070117712 0.067116737 0.066116571 0.050109863 0.069141865 0.068793535 0.070745230 0.067768574 0.066783428 0.050820589 0.069849730 0.000116799 0.000102007 0.000096775 0.000132403 0.000077528 0.000103260 0.021035415 0.021029821 0.021078364 0.021010722 0.021075532 0.021138880 0.105800322 0.091995321 0.099073691 0.093729109 0.107650174 0.104012583 0.185727159 0.177000289 0.187725178 0.176170415 0.180528947 0.179167358
0.069112301 0.095136404 0.091120720 0.093133688 0.095107794 0.100119114 0.069790363 0.095873356 0.091758728 0.093851566 0.095741272 0.100789785 0.000110204 0.000087598 0.000137751 0.000104119 0.000086678 0.000126659 0.021054345 0.021069959 0.021076036 0.021082961 0.021094528 0.021118999 0.141138180 0.120784370 0.142834441 0.127465873 0.125965246 0.115653843 0.238015425 0.240033153 0.237569666 0.245613289 0.239457337 0.235264286
0.051119566 0.093139172 0.078122616 0.060106993 0.080127239 0.090131521 0.051977158 0.093783140 0.078826666 0.060850143 0.080815077 0.090805531 0.000104972 0.000129798 0.000104921 0.000115929 0.000129354 0.000136714 0.021078646 0.021166852 0.021055812 0.021086929 0.021096161 0.021071023 0.117378333 0.109870543 0.134735445 0.107028266 0.114333675 0.126260182 0.213347348 0.215566045 0.217623658 0.217707475 0.217867892 0.218908410
0.080111027 0.084120512 0.069119453 0.089115381 0.083116055 0.051096439 0.080812693 0.084737539 0.069795609 0.089825392 0.083807230 0.051780701 0.000092792 0.000122732 0.000088041 0.000095508 0.000104888 0.000075793 0.021083832 0.021088088 0.021099409 0.021092076 0.021111341 0.021152616 0.133567446 0.114119527 0.129638202 0.115529770 0.112297496 0.122114519 0.214266219 0.215602080 0.208307107 0.211516913 0.225876775 0.208152408
0.090119839 0.099106550 0.062114239 0.076122522 0.075121164 0.097115278 0.090801001 0.099792480 0.062839746 0.076831818 0.075889826 0.097824097 0.000091616 0.000079202 0.000092036 0.000133152 0.000089916 0.000100643 0.021031945 0.021061354 0.021087776 0.021034704 0.021059582 0.021072084 0.123001228 0.118784628 0.136954504 0.136498382 0.117777576 0.128413042 0.235462555 0.231820274 0.231373197 0.232025120 0.227614031 0.232629580
0.055092335 0.093136072 0.089118004 0.086109400 0.079113722 0.090110302 0.055871487 0.093804598 0.089822531 0.086815357 0.079818726 0.090865135 0.000095193 0.000114469 0.000108484 0.000132276 0.000107299 0.000100533 0.021093113 0.021001329 0.021102888 0.021108193 0.021097652 0.021120654 0.127244883 0.121789105 0.123497269 0.133802851 0.129115605 0.127079300 0.227814458 0.238494096 0.235157162 0.238604634 0.233978528 0.223096128
0.089155912 0.083138466 0.080115795 0.081139803 0.100130796 0.098131895 0.089824915 0.083782434 0.080853462 0.081806183 0.100793600 0.098841906 0.000124366 0.000105566 0.000126917 0.000107210 0.000121210 0.000088878 0.021045091 0.021045920 0.021310526 0.021140142 0.021106877 0.021126551 0.138084341 0.136803513 0.124427229 0.135850007 0.130984204 0.135352520 0.241085493 0.236817118 0.242097761 0.236584313 0.239600077 0.237123938
0.077118158 0.074120283 0.096125841 0.055112362 0.081115723 0.052112103 0.077797174 0.074820995 0.096730471 0.055904388 0.081847668 0.053003550 0.000097658 0.000097984 0.000096040 0.000095802 0.000101135 0.000096313 0.022685426 0.021083030 0.021099509 0.024595993 0.021040687 0.021226656 0.104783334 0.108050358 0.077095734 0.095651352 0.102962251 0.082130401 0.213277893 0.213892442 0.169496813 0.210457594 0.213444966 0.204802503
0.096095562 0.058109283 0.051091194 0.082108736 0.055068254 0.055109501 0.096798658 0.058824539 0.052030087 0.082894325 0.055814981 0.055791140 0.000100503 0.000099851 0.000093617 0.000095877 0.000080861 0.000085773 0.021105955 0.021125075 0.021151610 0.021133315 0.021127095 0.021259245 0.067444735 0.106284643 0.105653866 0.101796452 0.089222523 0.098837390 0.162011684 0.198682269 0.197040710 0.195048218 0.199023089 0.195427901
0.085116148 0.094131470 0.082133532 0.062108994 0.081111193 0.054113150 0.085803747 0.094816446 0.082823992 0.062821865 0.081860542 0.054892302 0.000092472 0.000125607 0.000128352 0.000088990 0.000096170 0.000115257 0.021059952 0.021120951 0.021120577 0.021100399 0.021106898 0.021141477 0.120649733 0.114724097 0.120098754 0.119989470 0.116534620 0.114228872 0.221708291 0.210416195 0.224236019 0.225850051 0.227498761 0.218726136
0.084121466 0.062117100 0.085171461 0.062111139 0.095160961 0.075134039 0.084813118 0.062828541 0.085792303 0.062881470 0.095760107 0.075838804 0.000095284 0.000099843 0.000160893 0.000088938 0.000090109 0.000132872 0.021060230 0.021048568 0.021038669 0.021116590 0.021132188 0.021076984 0.112137212 0.124104335 0.119810665 0.110048531 0.100632310 0.125027654 0.221296988 0.215958124 0.223988824 0.221046747 0.203365775 0.223529014
0.098128796 0.095151424 0.059113979 0.067116737 0.092132330 0.077118397 0.098833323 0.095789194 0.059902191 0.067862034 0.092823982 0.077817678 0.000093594 0.000126885 0.000131360 0.000087498 0.000084676 0.000089756 0.021078552 0.021124701 0.021244276 0.021146273 0.021160382 0.021138328 0.120789225 0.115569565 0.116180983 0.130708146 0.130113881 0.134662282 0.236824039 0.236352170 0.231098270 0.242276343 0.230452696 0.228713652
0.082113743 0.091111898 0.060127974 0.090130568 0.074114323 0.075148582 0.082784414 0.091969252 0.060802460 0.090791941 0.074802876 0.075826883 0.000093502 0.000115911 0.000114814 0.000098543 0.000152453 0.000092412 0.021231665 0.021003005 0.021323214 0.021091618 0.021076860 0.021076967 0.116390073 0.118434909 0.126933086 0.099730272 0.123763024 0.117284048 0.223273951 0.217452196 0.223823921 0.221238556 0.224802924 0.215327099
0.056125402 0.060135603 0.059113026 0.068138599 0.078112841 0.097141504 0.057133198 0.060812473 0.059803009 0.068822622 0.078817129 0.097781658 0.000081957 0.000099425 0.000096120 0.000076255 0.000110127 0.000104584 0.021125005 0.021120511 0.021123474 0.021115494 0.021105615 0.021073472 0.107595423 0.110847334 0.105163747 0.103479679 0.115545272 0.069394866 0.203690893 0.211769283 0.204834508 0.198163728 0.204898095 0.166938154
0.093132496 0.090119123 0.065111876 0.052117586 0.078129292 0.053122044 0.093787909 0.090820074 0.065831184 0.052837610 0.078806877 0.053859234 0.000112164 0.000106033 0.000131567 0.000127699 0.000087218 0.000100377 0.021108964 0.021071567 0.021057159 0.021067524 0.021107794 0.021189397 0.101800911 0.113282720 0.120309037 0.098361539 0.110791536 0.100478409 0.207357181 0.214719820 0.213936975 0.211472106 0.209823920 0.207260970
0.071105480 0.100159168 0.094124794 0.093117714 0.050116062 0.062120676 0.072074413 0.100754261 0.094785929 0.093791723 0.050986290 0.062942982 0.000085637 0.000159447 0.000102515 0.000096618 0.000108522 0.000133505 0.021124218 0.021060298 0.021108775 0.021000706 0.021172200 0.021070253 0.129302629 0.097743563 0.131519144 0.113482763 0.124261691 0.116683830 0.233860458 0.224531185 0.234053016 0.237241568 0.230020489 0.234481046
0.063113451 0.071117163 0.092123508 0.082127810 0.098110199 0.059111834 0.063828945 0.071851015 0.092806339 0.082827091 0.098834991 0.059819221 0.000093533 0.000094257 0.000135924 0.000132944 0.000097092 0.000097816 0.021083669 0.021101696 0.021020539 0.021104581 0.021003024 0.021145835 0.099958477 0.119430471 0.119271596 0.118790546 0.117897281 0.124123312 0.223577684 0.216716555 0.222152490 0.223086118 0.219638147 0.220939510
0.058110237 0.070131779 0.076124907 0.084092379 0.067117929 0.069108963 0.058807611 0.070794821 0.076835394 0.084819078 0.067899942 0.069805384 0.000086539 0.000098134 0.000114821 0.000155636 0.000105394 0.000094621 0.021020936 0.021151162 0.021110096 0.021068054 0.021109194 0.021135959 0.098078492 0.113722878 0.101707847 0.095773837 0.105725660 0.111255328 0.199305168 0.196660248 0.198020947 0.192758508 0.202781440 0.199658550
0.085113525 0.072128057 0.098108768 0.087123632 0.081115961 0.087111950 0.085808516 0.072885752 0.098795652 0.087903738 0.081829309 0.087788105 0.000102925 0.000148089 0.000095652 0.000083574 0.000099036 0.000080450 0.021093688 0.021040394 0.021121643 0.021121346 0.021126162 0.021064905 0.131724648 0.117729833 0.105731495 0.117513388 0.128175749 0.113630462 0.229514804 0.235564087 0.218896592 0.230163526 0.232866802 0.233846365
0.080126047 0.080149412 0.100130558 0.079142094 0.062113762 0.062119961 0.080935478 0.080992222 0.100932121 0.079896212 0.062850237 0.062782764 0.000103874 0.000095597 0.000113233 0.000107167 0.000088658 0.000106642 0.021105915 0.021064029 0.021074829 0.021148959 0.021080019 0.021181837 0.111630670 0.116378285 0.072220321 0.106847964 0.105066210 0.100320023 0.211770516 0.218999739 0.171046244 0.222247763 0.213244775 0.216810789
0.069117069 0.052119493 0.051091671 0.079114437 0.076136827 0.092130184 0.069867611 0.052861214 0.051788568 0.079807997 0.076807976 0.092790127 0.000094092 0.000111212 0.000082018 0.000112771 0.000137864 0.000132248 0.021024715 0.021180627 0.021160772 0.021054339 0.021134910 0.021291852 0.091077244 0.115835259 0.101870400 0.108826659 0.122929494 0.071346486 0.206455335 0.203348279 0.205690330 0.205166125 0.204284542 0.163728902
0.082108259 0.090112686 0.060125828 0.078117371 0.082149982 0.072133303 0.082782745 0.090907574 0.060919046 0.078763962 0.082791805 0.072870255 0.000131955 0.000109406 0.000131566 0.000090495 0.000143000 0.000088749 0.021077271 0.021018959 0.021333577 0.021158855 0.021105510 0.021060229 0.104728831 0.095688134 0.110456159 0.120937883 0.115202666 0.118769208 0.213759436 0.203680849 0.209401802 0.211359493 0.207094008 0.207718594
0.070120811 0.063119650 0.073111534 0.087165117 0.084158897 0.056116104 0.070854187 0.063758850 0.073805571 0.088065863 0.084801912 0.056784868 0.000126175 0.000136414 0.000131601 0.000102292 0.000110597 0.000116405 0.021031889 0.021130985 0.021105437 0.020977060 0.021100914 0.021191852 0.121773180 0.105621384 0.112639030 0.105683205 0.112105137 0.106103679 0.203128586 0.204800035 0.202551893 0.202104678 0.200441101 0.205449593
0.060124397 0.094112396 0.089150429 0.083146572 0.085129023 0.059112549 0.060797930 0.094838858 0.089806557 0.083756208 0.085815430 0.059979439 0.000115796 0.000148993 0.000132915 0.000116715 0.000127706 0.000120028 0.021009043 0.021089343 0.021038911 0.021124682 0.021075107 0.021131010 0.115940173 0.107744281 0.124609208 0.111440091 0.127335595 0.125587319 0.229543809 0.221185051 0.225087801 0.231597583 0.229517251 0.228177568
0.084148169 0.068122864 0.066107273 0.063107967 0.058132887 0.086118221 0.084771395 0.068798304 0.066778660 0.063832045 0.058803320 0.086786747 0.000123628 0.000084657 0.000076660 0.000099562 0.000111309 0.000110341 0.021026167 0.021146424 0.021248379 0.021123411 0.021135190 0.021186568 0.111157059 0.111143564 0.105686863 0.106757610 0.099253000 0.104807044 0.199631189 0.198327297 0.203412526 0.195611988 0.195470242 0.194752716
0.069127560 0.088151217 0.099116325 0.050114870 0.070106745 0.097146749 0.069838047 0.088807583 0.099859715 0.050904274 0.070806265 0.097802877 0.000104247 0.000151821 0.000099081 0.000123967 0.000079601 0.000090955 0.021122286 0.021008561 0.021076450 0.021089004 0.021041075 0.021286469 0.138476602 0.134590673 0.108761889 0.118461772 0.113449592 0.115808449 0.231883459 0.235911438 0.223047989 0.233546862 0.226811736 0.231083357
0.099132061 0.051109552 0.056110144 0.059109449 0.068118095 0.098146200 0.099947929 0.051816940 0.056919575 0.059852362 0.068776608 0.098833323 0.000120325 0.000095725 0.000096154 0.000083693 0.000085368 0.000108568 0.021099934 0.021110701 0.021129007 0.021095887 0.021131505 0.021131037 0.113646452 0.112460126 0.110601114 0.119470276 0.109354538 0.113760826 0.218287776 0.215436432 0.218935866 0.217683610 0.205357469 0.217280864
0.051115274 0.055115938 0.068149090 0.074145317 0.074121952 0.085142136 0.051800251 0.055818558 0.068800926 0.074839592 0.074755669 0.085758924 0.000144488 0.000108312 0.000104360 0.000085240 0.000131891 0.000155342 0.021075069 0.021138527 0.021093509 0.021123854 0.021143282 0.021146860 0.093691862 0.097917449 0.102290999 0.105668985 0.105235191 0.064163661 0.186245186 0.186480125 0.191662518 0.187667704 0.189659814 0.149128870
0.091150284 0.076108456 0.086145878 0.050114870 0.069132805 0.054123402 0.091741800 0.076826572 0.086902618 0.050777435 0.069949389 0.054789782 0.000116630 0.000103610 0.000103333 0.000133087 0.000100101 0.000121753 0.021021299 0.021130139 0.021139641 0.021099207 0.021271557 0.021164940 0.105679474 0.120024086 0.106691682 0.115021564 0.109371186 0.121625988 0.205090063 0.208922648 0.206244190 0.205543402 0.205460551 0.208190546
0.079104185 0.073112488 0.097121477 0.060112000 0.060113430 0.066114664 0.079848051 0.073801756 0.097793102 0.060864449 0.060831308 0.066771746 0.000099208 0.000092196 0.000115193 0.000105641 0.000086907 0.000090496 0.021018126 0.021040978 0.021053509 0.021109160 0.021165901 0.021090550 0.112107072 0.103957849 0.070136249 0.114679884 0.106003105 0.107207474 0.203110495 0.204717676 0.169293158 0.209801356 0.208220739 0.209776678
0.098138332 0.082081556 0.063114405 0.074113131 0.099123001 0.082106590 0.098811626 0.082829237 0.063831568 0.074812174 0.099844933 0.082872391 0.000151971 0.000110157 0.000116495 0.000129253 0.000126081 0.000092032 0.021024010 0.021157591 0.021089021 0.021152961 0.021108031 0.021118893 0.116686462 0.135567459 0.133749375 0.113884754 0.114710329 0.134993709 0.221021181 0.235160683 0.231491054 0.239939688 0.230436279 0.234587954
0.067123652 0.071148157 0.066121578 0.087143660 0.054120779 0.065140486 0.067821503 0.071801662 0.066828489 0.087958097 0.054897547 0.065859079 0.000097180 0.000128659 0.000097404 0.000087374 0.000100952 0.000162889 0.021068900 0.020981808 0.020993600 0.020992350 0.021041832 0.021103690 0.107645880 0.111310097 0.100356644 0.068776444 0.090241648 0.088799236 0.196757517 0.198942097 0.193848257 0.159751357 0.195440627 0.194593350
0.089114428 0.051113605 0.080132961 0.079141140 0.055111885 0.088131189 0.089996576 0.051792383 0.080788374 0.079867363 0.055795908 0.088818312 0.000130121 0.000105149 0.000098156 0.000117507 0.000112840 0.000115389 0.021014961 0.021034235 0.021099742 0.021114821 0.021250543 0.021117014 0.116143881 0.129184081 0.126602149 0.131283138 0.104545924 0.109175817 0.212200085 0.202400057 0.219232885 0.217392017 0.215292870 0.216127149
0.090113640 0.088127136 0.062106609 0.079124212 0.067107201 0.099153042 0.090809584 0.088799715 0.062885284 0.079842329 0.067831516 0.099957466 0.000116142 0.000098104 0.000125998 0.000139938 0.000098224 0.000088351 0.021015824 0.021123966 0.021163091 0.021056703 0.021130647 0.021122715 0.125938097 0.120892000 0.127648423 0.133016958 0.128309878 0.115579425 0.228729853 0.231870019 0.233713609 0.222883471 0.228400218 0.217171086
0.070075989 0.098141909 0.056114912 0.074114323 0.054110527 0.094116688 0.070808887 0.098761320 0.056876183 0.074856043 0.054852247 0.094885349 0.000131120 0.000100819 0.000101873 0.000121374 0.000115050 0.000122251 0.021064366 0.021063483 0.021129539 0.021190050 0.021249178 0.021146408 0.118502801 0.116657766 0.116491290 0.120142834 0.111359317 0.104429397 0.209719479 0.217732558 0.216043580 0.220815046 0.218101424 0.215535196
