0.060179949 0.086207390 0.073167801 0.076187134 0.060192823 0.072225571 0.096804142 0.137669802 0.116735697 0.121698380 0.096726179 0.115715027 0.001333402 0.001337124 0.001208484 0.001385906 0.001328192 0.001420591 0.041115010 0.041105132 0.041215631 0.041078253 0.041152119 0.041138187 0.172305840 0.177659516 0.177289321 0.196173189 0.174619397 0.184074897 0.293717956 0.279312151 0.273392339 0.295828768 0.289422181 0.289610916
0.065175772 0.078170538 0.051167488 0.072210550 0.068225145 0.080179214 0.104742289 0.124887466 0.081772566 0.115716219 0.108808041 0.128749132 0.001372987 0.001278419 0.001332604 0.001308814 0.001307297 0.001345141 0.041235342 0.041127583 0.041110645 0.041303467 0.041100158 0.041146173 0.180269694 0.180067856 0.172900008 0.172828827 0.188136078 0.170410948 0.273861631 0.287159378 0.265838290 0.272188045 0.274901108 0.277401657
0.089187384 0.057202101 0.072191477 0.088220119 0.085200310 0.100198746 0.142703056 0.091775894 0.115803480 0.140731573 0.136743069 0.160744429 0.001355702 0.001423898 0.001253847 0.001435300 0.001507587 0.001399697 0.041061208 0.041089341 0.041201726 0.041126236 0.041198745 0.041195679 0.221429973 0.197559233 0.213721172 0.209502263 0.216812143 0.199915347 0.326207844 0.320620115 0.331310432 0.334836308 0.333810966 0.333960940
0.089187384 0.057202101 0.072191477 0.088220119 0.085200310 0.100198746 0.142703056 0.091775894 0.115803480 0.140731573 0.136743069 0.160744429 0.001355702 0.001423898 0.001253847 0.001435300 0.001507587 0.001399697 0.041061208 0.041089341 0.041201726 0.041126236 0.041198745 0.041195679 0.221429973 0.197559233 0.213721172 0.209502263 0.216812143 0.199915347 0.326207844 0.320620115 0.331310432 0.334836308 0.333810966 0.333960940
0.100213051 0.076170683 0.080181360 0.093174934 0.100167990 0.070177794 0.160673380 0.121720076 0.128696203 0.148705482 0.160739899 0.112684488 0.001139213 0.001349059 0.001481467 0.001126394 0.001496723 0.001225626 0.041108351 0.041032310 0.041096629 0.041115028 0.041087674 0.041157678 0.219697193 0.221638275 0.237923607 0.217273799 0.204945010 0.217520703 0.354436964 0.363648986 0.353528772 0.352830762 0.330751436 0.341258125
0.057183743 0.071184874 0.053180933 0.098206520 0.077196121 0.082206488 0.091669559 0.113713026 0.084732056 0.156636953 0.123929024 0.131692410 0.001286414 0.001221351 0.001337445 0.001317319 0.001240624 0.001300564 0.041138689 0.041106081 0.041225027 0.041176521 0.041129991 0.041235735 0.185100077 0.227049680 0.221463021 0.192704805 0.202540343 0.200518631 0.300120998 0.303540591 0.305403086 0.312895263 0.308973923 0.294779377
0.096180916 0.050183058 0.054167986 0.077178717 0.071178198 0.075165510 0.153665066 0.080750465 0.086712122 0.123692751 0.113762140 0.120667458 0.001355414 0.001287897 0.001451228 0.001372171 0.001255683 0.001181509 0.041104899 0.041043353 0.041209854 0.041030497 0.041105499 0.041091967 0.186661312 0.183745698 0.182910698 0.198136956 0.200212743 0.192771202 0.297196547 0.300065787 0.303085783 0.304383507 0.298755304 0.306268952
0.064183950 0.081186295 0.061201096 0.067197323 0.071203947 0.064187050 0.102705956 0.129716635 0.097687244 0.107730865 0.113690615 0.102640390 0.001355650 0.001487703 0.001166329 0.001355085 0.001278584 0.001409941 0.041050251 0.041085372 0.041123159 0.041058874 0.041193928 0.041102596 0.169403753 0.180019574 0.188536684 0.178527876 0.176518076 0.173573562 0.277040616 0.260368292 0.265850304 0.294715979 0.273986945 0.274747987
0.098179102 0.059191227 0.077199221 0.086201668 0.093207359 0.073196650 0.156657696 0.094667673 0.123693705 0.137808084 0.148650885 0.116718769 0.001331116 0.001421737 0.001339311 0.001522007 0.001453648 0.001360424 0.041044776 0.041135437 0.041164006 0.041113971 0.041107764 0.041095365 0.196312053 0.200618487 0.213630957 0.211303360 0.210339108 0.207734535 0.315092754 0.327414715 0.343955783 0.324217813 0.342953489 0.349861016
0.073194981 0.069180965 0.091266870 0.094176292 0.087181807 0.050175428 0.116687775 0.110773087 0.145664215 0.150697947 0.139753819 0.080716848 0.001295995 0.001396884 0.001497253 0.001340794 0.001375183 0.001307599 0.041243623 0.041073192 0.041096438 0.041087144 0.041305254 0.041175425 0.203275720 0.195477678 0.196863107 0.200832952 0.217791118 0.207366711 0.313785288 0.330298238 0.318516879 0.324123123 0.329866065 0.315305147
0.050160170 0.080199718 0.066175222 0.058184385 0.100173712 0.064199448 0.080739737 0.128709078 0.105741739 0.092720270 0.160645008 0.102683067 0.001331743 0.001327490 0.001369320 0.001273405 0.001386099 0.001394206 0.041071967 0.041173995 0.041136031 0.041115529 0.041127843 0.041112855 0.197392073 0.184461439 0.211345038 0.182271233 0.176652642 0.185206209 0.297243404 0.289824741 0.302910112 0.294286083 0.285221524 0.295205139
0.100211859 0.098186493 0.058199644 0.050203085 0.052181721 0.054186583 0.160618544 0.156714678 0.092690945 0.080698252 0.083757877 0.086711168 0.001384658 0.001345132 0.001281444 0.001252324 0.001152364 0.001247859 0.041056894 0.041025424 0.041172958 0.041134715 0.041112796 0.041172876 0.184573811 0.185564703 0.183451987 0.185841681 0.182088449 0.178410330 0.307322654 0.326580541 0.322083162 0.304361154 0.306652878 0.315717672
0.086149454 0.096168995 0.084149361 0.099168301 0.097155333 0.079150915 0.137680769 0.153748751 0.134789467 0.158626080 0.155650616 0.126687050 0.001181674 0.001217484 0.001209487 0.001208030 0.001163213 0.001185335 0.041106502 0.041049455 0.041143621 0.041072069 0.041147790 0.041170726 0.215515763 0.224984804 0.224639471 0.219683097 0.230135376 0.219766409 0.354554650 0.348520238 0.354961370 0.345423153 0.357604173 0.345904029
0.063177109 0.051193953 0.100223780 0.058210850 0.058179140 0.063204765 0.100699186 0.081716537 0.160640240 0.092704773 0.092679024 0.100767374 0.001288560 0.001232342 0.001525811 0.001245897 0.001397003 0.001273842 0.041025644 0.041108851 0.041010428 0.041129420 0.041153931 0.041137096 0.157249923 0.175762292 0.163755591 0.164267368 0.169581199 0.176193864 0.284819036 0.292469221 0.268269014 0.296465550 0.273228196 0.300743661
0.064163446 0.055148125 0.068159342 0.089144230 0.072165489 0.089152813 0.102512598 0.088481665 0.108433485 0.142410994 0.115431309 0.142399788 0.001187490 0.001169970 0.001173984 0.001208452 0.001189163 0.001185797 0.040732592 0.040903162 0.040905505 0.040878084 0.040862653 0.040817296 0.190530345 0.183401452 0.190130900 0.192641066 0.190908604 0.173834196 0.302646454 0.305908259 0.309586651 0.295502029 0.314429060 0.308155387
0.090161085 0.074116707 0.055149317 0.073141575 0.092172623 0.077145100 0.144449234 0.118383408 0.088482380 0.116460562 0.147371292 0.123451710 0.001198348 0.001179442 0.001193703 0.001185071 0.001189060 0.001164889 0.040843663 0.040955600 0.040878059 0.040813556 0.040836443 0.040910324 0.210787067 0.209384717 0.207845287 0.202435600 0.188147136 0.208230548 0.319602825 0.310172161 0.301385820 0.331396736 0.309158191 0.316732828
0.085147381 0.082172871 0.091140985 0.069156408 0.057115555 0.059142828 0.136471987 0.131497145 0.145387888 0.110456228 0.091444016 0.094468117 0.001179653 0.001177021 0.001181497 0.001144471 0.001205290 0.001185596 0.040871429 0.041009112 0.040865262 0.040910564 0.040903095 0.040932249 0.195965241 0.198934480 0.192059321 0.180619026 0.187638425 0.194873901 0.304431218 0.316818292 0.302714991 0.318889526 0.293101757 0.305613389
0.091155529 0.059148312 0.096149445 0.063160658 0.077140570 0.090164423 0.145411491 0.094509125 0.153453350 0.100685120 0.123493433 0.144472361 0.001171834 0.001203016 0.001210972 0.001191927 0.001197580 0.001183359 0.040877704 0.040869193 0.040913439 0.040838784 0.040888841 0.041200016 0.198236223 0.199848353 0.192386924 0.198650320 0.207076672 0.220809370 0.311399949 0.325278110 0.318532647 0.320009583 0.324766249 0.345729990
0.069149494 0.067151070 0.090099573 0.089155197 0.082164049 0.087145090 0.110442877 0.107469559 0.144406319 0.142451286 0.131426334 0.139513254 0.001144573 0.001163646 0.001197362 0.001194762 0.001142115 0.001195169 0.040901421 0.040943247 0.040876048 0.040886443 0.040903304 0.040801802 0.212892505 0.207817946 0.201083444 0.201980160 0.201123560 0.196010819 0.309805569 0.304874839 0.303106209 0.311705985 0.316000146 0.307043798
0.100160122 0.074157953 0.083146572 0.093167067 0.088160276 0.099152803 0.160449505 0.118470192 0.132422686 0.148440838 0.140472412 0.158472776 0.001188278 0.001170504 0.001197412 0.001184445 0.001179665 0.001181584 0.040845296 0.040903731 0.040876882 0.040874647 0.040916067 0.040784935 0.210499258 0.207982272 0.217502458 0.225121701 0.203588533 0.213600314 0.355644784 0.351097769 0.350023360 0.342732436 0.352721487 0.362853612
0.100160122 0.074157953 0.083146572 0.093167067 0.088160276 0.099152803 0.160449505 0.118470192 0.132422686 0.148440838 0.140472412 0.158472776 0.001188278 0.001170504 0.001197412 0.001184445 0.001179665 0.001181584 0.040845296 0.040903731 0.040876882 0.040874647 0.040916067 0.040784935 0.210499258 0.207982272 0.217502458 0.225121701 0.203588533 0.213600314 0.355644784 0.351097769 0.350023360 0.342732436 0.352721487 0.362853612
0.087169409 0.070156097 0.082165480 0.073153257 0.069136381 0.093169451 0.139401436 0.112451792 0.131533861 0.116434097 0.110458851 0.148379326 0.001191141 0.001195231 0.001199905 0.001169754 0.001190310 0.001183869 0.040886863 0.040960076 0.040878817 0.040879204 0.040940219 0.040816001 0.198706177 0.194254374 0.192583947 0.216769818 0.209445199 0.198524082 0.306576452 0.315134601 0.328834967 0.335338298 0.320138077 0.308536626
0.076134920 0.073148012 0.086175203 0.082167387 0.086169958 0.073141575 0.121497393 0.116472244 0.137449503 0.131440878 0.137433290 0.116457224 0.001207621 0.001205408 0.001223119 0.001165815 0.001197927 0.001176664 0.040879628 0.040965996 0.040869876 0.040859176 0.040879436 0.040840640 0.195407288 0.191108107 0.188299783 0.210749267 0.197967128 0.199026374 0.302592678 0.312452345 0.300086878 0.310866456 0.303454334 0.306177492
0.060145855 0.057157278 0.090102196 0.073142290 0.060150385 0.060141563 0.096456528 0.091509819 0.144444704 0.116398811 0.096454859 0.096487999 0.001188106 0.001177394 0.001205991 0.001196654 0.001192157 0.001212138 0.040840189 0.040875661 0.040918950 0.041115547 0.040854549 0.040830333 0.187958455 0.171445951 0.170419448 0.191033414 0.181917563 0.166737211 0.285338477 0.289355286 0.274689567 0.267922519 0.279077488 0.292826159
0.084216833 0.094230652 0.075205803 0.081210852 0.087225914 0.054198027 0.134743452 0.150674343 0.120652199 0.129623175 0.139749527 0.086700678 0.001345600 0.001239710 0.001331748 0.001302797 0.001230096 0.001225158 0.041080443 0.041099535 0.041141728 0.041029861 0.041097044 0.041157374 0.210235313 0.203566599 0.204115947 0.196777374 0.201720950 0.196055202 0.334140201 0.305377384 0.312190906 0.369316798 0.339678118 0.307841421
0.068191290 0.098184347 0.093173981 0.096245766 0.087189198 0.084188223 0.108717680 0.156666040 0.148699045 0.153688908 0.139685869 0.134812593 0.001173166 0.001278752 0.001329332 0.001445662 0.001307078 0.001326417 0.041060311 0.041058469 0.041086225 0.041034471 0.041162526 0.041332068 0.208449526 0.219914926 0.218074153 0.226555122 0.217130078 0.227160879 0.340110606 0.353808634 0.341895643 0.358151158 0.352703542 0.351939984
0.061227798 0.054170609 0.088193893 0.052181482 0.069218397 0.077189684 0.097623110 0.086812019 0.140703440 0.083702803 0.110677719 0.123683929 0.001239833 0.001337636 0.001194183 0.001283500 0.001251270 0.001152892 0.041047440 0.041218375 0.041078559 0.041320032 0.041058152 0.041130039 0.175469279 0.173981918 0.172601236 0.171817548 0.180546602 0.172902070 0.295550262 0.298158730 0.299230604 0.286396076 0.271216583 0.282660462
0.089193821 0.078200579 0.097168684 0.088248014 0.051182747 0.072211742 0.142769814 0.124707460 0.155632734 0.140697241 0.081691027 0.115720510 0.001197639 0.001220770 0.001350951 0.001385707 0.001252387 0.001285292 0.041081626 0.040985482 0.041086336 0.041168399 0.041166482 0.041112083 0.210332552 0.208953953 0.207577404 0.199631812 0.210762096 0.195366790 0.333071907 0.326601552 0.319751428 0.343345120 0.316508690 0.333674432
0.082203865 0.059189081 0.055195570 0.078174591 0.085196495 0.054176092 0.131658077 0.094753981 0.088729143 0.124633551 0.136649847 0.086692572 0.001368497 0.001219191 0.001255745 0.001284462 0.001203513 0.001307069 0.041206602 0.041133824 0.041065362 0.041106516 0.041096670 0.041166717 0.186865735 0.181095096 0.186455787 0.178057136 0.179819639 0.206516447 0.290998670 0.281874042 0.292386866 0.281760243 0.269317030 0.291940639
0.054179192 0.092182636 0.055198669 0.062182665 0.097190380 0.068200827 0.086709976 0.147716284 0.088681221 0.099681139 0.155674219 0.108795643 0.001218212 0.001251823 0.001261895 0.001333246 0.001198994 0.001331631 0.041110587 0.041094559 0.041090016 0.041268058 0.041108317 0.041182504 0.191616798 0.181654713 0.184504997 0.185233332 0.195068474 0.172108364 0.304694924 0.312244117 0.303939225 0.315960967 0.300477927 0.306898572
0.097255468 0.051185131 0.062186003 0.071187019 0.052174330 0.075197935 0.155641556 0.081738472 0.099748850 0.113654852 0.083748102 0.120683193 0.001348779 0.001237550 0.001361558 0.001298950 0.001349905 0.001237934 0.041022022 0.041101015 0.041086958 0.041162645 0.041120985 0.041185393 0.183887088 0.179918011 0.183463544 0.182609295 0.170942492 0.175491985 0.288034136 0.287201216 0.293203675 0.296144125 0.292625374 0.292389730
0.097160578 0.057155132 0.070178747 0.085163116 0.085172892 0.089160919 0.155635118 0.091751814 0.112624645 0.136626244 0.136680603 0.142683506 0.001211259 0.001216749 0.001175924 0.001176656 0.001196831 0.001172082 0.041009550 0.041109846 0.041012264 0.041116454 0.041131342 0.041176776 0.200487379 0.206850284 0.207629773 0.232727490 0.232263649 0.211712917 0.315119731 0.329426232 0.336248555 0.339251428 0.316884697 0.343188011
0.052126884 0.072190046 0.056143761 0.070184469 0.088190556 0.079187393 0.083698511 0.115648985 0.089695692 0.112663031 0.140698195 0.126647234 0.001297246 0.001299090 0.001195530 0.001264595 0.001224963 0.001182938 0.041030230 0.041141362 0.041113005 0.041098577 0.041106871 0.041121183 0.182054967 0.181218013 0.184456334 0.182412477 0.180347246 0.179899970 0.289911122 0.286651023 0.284138325 0.291516973 0.274096916 0.276288918
0.068192244 0.098208427 0.096218109 0.088196754 0.077189207 0.081180573 0.108712673 0.156632423 0.153664827 0.140642166 0.123720646 0.129670858 0.001190026 0.001370319 0.001274117 0.001303142 0.001273191 0.001252157 0.041039295 0.041017854 0.041023813 0.041014716 0.041042261 0.041161587 0.196290736 0.199077303 0.204164935 0.214457336 0.209299835 0.227656106 0.332172575 0.330509910 0.340591882 0.334315790 0.334591268 0.348378301
0.094169140 0.063150167 0.065171003 0.082142591 0.067134857 0.096165657 0.150556564 0.100471020 0.104518414 0.131480694 0.107507467 0.153470516 0.001190253 0.001164189 0.001184218 0.001145888 0.001180410 0.001199638 0.040834432 0.040906852 0.040837754 0.040897713 0.040911757 0.040915276 0.197188423 0.215842303 0.205284229 0.210757904 0.200335875 0.205298571 0.316528527 0.313937128 0.320778582 0.319592848 0.324894071 0.306519112
0.079177856 0.075297594 0.051158190 0.062176943 0.072170973 0.068202496 0.126701117 0.120690823 0.081778526 0.099735737 0.115708351 0.108697653 0.001463982 0.001243978 0.001232699 0.001281749 0.001405028 0.001360776 0.041004867 0.041113235 0.041119302 0.041123436 0.041101474 0.041134032 0.180298167 0.164635595 0.173729251 0.195372911 0.175836592 0.182410751 0.265283393 0.275424266 0.299141883 0.274630178 0.271212523 0.274966919
0.051193953 0.064200640 0.054175377 0.063201904 0.079185724 0.083236456 0.081755877 0.102712393 0.086785078 0.100755930 0.126680613 0.132724524 0.001202740 0.001373769 0.001390169 0.001219445 0.001263574 0.001408828 0.041143245 0.041111553 0.041273318 0.041097748 0.041205795 0.041145330 0.168459419 0.174347087 0.173115620 0.175993007 0.170812630 0.172618302 0.271352632 0.276731978 0.272900714 0.278796600 0.271728944 0.264792527
0.084196806 0.089189053 0.077188730 0.086183310 0.082198143 0.067175627 0.134645224 0.142721891 0.123720407 0.137812614 0.131636381 0.107630253 0.001277316 0.001407673 0.001212711 0.001181654 0.001254734 0.001420418 0.041050655 0.041108793 0.041048363 0.041145321 0.041171460 0.041213998 0.210518022 0.201519789 0.207085246 0.208477932 0.214487662 0.211391446 0.323632623 0.316748902 0.313021097 0.332094585 0.325146519 0.324756246
0.065195084 0.062261105 0.075182438 0.060214520 0.073187828 0.082203388 0.104712248 0.099682093 0.120741606 0.096764565 0.116690397 0.131628275 0.001360254 0.001421150 0.001323946 0.001406097 0.001198169 0.001284480 0.041142987 0.041096769 0.041100029 0.041149023 0.041146648 0.041141339 0.178266811 0.174323636 0.183249342 0.170053809 0.178515778 0.167480827 0.295644778 0.289106195 0.281826181 0.293532140 0.287237078 0.274308007
0.066174746 0.072183132 0.083175421 0.053164959 0.052178383 0.085233927 0.105731487 0.115644932 0.132702112 0.084786415 0.083746910 0.136658192 0.001210630 0.001310383 0.001144315 0.001344226 0.001341975 0.001359413 0.041026231 0.041103678 0.041160877 0.041140468 0.041246936 0.041119362 0.180368027 0.187946372 0.175804424 0.175100784 0.181210659 0.169889431 0.301855862 0.296459412 0.278809869 0.285719524 0.285668075 0.294467222
0.060199738 0.096227884 0.076178789 0.062173367 0.056190968 0.056174517 0.096677065 0.153690100 0.121667147 0.099696875 0.089739799 0.089822292 0.001476215 0.001344522 0.001448373 0.001321731 0.001223882 0.001326773 0.041130367 0.041066085 0.041140640 0.041108478 0.041136074 0.041327164 0.197579608 0.182728844 0.160500593 0.180772074 0.176414622 0.177482839 0.277624941 0.274989903 0.337820094 0.314969786 0.315195649 0.284514717
0.084193707 0.092182159 0.100178480 0.059181929 0.068163872 0.051184654 0.134631634 0.147645473 0.160624504 0.094823599 0.108706951 0.081784725 0.001504262 0.001434842 0.001168145 0.001233175 0.001460810 0.001198232 0.041071256 0.041028136 0.041151196 0.041282068 0.041118315 0.041143759 0.200483050 0.211940947 0.214235635 0.197540448 0.212079844 0.211881767 0.329908496 0.331651113 0.336237241 0.319157219 0.323931486 0.323616096
0.059184551 0.074178934 0.099227428 0.050185442 0.053175926 0.087211609 0.094638109 0.118703842 0.158616781 0.080715179 0.084789515 0.139642954 0.001152426 0.001179164 0.001395011 0.001321647 0.001239703 0.001427762 0.041067073 0.040991157 0.041149958 0.041094603 0.041113631 0.041104360 0.188045470 0.193544503 0.202191557 0.175737617 0.199758514 0.182299828 0.301825340 0.310609266 0.309662197 0.299414289 0.325011608 0.318293456
0.075181007 0.093204260 0.079196692 0.070182085 0.064189911 0.083181381 0.120697260 0.148739815 0.126636744 0.112667561 0.102679729 0.132643938 0.001435977 0.001412380 0.001352059 0.001326935 0.001273947 0.001324633 0.041053371 0.041071204 0.041133383 0.041169996 0.041160497 0.041180530 0.196359075 0.195812159 0.182671922 0.203698710 0.191571214 0.189792410 0.321295661 0.299203704 0.313210523 0.305016123 0.309439461 0.308840289
0.083236217 0.053168058 0.078178406 0.073193789 0.067167997 0.096165657 0.132659435 0.084791899 0.124738693 0.116650343 0.107713223 0.153663635 0.001304711 0.001307178 0.001159451 0.001229749 0.001401391 0.001416077 0.041274986 0.041358486 0.041108860 0.041152388 0.041195008 0.041171244 0.214483203 0.196107410 0.197360034 0.204299332 0.195928560 0.183413910 0.343103603 0.309036371 0.322992435 0.320652382 0.313481861 0.308159546
0.092188597 0.084222078 0.090183020 0.057187319 0.050167561 0.067171097 0.147701025 0.134678125 0.144637585 0.091701269 0.080735683 0.107676268 0.001344813 0.001244411 0.001337152 0.001409115 0.001238588 0.001177159 0.041070854 0.041122920 0.041095381 0.041083028 0.041121458 0.041183416 0.181019495 0.207919598 0.185258951 0.190413453 0.193509962 0.210366288 0.307925373 0.314714313 0.295994405 0.307654741 0.298675067 0.310477597
0.070204496 0.070184231 0.078188896 0.059190273 0.078195333 0.070186615 0.112748146 0.112651348 0.124682426 0.094720364 0.124697208 0.112651110 0.001368065 0.001388919 0.001256485 0.001354003 0.001361617 0.001302429 0.041136506 0.041033256 0.041121410 0.041167428 0.041015841 0.041112653 0.173770939 0.196874602 0.185181686 0.189827780 0.181677433 0.184542646 0.278219561 0.290788317 0.273282580 0.284007932 0.280626479 0.285223152
0.077176809 0.074200392 0.095190287 0.063183308 0.093193769 0.099243164 0.123687267 0.118722439 0.152676105 0.100678205 0.148718596 0.158780098 0.001363714 0.001343813 0.001290010 0.001304470 0.001183674 0.001355234 0.041087010 0.041049748 0.041064531 0.041445852 0.041107915 0.041000095 0.202691696 0.223868404 0.222936282 0.224299739 0.218603902 0.200531392 0.349878544 0.348962285 0.346417220 0.338386226 0.340092708 0.325748930
0.094236851 0.075182915 0.083216429 0.083215952 0.093214035 0.067172527 0.150706768 0.120699644 0.132641554 0.132762194 0.148718119 0.107699633 0.001382746 0.001396769 0.001312495 0.001388338 0.001315554 0.001322211 0.041051953 0.041255923 0.041161236 0.041130384 0.041132842 0.041219814 0.203150783 0.216360041 0.210375790 0.197737863 0.205639144 0.200863771 0.317797056 0.335692469 0.318744086 0.315847661 0.328873145 0.313708339
0.098187923 0.066168308 0.089212179 0.052195311 0.065223694 0.095220566 0.156664848 0.105726480 0.142731190 0.083802462 0.104695320 0.152644396 0.001368355 0.001429987 0.001381617 0.001208027 0.001233681 0.001403942 0.041067430 0.041108556 0.041114913 0.041171395 0.041114771 0.041099817 0.190501473 0.191135753 0.199608710 0.197450946 0.211162424 0.199702993 0.338916089 0.328232992 0.331783628 0.331724030 0.324707745 0.338011221
0.077173471 0.067177296 0.063191891 0.059224606 0.095191956 0.085215569 0.123712540 0.107700348 0.100635052 0.094743013 0.152681828 0.136704683 0.001261925 0.001357830 0.001280720 0.001222491 0.001224283 0.001357381 0.041031805 0.041219146 0.041173355 0.041093363 0.040991342 0.041135201 0.198941457 0.185198979 0.198804394 0.204197583 0.183133080 0.193364973 0.315991181 0.318345326 0.300300946 0.293870065 0.302301790 0.291387910
0.084200621 0.081202745 0.061171770 0.079184532 0.062185764 0.077180147 0.134640455 0.129673958 0.098006248 0.126761198 0.099772930 0.123680830 0.001307913 0.001505599 0.001334598 0.001213522 0.001370136 0.001230455 0.041063058 0.041093391 0.041194949 0.041108852 0.041090614 0.041055431 0.183434216 0.189820397 0.189458176 0.182746205 0.188668398 0.190876487 0.302679427 0.296434153 0.287498017 0.324453913 0.317855147 0.336774161
0.056202888 0.080208778 0.089263916 0.070172071 0.054170847 0.075188398 0.089720488 0.128697157 0.142665148 0.112854242 0.086725712 0.120705605 0.001234122 0.001279154 0.001283425 0.001297339 0.001156823 0.001279607 0.041037757 0.041054564 0.041108542 0.041098697 0.041124349 0.041134142 0.189015953 0.187752869 0.179892643 0.186416728 0.174637508 0.187643138 0.293941242 0.284810338 0.280356400 0.297323615 0.278700064 0.293946352
0.068183899 0.053171635 0.096255064 0.096160650 0.056171656 0.074194193 0.108672857 0.084686279 0.153713703 0.153646946 0.089672089 0.118689299 0.001384400 0.001223104 0.001185383 0.001240735 0.001218507 0.001222410 0.041134222 0.041143324 0.040987248 0.041047847 0.041225843 0.041153444 0.199496087 0.192684022 0.190591959 0.189754723 0.183606596 0.195899062 0.331535527 0.324217200 0.314382209 0.312651266 0.308055825 0.325621535
0.072194338 0.077231646 0.066199303 0.072194099 0.074193954 0.065205097 0.115635872 0.123685122 0.105712891 0.115661621 0.118709564 0.104694366 0.001166531 0.001398014 0.001199732 0.001500451 0.001390029 0.001265640 0.041110942 0.041009829 0.041266283 0.041124913 0.041082805 0.041117121 0.180564799 0.171838652 0.186932096 0.179511030 0.187715435 0.173018525 0.277037512 0.284364734 0.281413389 0.284686603 0.276015532 0.279357113
0.099216223 0.051167965 0.056183815 0.068173885 0.062178850 0.091192484 0.158737898 0.081733227 0.089717150 0.108730793 0.099711418 0.145658493 0.001285391 0.001246322 0.001324931 0.001285193 0.001349297 0.001366055 0.041094111 0.041055739 0.041105670 0.041141176 0.041104791 0.041350923 0.186864915 0.182137119 0.179567356 0.210155368 0.186696097 0.186782668 0.292318377 0.309992512 0.298092014 0.314474321 0.305982394 0.311226704
0.095196962 0.099205971 0.094178200 0.059205294 0.067194700 0.068216085 0.152700424 0.158701658 0.150655985 0.094742298 0.107679367 0.108696938 0.001151090 0.001321985 0.001428244 0.001344159 0.001360843 0.001328577 0.041031877 0.041036865 0.041080063 0.041316368 0.041160417 0.041173837 0.212849667 0.200834044 0.219693458 0.203269686 0.204095565 0.203712289 0.328627506 0.326001026 0.317858706 0.323734530 0.329257982 0.338340513
0.081196785 0.089216232 0.082214594 0.088182449 0.069203377 0.096178055 0.129670382 0.142639160 0.131710768 0.140696287 0.110747814 0.153696537 0.001259461 0.001363869 0.001357426 0.001435443 0.001301259 0.001261222 0.041026654 0.041160365 0.041125592 0.041252725 0.041158813 0.041059241 0.213899865 0.216997091 0.207195654 0.198075584 0.207667556 0.204583535 0.334303150 0.340734934 0.329092086 0.340729120 0.340306635 0.315233038
0.051177979 0.057166338 0.062206745 0.055167198 0.088215351 0.081157446 0.081684828 0.091708422 0.099712849 0.088720322 0.140641212 0.129643440 0.001222918 0.001208006 0.001279344 0.001253932 0.001193931 0.001202544 0.041039561 0.041079394 0.041110389 0.041110675 0.041290447 0.041155980 0.174315417 0.186021569 0.178989515 0.168954206 0.173993289 0.174447502 0.284593476 0.307676162 0.304593147 0.281945415 0.294210955 0.285302508
0.052174330 0.079190731 0.075196505 0.084185123 0.083212137 0.090205431 0.083688021 0.126731157 0.120692968 0.134650230 0.132726192 0.144673586 0.001352959 0.001287147 0.001429583 0.001421722 0.001367885 0.001432036 0.041180931 0.041092164 0.041122270 0.041108540 0.041111269 0.041066098 0.201307485 0.209920652 0.199418212 0.196050122 0.209235694 0.197858998 0.311682383 0.303095680 0.308908811 0.303453723 0.336214155 0.296276724
0.097202778 0.086184978 0.095198870 0.079197407 0.063198566 0.066174030 0.155622482 0.137682438 0.152662992 0.126693487 0.100663900 0.105710506 0.001333928 0.001396877 0.001484336 0.001266025 0.001221104 0.001259044 0.041099043 0.041164910 0.041126193 0.041062963 0.041120646 0.041295669 0.202794553 0.202471830 0.204660817 0.225092988 0.196232536 0.204930960 0.323170600 0.330545953 0.323287981 0.333522820 0.326072112 0.322930775
