0.069369078 0.062476635 0.051360607 0.061391830 0.057461262 0.070430517 0.106724501 0.100079536 0.081764460 0.097672462 0.091940165 0.112752438 0.001801349 0.001883300 0.001671643 0.001869264 0.001879309 0.001782346 0.040829397 0.041180772 0.041029310 0.041063529 0.041056553 0.040058571 0.095743070 0.132932325 0.124018326 0.122452294 0.125333988 0.136855386
0.092402697 0.076346636 0.075462341 0.072351456 0.053382397 0.098402500 0.147846222 0.121765614 0.120574236 0.115816593 0.084672451 0.152743578 0.001884708 0.001847932 0.001881094 0.001878461 0.001794550 0.001727432 0.040001772 0.040998205 0.041083185 0.040942759 0.041090556 0.041096727 0.148733717 0.144002438 0.165884631 0.141720085 0.175737015 0.165277073
0.076454163 0.057392120 0.067433119 0.065432310 0.051389456 0.064379692 0.120800972 0.091921568 0.107545376 0.104636669 0.081691027 0.102758169 0.002760334 0.001847211 0.001858019 0.001891629 0.001878672 0.001865197 0.041024217 0.040984816 0.040989739 0.040978800 0.041070163 0.041064975 0.124801568 0.140500811 0.140682623 0.150330634 0.129754821 0.139574176
0.063315630 0.063370705 0.089462996 0.059391737 0.058400631 0.073440075 0.100777149 0.100666761 0.142780542 0.094630480 0.092753410 0.116749048 0.001793783 0.001863290 0.001787210 0.001739065 0.001815502 0.001886916 0.041057967 0.041003486 0.040998765 0.040986111 0.041048900 0.041229698 0.167848387 0.171417883 0.166842096 0.186181505 0.150450978 0.133080007
0.072452068 0.092514992 0.099372625 0.056294680 0.090452194 0.060364008 0.115748882 0.147552252 0.158583641 0.089883566 0.144609213 0.096758842 0.001566346 0.001524220 0.001791286 0.001821399 0.001859777 0.001799007 0.041055011 0.040999939 0.041068499 0.040898305 0.041073087 0.040894157 0.152645917 0.153925406 0.168700362 0.139158934 0.175823639 0.164732203
0.065444946 0.077430248 0.067398787 0.067390919 0.077357769 0.057362556 0.104593039 0.121665239 0.107892275 0.107595682 0.123616219 0.091569662 0.001819373 0.001834429 0.001862370 0.001856085 0.001576384 0.001852756 0.040973740 0.041073875 0.040803520 0.041091328 0.040803757 0.041220226 0.127097716 0.131748125 0.124519941 0.119834406 0.145526347 0.138563832
0.091441154 0.072381973 0.099447012 0.058443785 0.054385662 0.091408730 0.144752026 0.115716696 0.157866716 0.092869997 0.086698294 0.142784119 0.001804936 0.001881242 0.001864704 0.001667600 0.001855407 0.001873875 0.040996965 0.041066307 0.041007260 0.041065377 0.041079525 0.040922500 0.163406460 0.158767188 0.143677590 0.158434221 0.164894587 0.142612532
0.084400415 0.068343878 0.060376167 0.051399469 0.059396029 0.099457264 0.134727001 0.107855797 0.096819878 0.081933022 0.093791246 0.158846617 0.001587003 0.001702791 0.001611481 0.001553964 0.001778257 0.001802803 0.040085608 0.040901021 0.041065599 0.040917422 0.041045544 0.041009028 0.130962514 0.142070752 0.147066078 0.124593289 0.148422495 0.116521043
0.089417934 0.070270777 0.055468798 0.098455667 0.073452950 0.074247360 0.142761946 0.112438917 0.088926554 0.156744242 0.116585970 0.118678093 0.001854141 0.001727961 0.001753214 0.001872639 0.001617712 0.001803105 0.040962347 0.041002931 0.040952211 0.040846280 0.041106018 0.041061861 0.181380710 0.148912704 0.150710578 0.159719464 0.175459901 0.147661717
0.057394743 0.080400944 0.091458082 0.060388803 0.067463875 0.059430599 0.091753006 0.128745317 0.145868063 0.095850229 0.107860327 0.094812632 0.001797800 0.001866142 0.001746552 0.001623236 0.001846030 0.001837013 0.040993185 0.041275245 0.040999999 0.040959694 0.040860895 0.041044286 0.124242269 0.160661974 0.165493468 0.134316776 0.145103440 0.156517253
0.071393013 0.050400019 0.063394070 0.058387995 0.098399639 0.051281691 0.113869429 0.080917835 0.100939035 0.092697382 0.156666994 0.081841707 0.001874046 0.001655919 0.001794914 0.001748986 0.001558879 0.001794912 0.040876939 0.041051445 0.041039949 0.041058699 0.040975823 0.040985171 0.129656577 0.119356902 0.138175910 0.123444566 0.108280407 0.130921500
0.078364849 0.094403505 0.072345495 0.092383146 0.068415403 0.067392111 0.124690533 0.148590803 0.115744591 0.146895170 0.108700037 0.107705832 0.001718140 0.001667904 0.001636526 0.001724701 0.001614158 0.001607391 0.040925984 0.041004998 0.041063094 0.040999443 0.041089241 0.040911487 0.158119830 0.146589969 0.144628930 0.141737501 0.142163463 0.141854221
0.055418491 0.079381704 0.052430630 0.068337679 0.074449778 0.100429773 0.088719368 0.125635862 0.083771706 0.108832836 0.118757486 0.160715103 0.001732746 0.001753727 0.001863998 0.001799728 0.001523626 0.001867424 0.041079344 0.041015056 0.040998107 0.041069004 0.041113036 0.041044673 0.140105964 0.124736034 0.115659780 0.128818838 0.131898075 0.132605167
0.055375338 0.050251007 0.090395451 0.073393106 0.070413589 0.098376989 0.088767290 0.080888271 0.144778252 0.116719246 0.112545729 0.156845808 0.001313920 0.001543522 0.001875429 0.001806952 0.001830415 0.001565636 0.041065966 0.041035912 0.041046107 0.040985010 0.040994392 0.039888480 0.151663719 0.144410315 0.162702006 0.169022194 0.154534853 0.135628854
0.082439184 0.060408592 0.079432726 0.083411932 0.053363562 0.054407358 0.131410122 0.096582174 0.125745773 0.132592678 0.084670544 0.086770535 0.001881121 0.001644724 0.001881210 0.001753935 0.001494763 0.001794215 0.041069675 0.041065671 0.041053464 0.040887092 0.041215194 0.041048736 0.155712291 0.147941943 0.163541759 0.157893340 0.128122318 0.158271449
0.079458952 0.080403328 0.073400974 0.065441608 0.062402010 0.062345743 0.126663208 0.128592253 0.116503716 0.104775429 0.099930286 0.099754333 0.001866603 0.001831683 0.001866909 0.001679746 0.001697065 0.001798718 0.041088426 0.041069589 0.040877685 0.041301875 0.041007697 0.041067169 0.151604163 0.129556697 0.150792963 0.140413399 0.144152743 0.142130287
0.078319073 0.081490278 0.083431959 0.067443609 0.089353561 0.078415632 0.124655247 0.129757404 0.132619619 0.107675076 0.140661716 0.124758720 0.001826832 0.001676962 0.001602131 0.001839837 0.001792425 0.001865489 0.040891614 0.040877425 0.041080622 0.040927988 0.041043240 0.041047732 0.175076287 0.163459593 0.155496394 0.142429458 0.157794830 0.160994017
0.075421572 0.068386793 0.099383831 0.061385632 0.059352398 0.085457325 0.120791197 0.108951330 0.158669472 0.097866058 0.094543457 0.135761499 0.001588624 0.001730855 0.001658430 0.001754228 0.001607760 0.001767993 0.040994670 0.041075772 0.041096876 0.041082863 0.040984431 0.041091546 0.169030095 0.145783837 0.168692892 0.168528358 0.146603272 0.152383431
0.092375040 0.091476679 0.069393635 0.096389532 0.083440304 0.074408531 0.147745609 0.145829439 0.110726118 0.152463198 0.132520914 0.118952990 0.001930710 0.001795669 0.001786273 0.001823694 0.001867285 0.001562435 0.041110435 0.041056914 0.040965457 0.040780531 0.041012848 0.041076703 0.211009565 0.171011350 0.199492505 0.174272520 0.180455777 0.200423754
0.086439133 0.069443941 0.057462454 0.081476927 0.072324514 0.056399107 0.136787176 0.110717535 0.091598511 0.129551888 0.114867687 0.089715004 0.001835932 0.001740584 0.001899153 0.001550158 0.001801922 0.001795253 0.041100370 0.041080775 0.041071070 0.040881941 0.041031509 0.041302278 0.157045144 0.140218173 0.118498964 0.139606445 0.122631572 0.130067261
0.072457314 0.051375628 0.084431887 0.079438210 0.059378862 0.079397917 0.115635633 0.081697464 0.134669781 0.125760317 0.094719887 0.125541925 0.001796981 0.001616906 0.001774540 0.001831519 0.001815483 0.001616187 0.041059253 0.040898101 0.040874328 0.040909581 0.040906240 0.041037756 0.145562282 0.147353783 0.146494411 0.164509782 0.141024108 0.136029621
0.050340176 0.073409557 0.061279774 0.092366934 0.092422962 0.050428629 0.080728054 0.116595268 0.097757578 0.147672176 0.145684004 0.080931664 0.001546720 0.001621924 0.001665256 0.001694720 0.001780305 0.001763692 0.041077516 0.041070834 0.040908864 0.040563568 0.040962159 0.041008352 0.134844518 0.154776064 0.119768496 0.146759067 0.147477332 0.131173516
0.064407110 0.080406427 0.053336382 0.069422245 0.074421644 0.061447382 0.102663994 0.128666162 0.084837675 0.110799313 0.118636131 0.097945690 0.001782687 0.001577617 0.001858835 0.001745855 0.001691768 0.001810067 0.040964031 0.041095851 0.041016354 0.041014280 0.040927628 0.041080720 0.164636306 0.143137842 0.136200835 0.154604397 0.174702155 0.139987481
0.061383009 0.083409071 0.070370674 0.078410864 0.092355490 0.086347818 0.097828150 0.132674456 0.112687588 0.124696016 0.147676468 0.137671947 0.001520180 0.001781966 0.001892743 0.001842136 0.001884338 0.001820259 0.041059469 0.040885912 0.040928516 0.041082769 0.041044078 0.041114366 0.163764908 0.175434448 0.166620107 0.174529736 0.144210247 0.146648782
0.085362434 0.071451902 0.091433525 0.071364164 0.080442905 0.096332550 0.136938095 0.113837481 0.144718885 0.112760067 0.128849506 0.152677059 0.001640210 0.001572232 0.001677520 0.001795375 0.001872174 0.001799489 0.040969960 0.040966750 0.041034274 0.041038691 0.040982195 0.041064867 0.199233499 0.188355486 0.160003969 0.161991371 0.139774802 0.167592621
0.066393375 0.092393398 0.060395002 0.075403452 0.065419674 0.054286480 0.105647564 0.146605015 0.096798658 0.118777752 0.104699850 0.086905003 0.001859904 0.001766643 0.001841509 0.001778178 0.001661162 0.001257456 0.041018367 0.040985482 0.041024195 0.041118203 0.041059970 0.041058463 0.175052826 0.145417743 0.155895240 0.145678642 0.148792699 0.172052306
0.097418070 0.086483240 0.089399338 0.091478586 0.063174486 0.075363874 0.154707909 0.136843443 0.141859770 0.144713163 0.100850582 0.120756626 0.001892709 0.001876841 0.001792123 0.001843265 0.001809523 0.001854213 0.040981749 0.041073146 0.041056904 0.040998586 0.041052259 0.040952675 0.171738168 0.164183463 0.178293014 0.138757044 0.176012948 0.196568452
0.079152346 0.071147203 0.068138361 0.063150167 0.056145906 0.094187021 0.126784563 0.112173796 0.108428001 0.100780249 0.089558125 0.149227142 0.001199569 0.001887881 0.001234072 0.001647062 0.001222804 0.001246275 0.041007794 0.041089318 0.041093965 0.041073496 0.041028318 0.040245014 0.151545995 0.159400652 0.130529053 0.139509413 0.147846810 0.118544939
0.072141886 0.087145567 0.057155371 0.055164099 0.053149939 0.054184914 0.115849972 0.138669014 0.091702461 0.088688850 0.084577560 0.086768866 0.001265245 0.001270343 0.001224439 0.002194414 0.001217273 0.001214271 0.041061431 0.040889674 0.040360887 0.041031002 0.040874364 0.040305346 0.128323715 0.109021553 0.132756320 0.125894102 0.142586577 0.140999665
0.061149359 0.091160536 0.059140205 0.062158823 0.085167646 0.065189362 0.096575975 0.145519018 0.094591141 0.099759340 0.136784315 0.104749918 0.001240361 0.001227767 0.001807199 0.001230222 0.001872589 0.001875676 0.041026416 0.040890977 0.041046995 0.040957688 0.041044530 0.040926036 0.143194771 0.148807025 0.163275086 0.155912290 0.157789411 0.149849784
0.067378044 0.090403557 0.096374273 0.099439144 0.052370787 0.068430662 0.107516289 0.144840479 0.152782679 0.158630371 0.083920956 0.108752728 0.001704589 0.001882227 0.001845050 0.001882856 0.001813278 0.001881994 0.041071840 0.041145473 0.040977399 0.041084072 0.041082562 0.040893942 0.159155880 0.192266363 0.156723223 0.155779704 0.159030487 0.170755301
0.096410513 0.061444998 0.071448565 0.094394922 0.099355936 0.084407568 0.151587248 0.097767830 0.113903284 0.150767565 0.158797741 0.134777784 0.001585157 0.001804300 0.001850086 0.001787648 0.001856374 0.001876293 0.040982499 0.041053572 0.040962409 0.041039291 0.040848360 0.041051275 0.173634012 0.183988124 0.180667576 0.178657487 0.151224231 0.179292839
0.094391823 0.068359613 0.080331326 0.069401979 0.054368258 0.097434759 0.150611877 0.108567238 0.128704786 0.110983133 0.086789846 0.155760050 0.001832443 0.001649673 0.001607409 0.001572878 0.001758916 0.001829754 0.041050829 0.040945410 0.041054337 0.040997470 0.041059363 0.040967213 0.130400620 0.143481351 0.150132966 0.159170720 0.136645047 0.183631297
0.059431076 0.060394287 0.079390049 0.068409920 0.099394798 0.052365780 0.094796419 0.096710920 0.126581669 0.107670069 0.158690214 0.083781958 0.001809077 0.001740189 0.001900994 0.001664249 0.001859181 0.001631808 0.041247563 0.041051138 0.040892084 0.041055686 0.041031814 0.041088442 0.140309754 0.143998003 0.130732025 0.155200191 0.096711376 0.140740361
0.058364391 0.099474907 0.078437805 0.075445652 0.072393894 0.072489023 0.092722416 0.156754255 0.123644829 0.120535612 0.115699530 0.115485191 0.001795021 0.001612845 0.001662290 0.001612207 0.001794390 0.001784013 0.041047995 0.041021434 0.040899644 0.041099914 0.040881242 0.041050633 0.114358051 0.160441037 0.137686345 0.152126423 0.157808204 0.136622615
0.078398943 0.072407007 0.073466778 0.098443508 0.099294901 0.055458784 0.124752522 0.115821123 0.116784334 0.156678438 0.158843040 0.088928938 0.001640318 0.001866139 0.001678763 0.001773058 0.001821242 0.001721550 0.041005162 0.040987761 0.040962381 0.040875550 0.040901503 0.041021294 0.163905417 0.143635826 0.176747091 0.162679555 0.165425809 0.152479052
0.088451624 0.062399864 0.066389561 0.066394567 0.059374094 0.083412647 0.139726639 0.099761248 0.105874538 0.105880976 0.093849421 0.132787704 0.001793576 0.001464952 0.001777511 0.002625052 0.001731040 0.001821592 0.041007384 0.041040602 0.041073686 0.041063702 0.040955104 0.040998115 0.142637470 0.147981761 0.156860997 0.160456702 0.160091302 0.157168059
0.075374603 0.095440626 0.067401409 0.077463627 0.081402302 0.052412510 0.120856524 0.151761055 0.107598066 0.123661995 0.129482269 0.083636284 0.001742729 0.001863978 0.001534617 0.001825300 0.001583046 0.001646337 0.041038066 0.040844580 0.040949755 0.040876042 0.041074647 0.041039821 0.137775844 0.127992344 0.137657404 0.168077180 0.160141691 0.148164934
0.092347622 0.076401711 0.058429956 0.082418919 0.092407465 0.080408335 0.147778273 0.120832205 0.092869520 0.130860090 0.147582531 0.128929853 0.001784365 0.001780404 0.001808837 0.001515377 0.001866196 0.001504906 0.040990650 0.041077318 0.040930387 0.041072947 0.041053600 0.041031832 0.157041145 0.145325156 0.139207098 0.150625734 0.167874861 0.150315246
0.070384741 0.091446400 0.090338707 0.052388668 0.067386627 0.081398726 0.112549543 0.142851591 0.144879103 0.083903790 0.107796192 0.129579544 0.001807954 0.001648927 0.001609492 0.001591972 0.001808125 0.001880590 0.041068781 0.041083749 0.041043246 0.040996891 0.040987546 0.040962355 0.173641620 0.162036538 0.150181759 0.178828991 0.153203429 0.153359962
0.070366859 0.071410179 0.097390175 0.065448284 0.080370426 0.082310200 0.112851858 0.112720966 0.155696869 0.104768753 0.128656864 0.131644011 0.001611454 0.001765195 0.001941122 0.001641540 0.001768020 0.001867363 0.041000003 0.040883488 0.040888673 0.041035132 0.041066600 0.041169336 0.149004224 0.165115440 0.128552866 0.148584347 0.171623570 0.152118786
0.100376844 0.058393002 0.067462206 0.071409941 0.082445383 0.094477892 0.157453060 0.092936277 0.107676268 0.113596916 0.131907940 0.149515390 0.001485686 0.001365135 0.001569570 0.001788716 0.001718556 0.001575037 0.040842813 0.040947836 0.041070499 0.040950702 0.040925174 0.040999086 0.123824358 0.153384130 0.140268554 0.152854044 0.168530224 0.148727967
0.055407524 0.067346096 0.065401316 0.099403620 0.081349850 0.074408531 0.088818789 0.106399536 0.104712486 0.156755924 0.129699707 0.117679834 0.001476106 0.001841983 0.001737792 0.001828413 0.001849151 0.001824906 0.041005818 0.041054389 0.041095586 0.041064980 0.041003514 0.041025431 0.136401193 0.155013556 0.132304938 0.160840042 0.129641088 0.146490178
0.091376543 0.066351652 0.084404230 0.087456703 0.088394165 0.097381830 0.144584417 0.105715036 0.133684158 0.139648676 0.140676022 0.153538704 0.001792539 0.001379154 0.001870146 0.002845492 0.001838675 0.001872002 0.040744116 0.040878408 0.040987339 0.040989782 0.041089816 0.041027468 0.171246087 0.152571005 0.188738620 0.165309537 0.164844615 0.166621767
0.091451168 0.083403587 0.079452038 0.062410593 0.088402748 0.094408989 0.144709349 0.132759809 0.126713753 0.099565506 0.140798330 0.150596380 0.001860003 0.001824639 0.001854450 0.001746487 0.001872999 0.001792059 0.041093638 0.040958943 0.041021691 0.041090095 0.041005925 0.040970336 0.185890166 0.185763050 0.183555415 0.165931738 0.190538520 0.173852406
0.090352058 0.098425627 0.096415758 0.100396872 0.065446854 0.076397657 0.144752502 0.156877518 0.151744127 0.160844564 0.104854107 0.121509552 0.001484376 0.001839216 0.001809531 0.001844567 0.001773726 0.001790399 0.041035354 0.040899445 0.041028187 0.041019178 0.041075904 0.040902339 0.164598845 0.169293315 0.209368389 0.161164992 0.182818088 0.176109061
0.089395761 0.082412481 0.071449995 0.092444420 0.082359076 0.100322247 0.142500401 0.131793976 0.112706423 0.147679806 0.131746054 0.159924507 0.001873016 0.001876494 0.001654921 0.001871493 0.001845685 0.001894345 0.041053589 0.041011916 0.041059230 0.040934746 0.041075128 0.041040377 0.200067181 0.179277064 0.169474111 0.183099414 0.188308446 0.169374937
0.094410181 0.090339184 0.063374758 0.053334475 0.069393635 0.052367687 0.150579453 0.144781351 0.100794792 0.084743023 0.110737801 0.083579540 0.001876147 0.001839098 0.001667357 0.001656336 0.001788227 0.001859735 0.040919620 0.040923367 0.041075144 0.040964482 0.041089200 0.041089595 0.130745518 0.165858743 0.142227311 0.159932266 0.145330671 0.146843807
0.065448284 0.095382690 0.062476873 0.082247257 0.080363512 0.063448429 0.104680777 0.152599573 0.099831343 0.131676435 0.128802299 0.099946499 0.001784123 0.001782414 0.001577857 0.001639427 0.001851199 0.001742737 0.040981257 0.040869887 0.041073624 0.041075007 0.041005532 0.041044006 0.158386342 0.162357960 0.146765051 0.153692049 0.193932720 0.146950457
0.092447519 0.052355766 0.065269709 0.096422672 0.058392286 0.067397118 0.147578716 0.083874702 0.104588509 0.153544903 0.092635393 0.107739687 0.001853035 0.001772193 0.001870298 0.001809113 0.001857805 0.001875636 0.040945877 0.041004970 0.040922655 0.040975525 0.041095540 0.041062917 0.147634351 0.142573358 0.133192439 0.145634632 0.149225302 0.154705051
0.077335358 0.081441641 0.082375765 0.061434746 0.052382708 0.053428650 0.123839855 0.124515533 0.131784916 0.097507954 0.083755016 0.084908962 0.001896147 0.001894252 0.001889500 0.001791143 0.001776722 0.001775560 0.041056823 0.040820401 0.041019818 0.040979974 0.041001745 0.041063983 0.164336595 0.126982777 0.156985790 0.157419691 0.139308197 0.146754088
0.065398455 0.052402973 0.062397718 0.099436283 0.066354275 0.100409508 0.104939222 0.083883286 0.099624634 0.157685757 0.105577230 0.158898354 0.001882706 0.001768964 0.001479824 0.001834985 0.001176537 0.001894479 0.040998505 0.041069443 0.040892124 0.041081370 0.041054345 0.040055911 0.153719894 0.126686683 0.168074699 0.149963886 0.165750917 0.162346584
0.063405037 0.055416584 0.098426819 0.074443579 0.083414793 0.050439358 0.100805283 0.088747740 0.156831026 0.118738174 0.132695675 0.080883503 0.001583154 0.001493242 0.001885321 0.001660377 0.001667938 0.001492814 0.041112945 0.041089981 0.041092543 0.040921912 0.041172648 0.041059821 0.173262070 0.152386204 0.145656117 0.178737781 0.150956650 0.175579000
0.090491056 0.070365667 0.066424847 0.093352079 0.077351332 0.054394245 0.144581795 0.112681150 0.105718374 0.148658514 0.123765469 0.086683273 0.001787166 0.001804403 0.001473667 0.001755647 0.001635050 0.001805203 0.040812650 0.041067657 0.041056600 0.041069831 0.041058660 0.041057584 0.150231650 0.155751406 0.156874301 0.188806747 0.151653929 0.143711696
0.063400507 0.071334362 0.058412790 0.070397615 0.069340944 0.082411289 0.099708080 0.112629652 0.092871666 0.111553431 0.110903978 0.130753994 0.001779530 0.001833451 0.001767919 0.001882295 0.002495806 0.001796515 0.040965256 0.040868242 0.041065302 0.040967244 0.040960376 0.039995011 0.120812852 0.116788657 0.147771209 0.141119097 0.130611524 0.120808966
0.052389860 0.051388502 0.095451593 0.082392693 0.079315901 0.051407814 0.083869696 0.081804514 0.152662992 0.130581856 0.126804590 0.081660986 0.001874462 0.001674164 0.001801777 0.001862029 0.001528695 0.001619522 0.041091262 0.041041243 0.040859995 0.040970604 0.040830366 0.041070093 0.141183883 0.115225514 0.125777658 0.140764937 0.143669162 0.147302393
0.093437672 0.052396297 0.082444668 0.079447985 0.055411100 0.078490973 0.145494223 0.083936691 0.131579399 0.126783133 0.088668108 0.124763250 0.001848428 0.001606704 0.001729830 0.001910607 0.001888746 0.001866858 0.040933987 0.041091402 0.041069114 0.040967703 0.041095550 0.041041223 0.195440078 0.183170022 0.151938230 0.182386126 0.181265980 0.189347633
0.077308416 0.097242355 0.072396755 0.086391211 0.095350266 0.060329199 0.123657942 0.155706406 0.115553856 0.137469769 0.151589870 0.096949339 0.001862040 0.001826902 0.001713438 0.001779962 0.002607453 0.001837147 0.041014256 0.041002750 0.040999670 0.041031853 0.040968937 0.041310639 0.162894383 0.130762326 0.163047240 0.160492436 0.172817060 0.157493521
0.072400331 0.053448677 0.056280375 0.077409267 0.088416576 0.097367287 0.114713430 0.084862471 0.089862108 0.123567581 0.140781641 0.155499458 0.001884720 0.001662857 0.001865561 0.001902162 0.001799061 0.001886221 0.041039553 0.041090075 0.041064651 0.041015824 0.040910125 0.041057079 0.158608165 0.156364519 0.160082698 0.171772230 0.165583160 0.155834870
0.073407888 0.062391996 0.054402113 0.063401699 0.058394670 0.080345154 0.116719484 0.099683523 0.086673975 0.100857019 0.091845989 0.128918409 0.001873097 0.001470197 0.001799878 0.001807210 0.001842313 0.001655614 0.041022245 0.040978543 0.041054874 0.041053928 0.041035538 0.040862773 0.136878465 0.128726694 0.142464312 0.178678700 0.126448946 0.127594406
0.090441227 0.060308695 0.099420786 0.063400745 0.082474947 0.054238558 0.143560886 0.096696615 0.158864975 0.100770235 0.131635189 0.086744785 0.001876300 0.001900320 0.001879469 0.001722833 0.001882252 0.001796140 0.041051899 0.041072176 0.041059626 0.041070486 0.041073689 0.041010756 0.161430232 0.123108030 0.133677005 0.147957255 0.144054939 0.158028914
0.075395823 0.058361769 0.078387737 0.079449177 0.086473942 0.067431211 0.119526386 0.092715740 0.124796391 0.126694918 0.137608767 0.107658625 0.001598721 0.001576040 0.001867640 0.001907207 0.001905888 0.001878111 0.041078525 0.041067657 0.041012787 0.041031914 0.040859974 0.041095051 0.162566502 0.144241878 0.163864973 0.162347035 0.165824716 0.165923258
0.054414511 0.073441029 0.096387625 0.079487085 0.070378542 0.060406446 0.086903334 0.116738319 0.152456522 0.126860619 0.112489939 0.096852303 0.001481507 0.001726727 0.001831640 0.001837398 0.001902002 0.001803521 0.041084999 0.040994652 0.041032293 0.041025873 0.041043210 0.041007352 0.138828721 0.141335988 0.120621213 0.144993992 0.156533926 0.151067988
0.096419334 0.098453522 0.084463596 0.079378366 0.071397543 0.100316048 0.153869867 0.156677008 0.134626150 0.126703262 0.113902092 0.159852028 0.001875493 0.001867939 0.001521637 0.001497598 0.001795656 0.001806083 0.041093879 0.041051808 0.041011554 0.040914345 0.040890613 0.040887782 0.179504017 0.213780950 0.165084886 0.206374544 0.223574250 0.194432764
0.085409403 0.086387873 0.071354628 0.069422722 0.081390381 0.085386276 0.135647297 0.137761116 0.113667965 0.110749245 0.126734257 0.136588812 0.001741248 0.001824085 0.001593117 0.001605179 0.001765910 0.001817135 0.040913158 0.040801451 0.041064896 0.040897502 0.041029589 0.040863564 0.165781606 0.173917627 0.149319335 0.163943512 0.152650984 0.186446714
0.085422039 0.064483404 0.099487782 0.078426361 0.085400343 0.082346916 0.136628151 0.102718592 0.157711029 0.125194550 0.136506081 0.131568193 0.001761525 0.001871298 0.001784149 0.001752637 0.001632409 0.001750345 0.041003100 0.041016598 0.040962667 0.039962623 0.041010848 0.040995059 0.162484944 0.172353615 0.166395554 0.173110466 0.144822884 0.154715423
0.052297115 0.064405441 0.058393717 0.086419582 0.079401493 0.094395161 0.083758354 0.102967978 0.092551231 0.136776686 0.126697540 0.149646997 0.001751649 0.001746431 0.001864181 0.001866129 0.001840258 0.001861209 0.041025895 0.041108422 0.040919629 0.040931776 0.041155723 0.040949958 0.145110659 0.156412834 0.126156441 0.133763115 0.142520057 0.129614804
0.090377808 0.096275091 0.079409599 0.056339502 0.092375994 0.089381933 0.144940853 0.153592587 0.126574993 0.089716434 0.146642685 0.142661572 0.001873782 0.001549625 0.001891777 0.001812278 0.001846114 0.001883318 0.041079706 0.041051482 0.041028741 0.041075438 0.040898563 0.041009612 0.159050507 0.142972928 0.155336826 0.164683463 0.165182960 0.164752360
0.070446730 0.099285841 0.066366434 0.064258575 0.093410492 0.060412645 0.112885952 0.158588409 0.105764627 0.102525473 0.148842335 0.096579313 0.001625029 0.001749124 0.001833928 0.001782369 0.001557144 0.001215187 0.041062691 0.041043960 0.041070344 0.041019851 0.040875874 0.040906349 0.163791544 0.146630790 0.174194504 0.134431989 0.147809017 0.163667015
0.099439383 0.090330601 0.081429720 0.098391533 0.050388813 0.086419344 0.157766104 0.144775629 0.129814148 0.155943632 0.080880642 0.136773825 0.001871517 0.001626062 0.001664602 0.001806526 0.001705073 0.001808609 0.041060108 0.041133956 0.040993646 0.041006658 0.041100239 0.041230130 0.199000219 0.185637848 0.161897836 0.162768274 0.192109384 0.160500551
0.082411051 0.062403440 0.095470905 0.079388857 0.087335348 0.093427896 0.130597353 0.099874973 0.152728081 0.126574278 0.139710665 0.147888184 0.001831817 0.001774134 0.001589435 0.001814829 0.001883466 0.001537895 0.040947685 0.041038617 0.040979608 0.040071024 0.039067429 0.041037495 0.164528313 0.193692614 0.157454660 0.158455752 0.147012632 0.182634007
0.055352211 0.058300972 0.050367832 0.071440458 0.089427471 0.076398373 0.088646412 0.092609167 0.080883265 0.113507509 0.142584085 0.121649265 0.001720420 0.001503261 0.001842608 0.001877862 0.001902694 0.001819556 0.041051128 0.041104077 0.041008811 0.040882106 0.040889009 0.041077870 0.131261775 0.146451975 0.119708506 0.127727085 0.165787304 0.142943398
0.090480089 0.056410551 0.062390804 0.080458403 0.053408623 0.088444948 0.143795013 0.089776993 0.099756479 0.128772020 0.084798813 0.140727520 0.001846947 0.001788919 0.001882862 0.001798207 0.001728203 0.001870369 0.040921849 0.041179499 0.041077212 0.041009761 0.041087053 0.040880673 0.159534579 0.137475121 0.173489204 0.164269871 0.155541003 0.140497919
0.090378761 0.090375185 0.085467815 0.050449848 0.068403006 0.096455097 0.144583464 0.143748760 0.136870861 0.080815315 0.108924389 0.153685808 0.001782785 0.001785691 0.001870805 0.001747473 0.001858298 0.001878712 0.040952260 0.041050166 0.041087056 0.041059615 0.041066026 0.040026684 0.163635692 0.197341534 0.166625446 0.155753420 0.188007519 0.160487244
0.067379713 0.054468632 0.056342363 0.072398901 0.065329075 0.089358568 0.107572794 0.086783171 0.089490175 0.115617990 0.104583263 0.141593456 0.001654458 0.001493731 0.001591718 0.001381583 0.001792440 0.001859055 0.040985438 0.041054568 0.041043310 0.040976223 0.041086862 0.041056410 0.157380451 0.135509301 0.118551715 0.129696384 0.161015445 0.147812118
0.098463535 0.089423180 0.085434198 0.098456621 0.085368633 0.079344273 0.156815767 0.142881155 0.136537552 0.156499147 0.135408401 0.126885176 0.001864888 0.001798126 0.001842203 0.001894396 0.001549189 0.001804137 0.040882214 0.041001697 0.041067120 0.040972098 0.041075221 0.041066459 0.162757048 0.182159607 0.165255537 0.180631801 0.152780397 0.165780738
0.087332964 0.051409006 0.076469660 0.051370621 0.097435236 0.093339682 0.139649630 0.081914186 0.121670008 0.081724167 0.155776262 0.148828745 0.001794544 0.001839981 0.001873104 0.001654417 0.001786751 0.001876259 0.040966329 0.041059440 0.040928198 0.041081654 0.041069150 0.041065489 0.146688266 0.159447472 0.151702729 0.157365652 0.180521277 0.161616928
0.079396009 0.099395990 0.063408136 0.059351444 0.097460032 0.072408915 0.126838923 0.158494473 0.100762367 0.094553471 0.155714750 0.115735769 0.001680015 0.001795761 0.001622176 0.001873843 0.001879819 0.001819960 0.041043099 0.040894017 0.040987353 0.041061282 0.040957918 0.041087104 0.167069103 0.166710141 0.179674607 0.138615158 0.138093227 0.183509435
0.077339411 0.095462561 0.056355953 0.071435928 0.069280863 0.095387936 0.123755693 0.152775526 0.089935780 0.113517523 0.110754967 0.152544498 0.001818540 0.001815085 0.001822553 0.001813602 0.001604121 0.001774700 0.040927789 0.041136510 0.041081870 0.041078248 0.040982921 0.040851890 0.178025757 0.150834794 0.123970716 0.177157128 0.171624445 0.179735186
0.097450495 0.067466736 0.069351673 0.076438904 0.053382397 0.070365191 0.155657530 0.107685089 0.109708309 0.121495962 0.084760666 0.112684011 0.001775814 0.001771618 0.001737965 0.001711824 0.001774035 0.001829970 0.040971486 0.040999871 0.040992873 0.040969795 0.041039089 0.041021543 0.134138124 0.155285855 0.159907007 0.131923954 0.133847027 0.148083108
0.057379246 0.092490673 0.060278654 0.082402706 0.053361654 0.061366558 0.090842009 0.147655725 0.096610308 0.130518675 0.084773779 0.097824335 0.001782954 0.001784418 0.001205561 0.001767232 0.001426443 0.001652088 0.040947068 0.041011338 0.041048637 0.040891044 0.041045809 0.041137826 0.128909434 0.086511342 0.110699330 0.079232763 0.121663835 0.128961822
0.099437952 0.080467701 0.076279163 0.073467016 0.073354721 0.094404936 0.158691645 0.128514290 0.119733810 0.115490675 0.116813898 0.150501728 0.001246522 0.001564560 0.001603605 0.001836418 0.001755323 0.001875851 0.040881392 0.040894494 0.040997001 0.040908088 0.041015599 0.041018245 0.145599381 0.161079945 0.147872365 0.148958723 0.144599819 0.153911367
0.082387924 0.078450918 0.076387167 0.072440624 0.080404758 0.063468695 0.129663229 0.124747753 0.121839285 0.115703821 0.128744364 0.100672960 0.001880300 0.001794231 0.001868179 0.001885497 0.001569484 0.001862583 0.041089096 0.040963678 0.040876023 0.040928999 0.040968099 0.040987840 0.149109172 0.154292603 0.146422635 0.170695592 0.157739498 0.139450987
0.098484755 0.060352802 0.053196669 0.070407629 0.074424267 0.054352283 0.155659199 0.096747398 0.084874630 0.112745285 0.118575811 0.086740494 0.001863979 0.001547074 0.001775277 0.001733323 0.001795251 0.001784996 0.041043914 0.041065770 0.040985960 0.041015283 0.040998149 0.041073237 0.119928709 0.122371904 0.124786282 0.139105138 0.129864768 0.159342351
0.088405848 0.061404705 0.083428383 0.077408314 0.060395718 0.072448492 0.139718533 0.097790003 0.132711649 0.121948957 0.096706152 0.115694523 0.001685036 0.001869649 0.001910169 0.001888356 0.001874425 0.001624751 0.040991224 0.040924958 0.040994390 0.041100607 0.041054053 0.041016077 0.132202913 0.138246793 0.143902683 0.162427084 0.142040135 0.162107814
0.096410275 0.091341257 0.057396889 0.068330765 0.082416296 0.090400457 0.153692961 0.145690203 0.091578484 0.108602047 0.131764174 0.143812656 0.001849098 0.001760194 0.001765987 0.001840450 0.001796102 0.001884632 0.041037356 0.040861634 0.041008523 0.041038471 0.040045890 0.041022513 0.209019561 0.186101959 0.206704103 0.197711398 0.189573411 0.185412519
0.059373856 0.074435949 0.070400000 0.071372271 0.100380421 0.063343287 0.094592333 0.118848801 0.112633944 0.113838911 0.160539865 0.100609779 0.001777715 0.001731083 0.001788501 0.001671291 0.001868039 0.001811213 0.041055142 0.041076500 0.041105443 0.040938668 0.040880051 0.041078147 0.144111512 0.146329731 0.170300147 0.147712397 0.105957122 0.145128921
0.069297314 0.094401836 0.053405523 0.053425312 0.091449022 0.097374916 0.110592127 0.150703192 0.084826231 0.084897518 0.145710230 0.155651331 0.001866674 0.001847980 0.001747638 0.001794567 0.001819935 0.001889777 0.041098315 0.041078901 0.040922652 0.041206488 0.041010796 0.040956340 0.175770890 0.156654150 0.162575726 0.162987084 0.169333837 0.157719235
0.067448616 0.051425934 0.062357426 0.059390783 0.056355715 0.079409599 0.107696295 0.081722260 0.099874496 0.094938278 0.089948893 0.125795126 0.001855279 0.001814798 0.001849892 0.001891163 0.001659806 0.001861517 0.040969585 0.041066031 0.041059267 0.040662942 0.040969114 0.040875053 0.133635497 0.131065113 0.137956633 0.130649498 0.126178064 0.124618549
0.098500967 0.097470999 0.099395990 0.059391499 0.080398798 0.070346594 0.155766487 0.154497623 0.157663584 0.094763756 0.126572132 0.112637758 0.001787114 0.001875416 0.001844697 0.001810516 0.001863298 0.001808728 0.040747846 0.040922800 0.041034174 0.041067313 0.041048694 0.041064441 0.195009242 0.153785689 0.167731738 0.154076340 0.197061404 0.184779866
0.081465483 0.060400009 0.058380127 0.058393240 0.066412687 0.094304323 0.129915953 0.096577883 0.092749119 0.092768431 0.105708361 0.150683641 0.001811281 0.001865978 0.001766546 0.001895776 0.001780577 0.001804466 0.040905743 0.041060186 0.041000961 0.041023498 0.041062339 0.040994479 0.138410419 0.155929886 0.143789747 0.144160985 0.127131318 0.130341544
0.069375992 0.061336756 0.063449621 0.068366051 0.060386181 0.072403431 0.110747814 0.096935511 0.100702286 0.107628584 0.096615076 0.115937471 0.001497391 0.001547448 0.001224657 0.001679503 0.001761436 0.001831152 0.041044934 0.041077028 0.041056203 0.040986098 0.040983005 0.040985641 0.135463005 0.155509623 0.121747930 0.129264437 0.131930243 0.145993389
0.082488060 0.083380699 0.060377121 0.059365034 0.086401939 0.063410521 0.128549576 0.132517099 0.096840143 0.094901562 0.137708902 0.100656271 0.001879717 0.001874860 0.001858128 0.001811447 0.002875756 0.001859125 0.041074788 0.040930658 0.040998218 0.041010277 0.041026428 0.041058138 0.134206901 0.142624748 0.146612822 0.165643296 0.177000768 0.163836479
0.097484589 0.064425945 0.065445662 0.076376200 0.063254118 0.100386858 0.155702829 0.102544546 0.104743004 0.121709108 0.100739479 0.158680201 0.001733982 0.001805602 0.001815636 0.001865676 0.001788547 0.001773150 0.041059366 0.041186778 0.041074297 0.040996256 0.041053539 0.041056951 0.151888456 0.187247446 0.150593370 0.141965287 0.165488305 0.167678338
0.069449902 0.084418774 0.078436375 0.086416960 0.097392559 0.099470615 0.109665155 0.134752512 0.124926090 0.137647629 0.154659748 0.158759117 0.001768717 0.001590041 0.001436224 0.001888888 0.001800810 0.001784957 0.041064890 0.040953280 0.041044856 0.040940092 0.041014249 0.041000576 0.166156938 0.157063375 0.191916096 0.181249440 0.173255575 0.191944452
0.082354784 0.074388742 0.079379559 0.097482204 0.079385042 0.074484587 0.131936789 0.118880987 0.124923706 0.155866146 0.126925468 0.118769884 0.001474070 0.001823039 0.001826017 0.002666677 0.001838915 0.001626358 0.040862188 0.041056978 0.041049370 0.041105900 0.040781405 0.040925329 0.180169035 0.148681764 0.170199163 0.158797118 0.173143571 0.165649222
0.091237545 0.053390741 0.080455303 0.086365938 0.082387209 0.075393677 0.145597935 0.084747553 0.128558397 0.137856007 0.131635189 0.120922565 0.001863144 0.001732923 0.001752582 0.001791398 0.001764648 0.001859650 0.041355881 0.040957198 0.040882658 0.040946033 0.040985869 0.041095096 0.161743911 0.165582968 0.162104190 0.137166746 0.164666506 0.154265467
0.056371212 0.088407278 0.071434021 0.082358599 0.071432352 0.061403990 0.089954615 0.140751362 0.113764763 0.129591703 0.113759041 0.097790480 0.001766335 0.001806314 0.001795331 0.001535981 0.001646876 0.001848957 0.040996157 0.040847876 0.040952287 0.041063644 0.041054060 0.041060633 0.124820073 0.175970746 0.143526230 0.126411218 0.133788271 0.125965607
0.052436829 0.097426176 0.093348980 0.086447954 0.081393719 0.085405111 0.083836794 0.151585340 0.148654699 0.137762070 0.129810810 0.136774063 0.001738878 0.001759608 0.001823253 0.001814344 0.001698418 0.001786694 0.041045822 0.040945928 0.041018471 0.041155960 0.040926108 0.040907181 0.186061638 0.165638520 0.171659989 0.179945000 0.185374746 0.185493266
0.072407722 0.086407423 0.055381775 0.098378181 0.075439930 0.082415342 0.115795851 0.137574434 0.088805914 0.156594753 0.120781660 0.130925894 0.001574615 0.001546511 0.001806366 0.001898606 0.001618943 0.001900101 0.040888454 0.041004425 0.041066881 0.041006523 0.041023142 0.041024742 0.162613007 0.215065075 0.196098573 0.179597482 0.201410076 0.171983889
