0.093216658 0.090278387 0.096286058 0.077241659 0.054237127 0.072273254 0.093992710 0.090958595 0.096946955 0.077947378 0.054930687 0.072928190 0.000153597 0.000371914 0.000420316 0.000291366 0.000269349 0.000161075 0.031296130 0.030858655 0.031060669 0.031028182 0.031050955 0.031048616 0.081753167 0.102397315 0.070650744 0.073161941 0.081423757 0.097588506
0.050191641 0.081286669 0.057259321 0.090234995 0.091282368 0.091245174 0.050966740 0.081875324 0.057928562 0.090937138 0.091866255 0.091952801 0.000263476 0.000246477 0.000133621 0.000297175 0.000287374 0.000364743 0.031075749 0.030999580 0.031005894 0.030884197 0.030920603 0.030880350 0.064371002 0.081546166 0.074645399 0.081054299 0.065879949 0.053057323
0.050221205 0.051222086 0.053224087 0.076268911 0.098247051 0.064190388 0.050971508 0.051936865 0.053938389 0.076889992 0.098935366 0.064906597 0.000216571 0.000110790 0.000249408 0.000274395 0.000125203 0.000151300 0.030986957 0.030993560 0.029990724 0.030924300 0.030880225 0.031007389 0.070648093 0.066845870 0.061453854 0.067678635 0.061490514 0.089454594
0.100286484 0.089278698 0.082253695 0.065233469 0.094272852 0.051258564 0.100919724 0.090003014 0.082871675 0.065968037 0.094937563 0.051938534 0.000485167 0.000447529 0.000386791 0.000272281 0.000424230 0.000227658 0.030984659 0.031069248 0.030985637 0.030914286 0.030894238 0.031059443 0.090461251 0.118770737 0.096828253 0.117911114 0.069810635 0.119702201
0.079254627 0.096278906 0.059256077 0.057174683 0.099280357 0.063236475 0.079939127 0.096949339 0.059947968 0.057938099 0.099890471 0.063934565 0.000244723 0.000266010 0.000268772 0.000242666 0.000380288 0.000408156 0.030903477 0.031056594 0.031006502 0.031051138 0.030892017 0.030953628 0.068628431 0.073996382 0.072662559 0.067961548 0.074560702 0.069282043
0.073247433 0.069232702 0.075210094 0.056262255 0.089274645 0.053254604 0.074002981 0.069873095 0.075926781 0.056943655 0.090036154 0.053935289 0.000197932 0.000239849 0.000380227 0.000254922 0.000351154 0.000153212 0.031046748 0.031054599 0.031018398 0.031085037 0.030982168 0.031035073 0.089886004 0.074216603 0.088536331 0.060664339 0.067314456 0.093509323
0.087284327 0.062155008 0.085261583 0.096257687 0.079189062 0.066231012 0.087933302 0.062935591 0.086030245 0.096872330 0.079939842 0.066953421 0.000324503 0.000237925 0.000388436 0.000235284 0.000258408 0.000346299 0.030984637 0.031055825 0.030969616 0.030882718 0.030888679 0.031003483 0.081269963 0.069984152 0.088230509 0.086535204 0.071338293 0.082054274
0.086265087 0.083237648 0.092262268 0.070264578 0.088304758 0.064267635 0.086955547 0.083896160 0.092947960 0.071019411 0.088901758 0.064950943 0.000267732 0.000254065 0.000267577 0.000364752 0.000290124 0.000282758 0.031026902 0.030834563 0.030989147 0.031055887 0.030997948 0.030902485 0.088125720 0.092724312 0.067259744 0.085022014 0.088500660 0.077656330
0.065268993 0.094214201 0.087287426 0.065264463 0.075268507 0.099169493 0.065996170 0.094928741 0.087943316 0.065929890 0.075917482 0.099933386 0.000244875 0.000151232 0.000283464 0.000255957 0.000285467 0.000202609 0.030994227 0.030837257 0.030966952 0.031151527 0.031081794 0.031041124 0.071916042 0.094400569 0.082202188 0.087283542 0.094000572 0.071575828
0.073238850 0.090240479 0.083266258 0.092274427 0.078260183 0.082267523 0.073927402 0.090878487 0.083922863 0.092942715 0.078931093 0.082923412 0.000285341 0.000195516 0.000436385 0.000507903 0.000290213 0.000306424 0.030874315 0.029936801 0.030979372 0.031047977 0.031063686 0.030020218 0.078142483 0.077893276 0.077547997 0.081008816 0.084000674 0.087583960
0.078271389 0.052228928 0.087232828 0.077271223 0.053280592 0.071215153 0.078953266 0.052936792 0.087954283 0.077940702 0.053946733 0.071969748 0.000166923 0.000259727 0.000248785 0.000342015 0.000278512 0.000263647 0.031019650 0.030959795 0.030877322 0.030985394 0.031005161 0.030954604 0.072200515 0.068260950 0.068588575 0.071560953 0.073193999 0.095814235
0.070225954 0.070219755 0.052203417 0.080255270 0.068264246 0.050261736 0.070874214 0.070840597 0.052978754 0.080942154 0.068919897 0.050961494 0.000266006 0.000286595 0.000187883 0.000305280 0.000386443 0.000419096 0.031053163 0.031011740 0.031059666 0.031003666 0.029025921 0.030972782 0.065963828 0.068501423 0.081748277 0.067773796 0.066373049 0.064459257
0.068241596 0.097269058 0.073276281 0.091225624 0.089262486 0.071257114 0.068933487 0.097859383 0.073894739 0.091952801 0.089939594 0.072002649 0.000324062 0.000253210 0.000462853 0.000128520 0.000212465 0.000246049 0.031042744 0.030978989 0.030829795 0.030856279 0.031078727 0.030933116 0.071660000 0.085348206 0.076083419 0.062789596 0.074068883 0.072973048
0.097268581 0.063152075 0.090255499 0.071256399 0.067164183 0.078261852 0.097940445 0.063988924 0.090926409 0.071958065 0.067981243 0.078966141 0.000306809 0.000228985 0.000229595 0.000330109 0.000182926 0.000200168 0.031015054 0.031010947 0.030850103 0.031044487 0.030996497 0.029956446 0.069911153 0.069336445 0.072607359 0.077106933 0.078236174 0.086391601
0.083271265 0.073244572 0.058255672 0.100277424 0.071267366 0.064214468 0.083905935 0.073963404 0.058945894 0.100936651 0.072004795 0.064933062 0.000373029 0.000388986 0.000306105 0.000349310 0.000462474 0.000180445 0.031074951 0.030978933 0.031065284 0.031032959 0.030981852 0.031003808 0.062004452 0.082904703 0.067108517 0.071615442 0.068594992 0.067658299
0.066223621 0.100274086 0.062206030 0.061270952 0.085214615 0.072255850 0.066926003 0.100885153 0.062940121 0.061939478 0.085918188 0.072971344 0.000177047 0.000601505 0.000264046 0.000271024 0.000216353 0.000386279 0.031067454 0.030948482 0.031020827 0.031005575 0.030997602 0.030914116 0.087918500 0.063916168 0.072899758 0.074996358 0.104267529 0.072604319
0.094252825 0.095278502 0.100251198 0.062186003 0.087261438 0.075186253 0.094938040 0.095842123 0.100949764 0.062960625 0.087941170 0.075945139 0.000216357 0.000244787 0.000308854 0.000260157 0.000295856 0.000124369 0.031057421 0.030885385 0.030863473 0.031037687 0.028974252 0.031019706 0.106222419 0.086647735 0.086982916 0.090165374 0.096672573 0.075102365
0.064226627 0.059233904 0.064229965 0.075265646 0.086261749 0.054229498 0.064961195 0.059928417 0.064942837 0.075929403 0.086922884 0.054889917 0.000294349 0.000405646 0.000372434 0.000361313 0.000444778 0.000148482 0.030974049 0.031050061 0.030794208 0.031068912 0.031060429 0.031056603 0.073360580 0.067083638 0.067926043 0.068138678 0.066188098 0.079699792
0.095275402 0.061234474 0.073257446 0.073281527 0.052124739 0.055252314 0.095990658 0.061906815 0.073927641 0.073957920 0.052946091 0.055947304 0.000287482 0.000261464 0.000174453 0.000308932 0.000245539 0.000152286 0.031011509 0.030879752 0.030991757 0.031022065 0.031086400 0.030894026 0.069732222 0.066452108 0.079887671 0.055957811 0.077809936 0.075721173
0.081230402 0.067233086 0.070236683 0.094266891 0.060211658 0.073256016 0.081873178 0.067868233 0.070932150 0.094898939 0.060955763 0.073944092 0.000407576 0.000255192 0.000254954 0.000443859 0.000261236 0.000372713 0.030832511 0.030967807 0.030989429 0.030074161 0.031039980 0.030899970 0.077517011 0.075654899 0.075297810 0.069033904 0.070010550 0.065104554
0.097278118 0.090222120 0.080274582 0.081262589 0.100259781 0.059232473 0.097917795 0.090922356 0.080871105 0.081974030 0.100931406 0.059991360 0.000343746 0.000240432 0.000290643 0.000266885 0.000345574 0.000262129 0.030891258 0.030988146 0.030926319 0.031031199 0.030894570 0.031046807 0.071816509 0.077912009 0.087726400 0.080012746 0.075726724 0.079808669
0.057271957 0.062247753 0.080143929 0.096134663 0.068241358 0.080223083 0.057936668 0.062929392 0.080830812 0.096877813 0.069011927 0.080788136 0.000260762 0.000488294 0.000116550 0.000156974 0.000282256 0.000183611 0.031088505 0.031054809 0.030876081 0.031174563 0.030053621 0.031032220 0.073119076 0.067408582 0.069012078 0.075593689 0.067493396 0.068884322
0.061265469 0.094233751 0.086262703 0.083257198 0.091175079 0.095233440 0.061926365 0.095001698 0.086857319 0.083948612 0.091882467 0.096002102 0.000259973 0.000464755 0.000263798 0.000253772 0.000283640 0.000268267 0.031092533 0.030843827 0.031070962 0.031110720 0.030907020 0.030898239 0.085928180 0.090199512 0.110927635 0.085742333 0.077889376 0.074630780
0.076268435 0.079198837 0.061244011 0.087249994 0.065279007 0.094235897 0.076934099 0.079925060 0.061927319 0.087985992 0.065939903 0.094970703 0.000327673 0.000339720 0.000263458 0.000172811 0.000314893 0.000117134 0.030668943 0.031064674 0.030905725 0.030007003 0.030919451 0.031011218 0.083439046 0.079600316 0.070554934 0.073982514 0.069065212 0.069096088
0.074248552 0.064265966 0.063242912 0.091271877 0.065245390 0.090238094 0.074926138 0.064933300 0.063945293 0.091889143 0.065860510 0.090942144 0.000441812 0.000399716 0.000152715 0.000351499 0.000378753 0.000493386 0.030860340 0.030874851 0.031059745 0.030996302 0.030977166 0.031013242 0.083420569 0.065507971 0.078214856 0.066210086 0.075505788 0.075714764
0.095243692 0.089248657 0.074264765 0.072249413 0.086280584 0.055243015 0.095922470 0.089925766 0.075012684 0.072946787 0.086900949 0.055973530 0.000423217 0.000430954 0.000387240 0.000356077 0.000389509 0.000422302 0.030882786 0.031030134 0.031067463 0.031079990 0.030912726 0.031072172 0.080411754 0.116815794 0.084090011 0.123226045 0.121843165 0.076162162
0.050188303 0.096282244 0.073258162 0.054254532 0.052167416 0.055223465 0.050961494 0.096924305 0.073922396 0.054959297 0.052934885 0.055919886 0.000151538 0.000505100 0.000367701 0.000260894 0.000225030 0.000167154 0.031089455 0.029039711 0.031026891 0.031063163 0.031000839 0.030964612 0.061742453 0.070946211 0.083543979 0.093449180 0.093327491 0.068471743
0.080278635 0.071266174 0.086224318 0.079245329 0.097266197 0.072268963 0.080929518 0.071933031 0.086928606 0.079921961 0.097947836 0.072877645 0.000501733 0.000490061 0.000187815 0.000383483 0.000495287 0.000438999 0.030916646 0.029970347 0.030799944 0.031062862 0.030023425 0.030935446 0.103920383 0.119663221 0.108233876 0.125151028 0.075561308 0.118878970
0.087243557 0.068249941 0.096256971 0.090263605 0.097197056 0.100257635 0.087934971 0.068951130 0.096943617 0.090999126 0.098001003 0.100997448 0.000484551 0.000279491 0.000170373 0.000458567 0.000098964 0.000374292 0.031074717 0.031004570 0.031060737 0.030789027 0.030790796 0.030866947 0.074399208 0.074759188 0.088154189 0.085078262 0.072659460 0.084326434
0.082240105 0.100263357 0.079252243 0.085268259 0.084267855 0.059263945 0.082928419 0.101079226 0.079941034 0.086033106 0.084952593 0.059942722 0.000257663 0.000254644 0.000377014 0.000300018 0.000497195 0.000435038 0.031050756 0.031335063 0.031030579 0.030956267 0.030867289 0.031050297 0.073838923 0.076610015 0.081016801 0.066876768 0.080808060 0.073752769
0.071252823 0.090280771 0.072252750 0.067245722 0.074259043 0.094275475 0.071948528 0.090940714 0.072880983 0.067924261 0.074940205 0.094942093 0.000171443 0.000261715 0.000244355 0.000284705 0.000257513 0.000381975 0.031009185 0.029712739 0.030883711 0.030883756 0.030857358 0.030719866 0.080893168 0.072351880 0.080867288 0.076562738 0.079212023 0.071806239
0.051246881 0.056221485 0.085273027 0.085176706 0.052238226 0.087270260 0.051919937 0.056951284 0.086088896 0.085956097 0.052923441 0.088017702 0.000388424 0.000263580 0.000312153 0.000249721 0.000258119 0.000291773 0.031006563 0.030912748 0.030932484 0.030777445 0.031081698 0.030012611 0.082424237 0.081595622 0.092956063 0.076702676 0.066505449 0.071182488
0.061268568 0.054244041 0.055205345 0.094311953 0.067226887 0.085246086 0.061912060 0.054942608 0.055867434 0.094930649 0.068177462 0.085939884 0.000252972 0.000291458 0.000156308 0.000567919 0.000418273 0.000256577 0.030952130 0.031083052 0.030997011 0.030910261 0.030890869 0.030674107 0.080602061 0.063053616 0.062185228 0.064768754 0.086689088 0.092729160
0.073237419 0.055265188 0.088257790 0.073223591 0.099304676 0.061255455 0.073949099 0.055946589 0.088995934 0.073941231 0.099958897 0.061931133 0.000304825 0.000477002 0.000261377 0.000342615 0.000387332 0.000463064 0.031057548 0.031043877 0.031118358 0.031048659 0.030904644 0.030987976 0.073515713 0.069196223 0.072214410 0.065578441 0.072917214 0.073143402
0.058263779 0.055253983 0.098172188 0.079256535 0.078244925 0.084226370 0.058924437 0.056145668 0.098944187 0.080185413 0.078925848 0.084956408 0.000165529 0.000325693 0.000242209 0.000266657 0.000146481 0.000246078 0.031062769 0.031497261 0.030977863 0.031053323 0.030200445 0.031003520 0.078260477 0.085120798 0.061810420 0.078644335 0.079444054 0.071912518
0.060232878 0.100259304 0.060193062 0.097233772 0.088227510 0.085273504 0.060958385 0.101206303 0.060961246 0.097926855 0.088920832 0.085910320 0.000259667 0.000420266 0.000160699 0.000378594 0.000506285 0.000358209 0.030973421 0.029897653 0.031017023 0.030788446 0.029057419 0.030976134 0.081769539 0.083708907 0.093570312 0.086770446 0.102959744 0.096714435
0.073192596 0.083226919 0.073205948 0.087266922 0.079297543 0.051219702 0.073929787 0.083949327 0.073826790 0.087913036 0.079938889 0.051929474 0.000254609 0.000164118 0.000266046 0.000504772 0.000335883 0.000182221 0.031058948 0.031061722 0.031016173 0.030911553 0.031020722 0.030896233 0.052320320 0.073046477 0.063646295 0.066859674 0.067646297 0.070487398
0.073170185 0.090272427 0.062212944 0.075282574 0.092244864 0.098327398 0.074002028 0.090940237 0.062903166 0.075952291 0.092936993 0.098940372 0.000247937 0.000324051 0.000241400 0.000549781 0.000259524 0.000352074 0.030921434 0.030867311 0.030904746 0.031014326 0.030776248 0.029995958 0.072534334 0.082246873 0.074597570 0.093794754 0.072179857 0.080730342
0.077282906 0.057177067 0.081175566 0.090231895 0.057186604 0.051224947 0.077941179 0.057875633 0.081982851 0.090943098 0.057930470 0.051936150 0.000246321 0.000240657 0.000133245 0.000156111 0.000276038 0.000218525 0.030925209 0.029994642 0.030906671 0.028858044 0.030966140 0.030952559 0.068581148 0.071136900 0.069871636 0.068781194 0.071012568 0.071589080
0.073189497 0.068247795 0.087234020 0.083259821 0.085263968 0.056255102 0.073905468 0.068980932 0.087925673 0.083849669 0.085926771 0.056947708 0.000294967 0.000282796 0.000385940 0.000356297 0.000265468 0.000269684 0.030912473 0.031076347 0.030989319 0.031060982 0.031055730 0.031108901 0.103572851 0.081322141 0.068565694 0.067542755 0.082515413 0.074188195
0.077246666 0.085238695 0.075264454 0.075248718 0.085265398 0.064263344 0.077935696 0.085828543 0.075840950 0.075839043 0.085917234 0.064944506 0.000429048 0.000341795 0.000259026 0.000289753 0.000392847 0.000409332 0.030964279 0.030863701 0.031075968 0.030984522 0.029814131 0.030872034 0.073660688 0.066262923 0.067888513 0.067796877 0.066626731 0.070774558
0.073256731 0.059266806 0.067220449 0.058253527 0.081238508 0.076263428 0.073877096 0.059969664 0.067935944 0.058943987 0.081944227 0.076845169 0.000259854 0.000236142 0.000168280 0.000222596 0.000125357 0.000249149 0.030894931 0.030901703 0.031070752 0.031045063 0.031025567 0.031009424 0.088362695 0.102481082 0.094671600 0.069366568 0.071691630 0.074352765
0.061236382 0.070221901 0.052256584 0.076260805 0.061129570 0.085260153 0.061943293 0.070920706 0.052994967 0.076931715 0.061977148 0.085934401 0.000163204 0.000267986 0.000225907 0.000238098 0.000173063 0.000266550 0.031008745 0.031054694 0.030916006 0.030903603 0.031011419 0.030878496 0.075340999 0.072480657 0.073352471 0.071741508 0.065828899 0.072715577
0.051226139 0.083140373 0.078222513 0.064254045 0.090237141 0.080245018 0.051957369 0.083876848 0.079027176 0.064927340 0.090878725 0.080981970 0.000247821 0.000184649 0.000385438 0.000192458 0.000459156 0.000151149 0.031052252 0.030992359 0.031005101 0.030941863 0.031053462 0.031041334 0.109794214 0.104761514 0.104387988 0.098157920 0.074577067 0.095271627
0.061255455 0.073210239 0.068256855 0.089264631 0.082241058 0.092271566 0.061933994 0.074029207 0.069058418 0.089959383 0.082905293 0.092954874 0.000208794 0.000263489 0.000292293 0.000255891 0.000136875 0.000149183 0.030917696 0.030966456 0.031259388 0.029863162 0.031010606 0.031019754 0.085951749 0.073409269 0.077869904 0.078229387 0.084120908 0.079308257
0.056165457 0.095268726 0.093258619 0.056246281 0.081258059 0.081280708 0.056941032 0.095991611 0.093865156 0.056963682 0.081924200 0.081887722 0.000242166 0.000291830 0.000496515 0.000144377 0.000234185 0.000248913 0.031107898 0.029945127 0.030919261 0.031072245 0.030961757 0.030873775 0.076219333 0.095417532 0.073629269 0.083212676 0.106852043 0.075346573
0.082253695 0.060273886 0.095248938 0.079252720 0.098160505 0.076241970 0.082925320 0.060938120 0.095931292 0.079934120 0.098918438 0.077181816 0.000366553 0.000390807 0.000411037 0.000434829 0.000371609 0.000480850 0.031007122 0.031058060 0.030871949 0.031223878 0.031069979 0.031005743 0.081744753 0.077422258 0.086540162 0.095894062 0.079807947 0.099698914
0.099279642 0.088229656 0.087246418 0.065238953 0.081229687 0.065258980 0.099895000 0.088931561 0.087980509 0.065955877 0.081919193 0.065914631 0.000429568 0.000248622 0.000501334 0.000249851 0.000305023 0.000315206 0.030855294 0.030869108 0.031088605 0.030970440 0.031232263 0.031018509 0.075113793 0.081091821 0.087413987 0.083919687 0.083795801 0.081505181
0.071218967 0.072153807 0.096289635 0.074246645 0.072247744 0.083260298 0.072110891 0.072926760 0.096954346 0.074945211 0.072927475 0.083944559 0.000124277 0.000203668 0.000375205 0.000119205 0.000129606 0.000373218 0.030967932 0.030974767 0.031056359 0.030979923 0.030998335 0.030914790 0.098454237 0.090403750 0.070221975 0.076568750 0.096668851 0.101572960
0.073236704 0.081195116 0.095241070 0.095234394 0.081232786 0.098247528 0.074009180 0.081925392 0.095944166 0.095965624 0.081933260 0.098931551 0.000289947 0.000278866 0.000259276 0.000253813 0.000089095 0.000389023 0.030889394 0.030883232 0.030932807 0.031339161 0.031054195 0.031050981 0.083243765 0.082600200 0.076806103 0.076679757 0.085807068 0.084550941
0.090265274 0.082270861 0.081235647 0.084227085 0.059257269 0.077241898 0.090941668 0.082877398 0.081879616 0.084938526 0.059930801 0.077940941 0.000267445 0.000277706 0.000264096 0.000265915 0.000256642 0.000103290 0.031065281 0.031059209 0.030059434 0.030999276 0.031035602 0.031047355 0.066570993 0.073120421 0.080012741 0.076840958 0.074799927 0.078600838
0.085270882 0.056267262 0.077233553 0.066253424 0.084265471 0.074225426 0.085949183 0.056935787 0.077966690 0.066921473 0.084929705 0.074944973 0.000305878 0.000273056 0.000271029 0.000273071 0.000351102 0.000150693 0.031059047 0.031065389 0.030613429 0.031034573 0.031059865 0.031057431 0.093651549 0.063055066 0.082195471 0.079535730 0.068555577 0.087625074
0.079263210 0.082244873 0.064255953 0.060259581 0.055239201 0.100275755 0.079942226 0.082933664 0.064995050 0.060925007 0.055949450 0.101003885 0.000313501 0.000352034 0.000288045 0.000487802 0.000396580 0.000491767 0.030969516 0.030981051 0.030966127 0.031001307 0.030890468 0.029891537 0.073146671 0.079184704 0.070619598 0.065696540 0.071548260 0.068709354
0.076232195 0.058229923 0.074232817 0.093226671 0.079214573 0.055233955 0.076874971 0.059175491 0.074940920 0.093961716 0.079898119 0.055945635 0.000321172 0.000234133 0.000282526 0.000484562 0.000261280 0.000244611 0.030877744 0.031022800 0.030904784 0.030987348 0.031013258 0.031002647 0.074953542 0.068429306 0.070129439 0.073745542 0.074195654 0.076420229
0.067276478 0.058230162 0.057226896 0.084270954 0.087292194 0.092288971 0.067929506 0.058972836 0.057958364 0.084955454 0.087941885 0.092934370 0.000431116 0.000241819 0.000276449 0.000434437 0.000327760 0.000491630 0.031059644 0.030904122 0.031033561 0.030998130 0.031050466 0.030886567 0.067032805 0.074995380 0.075997049 0.070776777 0.065739851 0.069476292
0.054254532 0.055234194 0.077190876 0.068248034 0.076181889 0.097191334 0.054978609 0.055953026 0.077963591 0.068948269 0.076940775 0.097870827 0.000295831 0.000261470 0.000283837 0.000257955 0.000312188 0.000359917 0.031075972 0.031012854 0.031006890 0.031065789 0.030805286 0.031061654 0.074517769 0.072765775 0.081085660 0.082939316 0.072642482 0.070159762
0.077226400 0.057248592 0.099289417 0.088252068 0.096200705 0.093254089 0.078045607 0.057933092 0.099998951 0.088936806 0.096920013 0.093926430 0.000245403 0.000412645 0.000502259 0.000318837 0.000169528 0.000136745 0.031088223 0.030897085 0.030885495 0.030901312 0.031121362 0.030989447 0.092306799 0.073698014 0.077519353 0.092715341 0.081702295 0.077107949
0.089241505 0.090267897 0.094269514 0.097262859 0.071240187 0.074268103 0.089991808 0.090814114 0.094937801 0.097912788 0.071957350 0.074925900 0.000164919 0.000431445 0.000482860 0.000485452 0.000245789 0.000262139 0.031055685 0.030904304 0.030994203 0.030897067 0.031012444 0.030956495 0.088818299 0.080640335 0.082871897 0.079482877 0.096779075 0.080510306
0.100267649 0.092282057 0.081252098 0.068265676 0.070264578 0.057257652 0.100895405 0.092930555 0.081933737 0.068951368 0.070938110 0.057934046 0.000328967 0.000435715 0.000223751 0.000419965 0.000390432 0.000274798 0.030839876 0.030909499 0.030909837 0.031063482 0.030891457 0.031069916 0.096630831 0.069325026 0.081031308 0.100185023 0.077146171 0.065876250
0.071208239 0.096261024 0.088282108 0.056183100 0.095268726 0.080279827 0.071948290 0.096918344 0.088932991 0.057137489 0.095917463 0.080909014 0.000231022 0.000430652 0.000443990 0.000252990 0.000477611 0.000405154 0.029943559 0.031054520 0.030956775 0.031404516 0.031064817 0.031002170 0.079952495 0.090659517 0.073846025 0.069961310 0.073227096 0.084725008
0.077240705 0.065228939 0.052259684 0.058155775 0.062261820 0.090222597 0.077955008 0.065943480 0.052929878 0.059007406 0.062960625 0.091133118 0.000419507 0.000369610 0.000467903 0.000253255 0.000303134 0.000282381 0.030696986 0.031114591 0.031048984 0.031067118 0.031057081 0.030059439 0.087969583 0.071342261 0.090897964 0.072498427 0.070935524 0.075712025
0.096265316 0.093263626 0.085239649 0.087272406 0.100233078 0.079245329 0.096941710 0.093950987 0.085860491 0.087940931 0.100926399 0.079887629 0.000271376 0.000430471 0.000112088 0.000255404 0.000266607 0.000159156 0.031019298 0.031072685 0.029031652 0.030979145 0.030915926 0.031177161 0.083534270 0.085663342 0.095428332 0.084642009 0.085931991 0.077085509
0.068258286 0.068214655 0.068225145 0.088265896 0.062256813 0.076271772 0.068840027 0.068883181 0.068882942 0.088944197 0.063069582 0.076925278 0.000395627 0.000325170 0.000265612 0.000425530 0.000268432 0.000292252 0.031059680 0.029887260 0.031007007 0.031093366 0.030918899 0.031070873 0.065986056 0.077168627 0.077037445 0.069369827 0.074529880 0.073406307
0.065226078 0.090243340 0.081172943 0.092262268 0.088216066 0.070236444 0.065928221 0.090859890 0.081936359 0.092910767 0.089009047 0.070951700 0.000218269 0.000138816 0.000315414 0.000396168 0.000151931 0.000281470 0.030998445 0.029879032 0.031051227 0.030961983 0.029861109 0.031014999 0.080707358 0.082905589 0.075221101 0.075627189 0.083798030 0.082302474
0.086259604 0.052273989 0.094301224 0.079254627 0.085175514 0.076265812 0.086938143 0.052942991 0.094875574 0.079928398 0.085928679 0.076915264 0.000327093 0.000384766 0.000368074 0.000290365 0.000172558 0.000430041 0.030073237 0.031079790 0.030058017 0.031021563 0.031001045 0.029982090 0.076167014 0.072467998 0.072339199 0.077642985 0.069889506 0.088457534
0.065228701 0.054227591 0.062255859 0.073265314 0.085257053 0.064262152 0.065934658 0.054960012 0.062946558 0.073926449 0.085930586 0.064933538 0.000129380 0.000408691 0.000357773 0.000282077 0.000405612 0.000272345 0.030868756 0.031077173 0.031001172 0.031025708 0.030888753 0.030900817 0.072189611 0.066135957 0.067399402 0.073558272 0.072943647 0.078404873
0.097264767 0.095263958 0.064180136 0.093176365 0.070229769 0.050123930 0.097877741 0.095927954 0.064940453 0.093917608 0.071047544 0.050899982 0.000265566 0.000259851 0.000256215 0.000257733 0.000145241 0.000183328 0.030979695 0.030238811 0.031067568 0.030898918 0.030940882 0.031055755 0.070879344 0.105930935 0.081404143 0.090389552 0.075903733 0.099373126
0.057236671 0.085288763 0.064252853 0.086285353 0.058234930 0.081262589 0.057993650 0.085950851 0.064913988 0.086917400 0.059033394 0.081936121 0.000251986 0.000352978 0.000269910 0.000295667 0.000152328 0.000410169 0.031430320 0.030966289 0.031062189 0.030894810 0.031024249 0.031169977 0.077656059 0.078483188 0.076053218 0.068319589 0.077959780 0.074822188
0.074271679 0.059239388 0.090231180 0.060242176 0.095259428 0.092277050 0.074931145 0.059988976 0.090950012 0.060989380 0.095932484 0.092947006 0.000347874 0.000293455 0.000264909 0.000289660 0.000333397 0.000512661 0.030964874 0.031062384 0.030886016 0.030945943 0.029897110 0.030884504 0.114398034 0.086374268 0.085135190 0.083529114 0.110885287 0.094813632
0.075241327 0.066202879 0.081265688 0.071237087 0.068248510 0.064260483 0.075868368 0.066925287 0.081875801 0.072020292 0.068921328 0.064893007 0.000270668 0.000229633 0.000390684 0.000293596 0.000327461 0.000260278 0.030675323 0.031031805 0.031039653 0.031030759 0.031060463 0.030962264 0.069847001 0.067597485 0.065654431 0.059696206 0.079788970 0.072718523
0.096264124 0.075272322 0.097265720 0.097276449 0.062238216 0.086267471 0.096941710 0.075926542 0.097994328 0.097859621 0.062967300 0.086917877 0.000449407 0.000221884 0.000377994 0.000275255 0.000312383 0.000286310 0.030899627 0.030997073 0.031074748 0.030938872 0.031097237 0.031093281 0.076769851 0.082218117 0.057460908 0.077278532 0.079319642 0.084635771
0.066223621 0.067274809 0.073271513 0.065272093 0.062265396 0.070250750 0.066928387 0.067932367 0.074002028 0.065959454 0.062932730 0.070957661 0.000278701 0.000427505 0.000265852 0.000270056 0.000309655 0.000155186 0.030942400 0.030816034 0.030938891 0.030961674 0.030887260 0.030560362 0.067445147 0.062765711 0.065204196 0.073634371 0.067819533 0.072584510
0.090273857 0.089257956 0.070268869 0.086258411 0.094272614 0.084235430 0.090937376 0.089941502 0.070989847 0.087040663 0.094944477 0.084925652 0.000296393 0.000493882 0.000278418 0.000236215 0.000255464 0.000153305 0.031142360 0.030971871 0.031015802 0.030943679 0.031012751 0.030875194 0.106206304 0.081014713 0.101954979 0.123653630 0.078140860 0.078609071
0.089181662 0.067125082 0.054216146 0.063262463 0.091250181 0.060207129 0.089941978 0.067937136 0.055000067 0.063961029 0.091929436 0.060944319 0.000132439 0.000145939 0.000153012 0.000270344 0.000301283 0.000285508 0.030864508 0.031045383 0.030950869 0.030990582 0.030963808 0.031042851 0.074876901 0.089616889 0.064024077 0.068941831 0.076556281 0.072645834
0.061258793 0.066264391 0.091152668 0.066240072 0.053229570 0.100243807 0.061895132 0.066872120 0.091827869 0.066954136 0.053943396 0.100861549 0.000264573 0.000173196 0.000169992 0.000257919 0.000273507 0.000493904 0.031002661 0.031060303 0.030882933 0.030980618 0.031087696 0.030878756 0.060776311 0.082703224 0.090230863 0.096938984 0.092245665 0.079189295
0.094271898 0.081257105 0.070239067 0.072202921 0.052223921 0.052220106 0.094870090 0.081932783 0.070932865 0.072962999 0.052921057 0.052873611 0.000256911 0.000390735 0.000306564 0.000266091 0.000156214 0.000253858 0.030901521 0.031077394 0.030953579 0.030905933 0.031111154 0.031090998 0.068399054 0.074842394 0.075525983 0.060452563 0.069581160 0.069718630
0.052245855 0.093259573 0.081254959 0.075200796 0.074254513 0.071247816 0.053036928 0.093948603 0.081977606 0.075947285 0.074922085 0.071949959 0.000415431 0.000255289 0.000419696 0.000349643 0.000431448 0.000396910 0.031011028 0.030982070 0.030984058 0.030995571 0.030891916 0.030882385 0.073993898 0.061614924 0.070321363 0.083765902 0.078121021 0.083880081
0.099256039 0.060247421 0.075278521 0.075263023 0.077177286 0.087264061 0.099866867 0.060943365 0.075883150 0.075940371 0.077880383 0.087960958 0.000359304 0.000281538 0.000291800 0.000334554 0.000255087 0.000364390 0.030883287 0.030964475 0.031012199 0.031072091 0.030948420 0.031081695 0.074958370 0.070696201 0.084357574 0.068902532 0.080481571 0.116507617
0.095262527 0.067177296 0.053154230 0.050264120 0.085268259 0.053223610 0.095884562 0.067941189 0.053947926 0.050946712 0.085924149 0.053940058 0.000426695 0.000246465 0.000226069 0.000296292 0.000267939 0.000194696 0.031016408 0.030928919 0.031074431 0.031013640 0.031018462 0.030138522 0.066695393 0.064465207 0.069487448 0.069659845 0.064352495 0.072521427
0.085267305 0.074202061 0.080232143 0.055178642 0.092226505 0.093178272 0.085888386 0.074969292 0.080941677 0.055946589 0.092933655 0.093865395 0.000506090 0.000389373 0.000260261 0.000323155 0.000317557 0.000260005 0.029959592 0.031092594 0.030975235 0.031016790 0.030928973 0.029869230 0.085566077 0.100413514 0.081966378 0.104030447 0.081994558 0.071878280
0.065104723 0.070107937 0.061079979 0.095088243 0.099096775 0.065092802 0.065975428 0.070890903 0.061928749 0.095804214 0.099887848 0.065948725 0.000118235 0.000130663 0.000106044 0.000122042 0.000139765 0.000111659 0.031039183 0.031053548 0.030872022 0.030879843 0.030893946 0.030899030 0.078497999 0.069398336 0.069597190 0.071970101 0.066866825 0.069270066
0.066117287 0.078228474 0.055125713 0.099253893 0.096280336 0.051111460 0.066959381 0.078891039 0.055937290 0.099993467 0.096934319 0.051918268 0.000152009 0.000270030 0.000143362 0.000262533 0.000482138 0.000161391 0.031028352 0.031050727 0.030996325 0.030890612 0.030978935 0.030827425 0.081454298 0.099600373 0.071463659 0.075275371 0.070479893 0.089613698
0.099250793 0.062263250 0.060232878 0.072267294 0.094213724 0.088245630 0.099887371 0.062970161 0.060957193 0.072967291 0.095003366 0.088922501 0.000307846 0.000315720 0.000172370 0.000240408 0.000300489 0.000417752 0.030976131 0.030999619 0.031092323 0.030962790 0.029882939 0.030898233 0.078109456 0.069572606 0.073112499 0.080426879 0.080476600 0.099528920
0.074205637 0.085266352 0.073237419 0.055278778 0.065251589 0.082279205 0.075001717 0.085827827 0.073944330 0.055959463 0.065953255 0.082929134 0.000262433 0.000328567 0.000134549 0.000264119 0.000360539 0.000388629 0.030964190 0.030877819 0.030840172 0.030997891 0.030976151 0.030954073 0.077593789 0.065214827 0.073676380 0.077896921 0.088546342 0.056340741
0.076228857 0.054260015 0.091269016 0.068250418 0.063226223 0.069261551 0.076920033 0.054925680 0.091942549 0.068940401 0.063926935 0.069931269 0.000278040 0.000249181 0.000560004 0.000263334 0.000267508 0.000268920 0.030823310 0.031027091 0.031069019 0.030875465 0.031092160 0.030937699 0.069130131 0.063831188 0.074647540 0.071566021 0.068758965 0.073549329
0.050230980 0.051231861 0.094274998 0.082261562 0.058257103 0.088246107 0.050970793 0.051939487 0.094883204 0.082941771 0.058935404 0.088930130 0.000283654 0.000410944 0.000390129 0.000329483 0.000389957 0.000267507 0.030971949 0.031081552 0.030979464 0.027859791 0.031045397 0.031010496 0.109333233 0.070867938 0.062699341 0.101907462 0.065872421 0.091571917
0.100275040 0.059175730 0.073282719 0.083238602 0.051207304 0.088180542 0.101043940 0.059933662 0.073936224 0.083989382 0.051968336 0.088947296 0.000485665 0.000234537 0.000265917 0.000418044 0.000280455 0.000257734 0.030874497 0.030989870 0.031028043 0.031311253 0.031083142 0.031015285 0.074400010 0.088877741 0.080400934 0.087923882 0.070412526 0.077970604
0.094238520 0.054158688 0.065197706 0.065262556 0.053249836 0.052265406 0.094850540 0.054926395 0.065904617 0.065904856 0.054001093 0.052927971 0.000280421 0.000151134 0.000325495 0.000409073 0.000307163 0.000253185 0.030919102 0.030995952 0.031086422 0.030926824 0.031041839 0.031057822 0.058731671 0.060989352 0.064073221 0.063947351 0.066547147 0.066413913
0.088242531 0.058184624 0.069251299 0.094269037 0.091235399 0.077211380 0.088885307 0.058906317 0.069933653 0.094868660 0.091866493 0.077923298 0.000497339 0.000157524 0.000305885 0.000397252 0.000500019 0.000271152 0.030891869 0.031045952 0.031050844 0.030968423 0.031068728 0.031046434 0.090371126 0.110852459 0.082377365 0.098692255 0.114305385 0.118326654
0.053253174 0.067264318 0.081199408 0.073252439 0.056253195 0.054229975 0.053924561 0.067851543 0.081912756 0.073881149 0.056951761 0.054949522 0.000292025 0.000385857 0.000310411 0.000417797 0.000463115 0.000119443 0.031032906 0.030952562 0.030908540 0.031091319 0.031064400 0.031097624 0.063786705 0.062769796 0.069165921 0.065667895 0.070593012 0.071886992
0.092251539 0.075227261 0.092247963 0.094268084 0.064276457 0.076154709 0.092937231 0.075882912 0.092926502 0.094975948 0.064907789 0.076937199 0.000284683 0.000169290 0.000280852 0.000231362 0.000316952 0.000141341 0.030871640 0.030988902 0.030798361 0.030925693 0.031077081 0.030960516 0.071140253 0.075537015 0.088260133 0.073600029 0.083354935 0.077972311
0.083261013 0.080202818 0.059241772 0.097240686 0.081251860 0.086266994 0.084132195 0.080925226 0.059951782 0.097889900 0.081936598 0.086930037 0.000397545 0.000400414 0.000250202 0.000138171 0.000270974 0.000388673 0.030904776 0.031026042 0.031047988 0.031045030 0.030840555 0.030898776 0.098598668 0.116310651 0.069801872 0.080691309 0.082297059 0.115931583
0.051253796 0.068236351 0.082251787 0.062229872 0.100277424 0.076232195 0.051955700 0.068973780 0.082933664 0.062928677 0.101005316 0.076939821 0.000295134 0.000278613 0.000381555 0.000260238 0.000502484 0.000356109 0.031086501 0.031001980 0.031049640 0.030869718 0.030994935 0.031067269 0.070498827 0.085667289 0.075092953 0.074154327 0.066236449 0.073643071
0.083268642 0.080236197 0.071240664 0.071234941 0.071193695 0.065255165 0.083962679 0.080951214 0.071791887 0.071843147 0.071858168 0.065941572 0.000510735 0.000272173 0.000247709 0.000412765 0.000177231 0.000349333 0.030928046 0.030916541 0.031020918 0.031062896 0.030740205 0.031017533 0.087904524 0.074650262 0.074356512 0.094531822 0.094904712 0.062859302
0.070237875 0.074225426 0.057154417 0.095229149 0.053181410 0.099256516 0.070919275 0.074949980 0.057942152 0.095886469 0.053963423 0.099858999 0.000251775 0.000344388 0.000262418 0.000278065 0.000246275 0.000283859 0.031081256 0.031021027 0.030915367 0.031055257 0.030970850 0.030895689 0.075808200 0.080873330 0.075825940 0.083594794 0.080484749 0.062709430
0.080260277 0.089225292 0.077250957 0.067262173 0.056271315 0.061252117 0.080892086 0.089953184 0.077921391 0.067929983 0.056963682 0.061932564 0.000596654 0.000255228 0.000313631 0.000329200 0.000406566 0.000258008 0.030890287 0.031058249 0.031039811 0.030968876 0.031031186 0.031026905 0.070273020 0.076986264 0.077527852 0.094173090 0.062543512 0.072830549
0.057232857 0.084254503 0.063253164 0.099236488 0.073248863 0.065255642 0.057926893 0.084926128 0.063921690 0.099919319 0.073949337 0.065952778 0.000410627 0.000485159 0.000254134 0.000369950 0.000389198 0.000309633 0.031087931 0.030877032 0.031016850 0.031063712 0.031070431 0.031052013 0.081302960 0.073467232 0.069961141 0.081031926 0.075484409 0.069422089
0.093240976 0.098220110 0.093222141 0.082243443 0.091233969 0.056267500 0.093940258 0.098929644 0.093976498 0.083010912 0.092113018 0.056926489 0.000385881 0.000255007 0.000263129 0.000274801 0.000125607 0.000272370 0.030005520 0.031064174 0.030027350 0.030978964 0.030939300 0.031046933 0.084331264 0.089564488 0.064438193 0.082049847 0.090664785 0.086799690
0.050234318 0.093236923 0.053208351 0.079214811 0.054230928 0.095216513 0.050942183 0.093945503 0.053928614 0.079992533 0.054962635 0.095942974 0.000163804 0.000274442 0.000254300 0.000209033 0.000274284 0.000396202 0.031019208 0.031057757 0.031063420 0.030855694 0.030899143 0.030915391 0.070402375 0.063304449 0.070175458 0.080848176 0.072424042 0.071102374
0.063164711 0.075273514 0.085272074 0.095270872 0.062218666 0.074229956 0.063930035 0.075944901 0.085907221 0.095922232 0.062944889 0.074992657 0.000267835 0.000294865 0.000280292 0.000268882 0.000163335 0.000173054 0.030919068 0.031059402 0.031055485 0.031314957 0.031066714 0.031190189 0.072058792 0.077112133 0.065245502 0.075005789 0.069797608 0.076438559
