0.089091063 0.083080292 0.071082354 0.070078611 0.095086813 0.069083452 0.089574099 0.083542585 0.071528673 0.070564747 0.095551252 0.069552898 0.000095131 0.000088012 0.000083832 0.000080383 0.000091739 0.000096106 0.020890401 0.020853763 0.020901755 0.020829868 0.021001229 0.020853616 0.087262308 0.106381972 0.114567035 0.105370077 0.114771061 0.122123894 0.087261368 0.106378200 0.114565804 0.105367576 0.114766668 0.122122747
0.054105282 0.068124771 0.081132412 0.067126036 0.074109793 0.098111153 0.054924965 0.068874121 0.081827402 0.067877531 0.074881792 0.098862171 0.000095014 0.000124930 0.000094966 0.000097185 0.000088914 0.000128938 0.021338225 0.021120427 0.021183328 0.021125537 0.021115114 0.021143381 0.100335800 0.110828691 0.118043667 0.111463652 0.115250098 0.072382403 0.100334838 0.110824655 0.118039752 0.111459982 0.115246327 0.072378240
0.094112873 0.075115204 0.064111233 0.050115585 0.063114882 0.089116812 0.094835281 0.075848341 0.064871550 0.050877571 0.063862085 0.089865446 0.000099846 0.000090536 0.000126739 0.000111568 0.000092133 0.000110770 0.021055206 0.021111550 0.021120104 0.021179574 0.021175256 0.021157681 0.113633089 0.111070854 0.112691914 0.097973819 0.107289435 0.108282228 0.113629235 0.111068624 0.112687938 0.097969476 0.107285373 0.108278564
0.065130472 0.080135822 0.074127674 0.061137199 0.083145142 0.092131853 0.065853357 0.080828667 0.074888229 0.061840057 0.083888292 0.092903614 0.000092037 0.000099036 0.000099888 0.000102193 0.000088314 0.000138361 0.021127387 0.021084042 0.021064805 0.021161977 0.021064166 0.021151449 0.106813466 0.126330475 0.101195782 0.112460640 0.121891130 0.093761025 0.106809808 0.126327053 0.101192330 0.112457192 0.121889442 0.093757538
0.082150221 0.050113678 0.100141764 0.087129593 0.056118250 0.078140736 0.082851171 0.050828457 0.100907326 0.087904215 0.056847811 0.078855515 0.000091691 0.000092995 0.000161471 0.000125761 0.000100515 0.000098415 0.021029535 0.021041997 0.021056294 0.021151744 0.021125622 0.021204660 0.116508527 0.105337754 0.095482395 0.115078287 0.109171012 0.127514778 0.116504217 0.105334127 0.095477900 0.115074562 0.109166874 0.127511229
0.100112200 0.079115391 0.075138092 0.094148874 0.087125778 0.090147972 0.101008177 0.079863071 0.075944185 0.094876289 0.087855339 0.090828896 0.000098617 0.000093995 0.000126300 0.000128864 0.000125116 0.000141128 0.021065961 0.021094837 0.021145180 0.021028953 0.021135041 0.021081928 0.126989478 0.136227233 0.130383110 0.121247040 0.140607097 0.128008825 0.126985608 0.136223421 0.130379218 0.121242860 0.140603455 0.128004959
0.085129738 0.084107876 0.088107347 0.081141949 0.097166777 0.081108570 0.085893631 0.084899426 0.088912964 0.081891298 0.097884417 0.081904888 0.000144112 0.000139572 0.000098379 0.000092670 0.000127498 0.000075741 0.021069746 0.021123006 0.021093854 0.021109904 0.021104560 0.021121826 0.132359811 0.120074949 0.136911055 0.122218143 0.097601649 0.119125883 0.132355971 0.120070552 0.136909816 0.122214560 0.097597698 0.119122818
0.082104683 0.069118023 0.062104464 0.089157581 0.091156960 0.063108683 0.082832336 0.070432186 0.062817097 0.089835882 0.091911316 0.063901901 0.000105306 0.000131215 0.000093564 0.000089289 0.000101355 0.000098551 0.021150819 0.021179128 0.021153986 0.021129097 0.021041064 0.021161505 0.118427742 0.122630885 0.109504492 0.106498172 0.110560048 0.109334396 0.118423478 0.122627053 0.109500560 0.106495242 0.110555545 0.109332445
0.061126709 0.096123934 0.063116550 0.059155703 0.081114054 0.088116407 0.061948538 0.096837282 0.063848972 0.059946299 0.081856966 0.088878870 0.000159771 0.000172486 0.000128273 0.000148450 0.000148891 0.000141508 0.021115447 0.021076161 0.021043977 0.021094176 0.021124913 0.021105951 0.094993683 0.114807913 0.113868436 0.119468073 0.105485743 0.107745946 0.094989756 0.114804053 0.113864593 0.119464306 0.105481388 0.107742074
0.076127529 0.070116043 0.083114386 0.080127239 0.060110569 0.053108215 0.076828003 0.070816517 0.083853483 0.080857038 0.060877323 0.053907394 0.000096976 0.000104596 0.000120908 0.000096071 0.000116403 0.000107792 0.021129129 0.021056067 0.021214154 0.021028478 0.021098690 0.021065432 0.120989631 0.128585897 0.111686911 0.117445778 0.100478644 0.110837399 0.120986273 0.128582311 0.111683026 0.117442256 0.100474858 0.110833783
0.061116934 0.070106745 0.080107689 0.080123663 0.092130184 0.063109636 0.061882019 0.070971489 0.080974579 0.080894947 0.092824221 0.063907146 0.000108181 0.000100500 0.000101589 0.000091468 0.000136598 0.000102697 0.021072200 0.021103129 0.021137607 0.021140726 0.021124240 0.021265825 0.122776168 0.113011988 0.101735717 0.114009818 0.070901519 0.113029752 0.122772341 0.113008109 0.101731863 0.114006112 0.070897722 0.113026870
0.097146034 0.092113256 0.054111719 0.065115929 0.092143059 0.077110529 0.097898722 0.092782021 0.054933548 0.065847635 0.092849493 0.077842712 0.000126815 0.000098509 0.000088956 0.000097570 0.000118853 0.000105216 0.021064310 0.021048259 0.021091919 0.021047511 0.021161021 0.021040077 0.114963161 0.112328255 0.110184398 0.112124454 0.112753421 0.133126830 0.114959142 0.112326021 0.110182266 0.112120483 0.112749565 0.133123185
0.096109390 0.072109938 0.059153318 0.100127220 0.060112476 0.078112125 0.096878529 0.072843552 0.059889078 0.100833178 0.060914993 0.078876972 0.000135108 0.000126788 0.000149653 0.000159513 0.000096895 0.000086930 0.021109026 0.021018350 0.021154418 0.021068372 0.021148176 0.021118404 0.113741880 0.119593356 0.116348254 0.119699396 0.122161878 0.124799664 0.113738172 0.119588808 0.116343982 0.119695403 0.122158109 0.124795904
0.080153465 0.081121922 0.059106588 0.067133665 0.076109648 0.093152761 0.080809832 0.081884384 0.059852839 0.067895412 0.076811552 0.093904734 0.000131723 0.000081258 0.000098405 0.000089578 0.000114082 0.000146152 0.021150824 0.021073914 0.021041631 0.021094247 0.021144290 0.021101594 0.124396671 0.114711384 0.109791274 0.115368897 0.108150532 0.113570162 0.124392738 0.114707154 0.109789872 0.115364588 0.108148764 0.113566522
0.083106995 0.076110840 0.083137274 0.062128305 0.076126337 0.068104744 0.083810568 0.076815128 0.083815336 0.062856436 0.076833487 0.068901300 0.000102224 0.000076546 0.000079472 0.000107829 0.000119242 0.000089083 0.020986511 0.021049346 0.021049394 0.021105405 0.021135106 0.021074711 0.103225796 0.105853124 0.101670447 0.115126917 0.111026296 0.115583032 0.103221997 0.105848821 0.101665999 0.115124588 0.111022309 0.115578250
0.088115215 0.054108143 0.051107883 0.061093092 0.059120417 0.072106123 0.088815212 0.054877281 0.051831722 0.061847210 0.059912205 0.072794914 0.000085229 0.000124882 0.000083436 0.000096443 0.000120330 0.000127660 0.021005006 0.021105217 0.021182911 0.021242123 0.021150625 0.021046318 0.064324655 0.093340706 0.093180277 0.101271887 0.084112352 0.092765540 0.064320666 0.093336990 0.093178591 0.101267884 0.084108650 0.092763226
0.070110798 0.088122606 0.050116777 0.059100151 0.096127748 0.090126038 0.070811749 0.088983297 0.050838709 0.059825420 0.096913576 0.090922832 0.000124470 0.000106596 0.000097448 0.000106538 0.000140778 0.000099300 0.021089879 0.021069343 0.021037265 0.021242731 0.021068021 0.021066822 0.110582963 0.115265955 0.108945756 0.107003648 0.076637612 0.112473039 0.110579041 0.115261983 0.108942089 0.106999877 0.076633828 0.112469204
0.078113556 0.076128483 0.095123529 0.061102152 0.091118336 0.078128815 0.079027653 0.076913357 0.095867157 0.061896801 0.091892958 0.078855753 0.000093812 0.000091627 0.000128674 0.000086004 0.000135793 0.000129013 0.021061369 0.021075309 0.021109793 0.021105568 0.021062609 0.021170591 0.129747973 0.114845346 0.106649605 0.108218264 0.107102377 0.129580127 0.129744166 0.114841222 0.106645590 0.108214376 0.107101573 0.129578369
0.076083183 0.092123032 0.076122761 0.051119804 0.063130379 0.064114809 0.076851606 0.092821360 0.076802254 0.051823139 0.063869953 0.064865828 0.000089543 0.000108404 0.000076230 0.000098655 0.000112437 0.000137999 0.021112308 0.021156046 0.021145408 0.021188283 0.021191740 0.021112258 0.100283934 0.069091350 0.096281525 0.104793589 0.098276587 0.101837536 0.100279907 0.069087295 0.096277300 0.104792005 0.098272729 0.101833610
