0.060309410 0.056248665 0.070308924 0.087518215 0.077397585 0.078419447 0.096435070 0.089516163 0.109454870 0.121596575 0.123573780 0.114567041 0.001472904 0.001207314 0.001379572 0.001458531 0.001521199 0.001652743 0.040921007 0.040998028 0.040905594 0.040863923 0.040933179 0.040898815 0.089025358 0.124997614 0.089347792 0.082471658 0.081548270 0.075471269 0.167630994 0.157158955 0.177199289 0.175469421 0.167462158 0.171460246 0.155761633 0.146573961 0.156726654 0.132599493 0.133564019 0.114497048
0.050230742 0.075385332 0.063435793 0.087388754 0.063322783 0.075399637 0.080492258 0.117505312 0.099474669 0.126360178 0.099476576 0.120538950 0.001347853 0.001596050 0.001612729 0.001546009 0.001650224 0.001580922 0.040954200 0.040922707 0.040903515 0.040906706 0.040976077 0.040938588 0.112602574 0.076592402 0.126947196 0.100546093 0.107515181 0.073505320 0.172411693 0.146645124 0.152996361 0.150499829 0.160498649 0.150549327 0.217995311 0.121303570 0.150114889 0.116356839 0.143954502 0.091472505
0.087464094 0.094411850 0.061404467 0.058319569 0.074351549 0.074407816 0.132495165 0.141545534 0.096461773 0.092480183 0.115417719 0.114498377 0.001331774 0.001646298 0.001366471 0.001232214 0.001574843 0.001343556 0.040996339 0.040975157 0.040900678 0.040910377 0.040975348 0.040903730 0.103179971 0.122741923 0.084679139 0.081224725 0.072576972 0.097417474 0.161981897 0.164076335 0.168798068 0.168793314 0.171381577 0.166088441 0.124191248 0.146618812 0.152226052 0.205224170 0.163993787 0.200014053
0.074393034 0.094425201 0.096370459 0.075391531 0.061358452 0.092370272 0.115547657 0.147594213 0.151584387 0.120563984 0.097608328 0.147503138 0.001442826 0.001629136 0.001452569 0.001339690 0.001401832 0.001694749 0.040984767 0.040913847 0.040945184 0.041010638 0.040948853 0.040822452 0.099343457 0.000000000 0.102625148 0.088308095 0.201989094 0.107409301 0.180210264 0.186165421 0.176723698 0.173103158 0.190413268 0.196855358 0.152203976 0.137515760 0.143309970 0.195186109 0.202047107 0.142264843
0.098412514 0.051410198 0.069364309 0.075311661 0.097380161 0.090414762 0.147567034 0.081521988 0.110537767 0.119796038 0.146443129 0.143526554 0.001351166 0.001437657 0.001833242 0.001464246 0.001600208 0.001573761 0.040931744 0.041263680 0.040922136 0.040947256 0.040928753 0.041034653 0.103008243 0.156698758 0.130640135 0.119532576 0.087661740 0.076661841 0.186892528 0.168631299 0.163876091 0.197279262 0.174690574 0.169520973 0.141383938 0.201024460 0.144019346 0.197275086 0.130667742 0.107475507
0.066358089 0.060267687 0.061473608 0.068400145 0.056308985 0.068461657 0.105496407 0.094487906 0.097515583 0.106542349 0.087591648 0.098540306 0.001591904 0.001738080 0.001373389 0.001349119 0.001643575 0.001613896 0.040914373 0.040909246 0.040927533 0.040900425 0.040987075 0.040909819 0.102324143 0.068542861 0.100486108 0.091494607 0.083583375 0.076578178 0.129612183 0.135342433 0.130549881 0.144360667 0.137535558 0.127850350 0.118008751 0.091294986 0.139224993 0.103059598 0.108850860 0.114637483
0.088471413 0.088360310 0.077203274 0.094444752 0.058447599 0.082292795 0.137462378 0.137531281 0.123515606 0.146535158 0.092565060 0.126509905 0.001591188 0.001546013 0.001683985 0.001747003 0.001364285 0.001482838 0.040970713 0.040897128 0.040942967 0.040921999 0.040941629 0.040915453 0.092017445 0.087618357 0.103579614 0.083232381 0.128944290 0.154212936 0.203462147 0.168754608 0.189495857 0.182423128 0.189485186 0.178376631 0.142539293 0.142401453 0.179784327 0.135853313 0.159630051 0.156530816
0.054230213 0.057373285 0.098491192 0.083367825 0.083304882 0.057387590 0.086607933 0.091466904 0.140496731 0.128515720 0.126487017 0.091511011 0.001269583 0.001290117 0.001339326 0.001451709 0.001495934 0.001382186 0.040912238 0.041027835 0.040900940 0.040906659 0.040929484 0.040913512 0.134604142 0.158365344 0.095535944 0.085233491 0.140324600 0.138888743 0.189479498 0.156380773 0.170701337 0.159593719 0.163247918 0.154700199 0.182087386 0.158386651 0.133652572 0.121946420 0.165586205 0.149552125
0.089332342 0.099437237 0.084374666 0.058231592 0.076384544 0.075425148 0.140534401 0.150602818 0.132493973 0.092638254 0.110479832 0.117588997 0.001612541 0.001272757 0.001327510 0.001194338 0.001631311 0.001504254 0.040867800 0.040923843 0.040893850 0.040974345 0.040886967 0.040919206 0.085424937 0.124494312 0.094620252 0.152008076 0.141558439 0.087483129 0.177572403 0.169592758 0.200788128 0.166903554 0.162787714 0.188357997 0.125874093 0.149718300 0.112798552 0.186867629 0.144973077 0.157239908
0.091164827 0.078176498 0.091168404 0.099175930 0.065174818 0.077149391 0.134167910 0.124295473 0.144348621 0.109163284 0.104183912 0.122196198 0.001158932 0.001210722 0.001198151 0.001172744 0.001142915 0.001241139 0.040429035 0.040489158 0.041024677 0.040456506 0.040601020 0.040389215 0.106289991 0.096201488 0.091174837 0.112424417 0.165601744 0.125300793 0.185490327 0.188758077 0.211185894 0.185403965 0.169717736 0.203474009 0.132691631 0.127037446 0.149558542 0.182603921 0.238608554 0.139243013
