0.070203543 0.060173750 0.089185238 0.080207348 0.067233562 0.059195280 0.097748518 0.083862782 0.124749184 0.111757994 0.093789339 0.082756281 0.001333218 0.001266341 0.001385139 0.001314865 0.001211524 0.001422523 0.041113743 0.041036725 0.041130749 0.041116987 0.041118400 0.041198579 0.165275944 0.178295715 0.152709000 0.171084447 0.166778746 0.168330083 0.255130417 0.264205357 0.264368910 0.246367912 0.263755118 0.255404190
0.057178497 0.089199543 0.064185143 0.064183235 0.052186728 0.092175484 0.079769135 0.124682665 0.089761496 0.089730263 0.072779655 0.128810167 0.001448397 0.001474540 0.001215654 0.001370515 0.001281086 0.001325330 0.041158877 0.041122780 0.041563415 0.041084052 0.041112107 0.041087836 0.160467897 0.152661271 0.169379699 0.161530055 0.155439928 0.166889873 0.266863046 0.272866212 0.278136943 0.284357854 0.290678287 0.276297817
0.071184874 0.087186813 0.097170830 0.081192493 0.057195902 0.094217777 0.099767923 0.121796608 0.135767460 0.113796473 0.079816818 0.131708860 0.001328363 0.001369132 0.001257091 0.001348369 0.001197288 0.001355618 0.041205761 0.041137352 0.041118617 0.041115893 0.041270224 0.041113795 0.174389679 0.173362161 0.176863114 0.190892485 0.168854465 0.168334237 0.294760238 0.292598206 0.285899976 0.300886571 0.289039736 0.289653322
0.087176561 0.056130409 0.062191248 0.074180603 0.090229750 0.060168028 0.121637583 0.078799486 0.086778164 0.103708029 0.125676155 0.083731890 0.001333014 0.001236927 0.001332165 0.001218922 0.001411342 0.001358790 0.041010462 0.041357202 0.041103340 0.041125628 0.041092156 0.041160292 0.155324104 0.166459230 0.164636107 0.157309247 0.157813448 0.161940038 0.264247050 0.263533240 0.279735905 0.274901033 0.263303476 0.265913316
0.057158232 0.056184053 0.079140186 0.090183258 0.077185869 0.059173584 0.079672575 0.078709364 0.110774994 0.125699759 0.107713223 0.082776070 0.001276622 0.001386074 0.001356855 0.001260756 0.001432149 0.001470516 0.041021408 0.041219667 0.041122357 0.041099941 0.041081610 0.041231963 0.160514311 0.158711735 0.148914565 0.150940778 0.159675417 0.154633186 0.266880804 0.274880215 0.270133042 0.253574843 0.263288643 0.261424910
0.081155300 0.061179399 0.066176176 0.078178167 0.064189911 0.071174860 0.113710165 0.085855961 0.092645407 0.109673500 0.089782953 0.099740982 0.001360457 0.001363588 0.001442641 0.001331501 0.001376660 0.001297513 0.041066219 0.041114369 0.041179303 0.041162150 0.041179711 0.041131226 0.147652592 0.163330768 0.156362271 0.156085750 0.164916267 0.166117439 0.245494099 0.251954440 0.250993249 0.256559341 0.246152957 0.249182263
0.095226526 0.085244417 0.082214355 0.057179928 0.097235918 0.096187353 0.132739782 0.118704081 0.114785194 0.079707384 0.135720968 0.134737730 0.001393209 0.001322719 0.001351004 0.001302033 0.001176017 0.001512969 0.041090361 0.041110918 0.041049252 0.041144192 0.041164799 0.041166998 0.188111298 0.202617714 0.193101246 0.203892485 0.203466117 0.197611397 0.302442447 0.310380362 0.297278580 0.303418755 0.303174788 0.319855828
0.096170187 0.065186977 0.089218378 0.078170538 0.058175325 0.086184263 0.134683609 0.090706587 0.124776602 0.109728575 0.081754923 0.120716333 0.001505329 0.001321324 0.001446607 0.001361390 0.001156249 0.001369362 0.041037311 0.041054749 0.041100147 0.041101610 0.041130923 0.041105701 0.178629706 0.179843219 0.179247817 0.178206402 0.167607532 0.176552428 0.294220525 0.276231327 0.273583305 0.294710173 0.279922689 0.288311935
0.086183786 0.080199718 0.090190649 0.097222567 0.056223869 0.095217943 0.120703936 0.111719847 0.125674248 0.135704994 0.078710079 0.132648945 0.001329419 0.001509068 0.001394059 0.001468365 0.001173708 0.001390098 0.041073231 0.041079711 0.041081974 0.041211220 0.041098786 0.041190902 0.198519809 0.191368708 0.191748356 0.185417879 0.190640867 0.194776435 0.305199747 0.298965853 0.296842752 0.302887153 0.294060076 0.310544330
0.052175283 0.075201750 0.081183672 0.051171303 0.053204775 0.059195280 0.072757959 0.104731560 0.113650799 0.071807861 0.074688196 0.082738400 0.001348264 0.001386178 0.001515510 0.001317484 0.001392684 0.001377523 0.041101461 0.041109239 0.041097235 0.041161299 0.041084928 0.041139426 0.150217124 0.139677928 0.141617348 0.146397441 0.150481025 0.142593888 0.236998377 0.233989774 0.222092068 0.230278872 0.239151774 0.237752492
0.088189840 0.054172516 0.095212936 0.079183817 0.051212072 0.076243877 0.123705149 0.075785875 0.132665396 0.110652685 0.071832180 0.106721401 0.001482470 0.001215738 0.001421569 0.001183867 0.001263106 0.001446268 0.041028263 0.041149908 0.041071816 0.041180524 0.041331399 0.041163178 0.170370353 0.169510025 0.171939264 0.168129552 0.168210440 0.177977844 0.263088563 0.274060999 0.280084496 0.265600769 0.282687907 0.298732544
0.064126253 0.085118771 0.079126835 0.064114809 0.095101118 0.077130318 0.089556932 0.118505716 0.110479593 0.089489222 0.132468700 0.107463121 0.001144810 0.001151367 0.001157678 0.001129278 0.001146164 0.001174040 0.040906676 0.040915491 0.040903612 0.040875513 0.041001588 0.040981032 0.179579413 0.177569262 0.188135816 0.176968757 0.161261435 0.180526634 0.272222531 0.282064900 0.276314937 0.278281287 0.278504442 0.273730912
0.054186821 0.093188047 0.066167831 0.085190058 0.066185474 0.074186802 0.075719357 0.130779505 0.093355417 0.118698835 0.092741251 0.103678942 0.001405741 0.001249326 0.001355832 0.001296597 0.001338429 0.001434309 0.041103585 0.041081698 0.041204306 0.041089131 0.041054282 0.041109435 0.164298860 0.162092926 0.169395632 0.159620357 0.171168916 0.172915965 0.290522948 0.272129614 0.271951915 0.278615165 0.270235995 0.274573738
0.068155527 0.057132959 0.095135927 0.072157383 0.068138838 0.053163052 0.095559835 0.079518318 0.132422686 0.100509882 0.095459461 0.074513912 0.001150833 0.001181102 0.001151974 0.001173484 0.001202954 0.001163977 0.040825428 0.040874311 0.040857183 0.040883254 0.041040148 0.040836942 0.146858690 0.145352724 0.129307063 0.148054177 0.157355333 0.150093569 0.250376303 0.263493131 0.234692191 0.253699520 0.262045643 0.259694933
0.082171917 0.081138611 0.091156006 0.055126190 0.099144697 0.060145855 0.114465714 0.113480330 0.127465010 0.076479912 0.138437986 0.083480358 0.001188747 0.001165096 0.001163224 0.001200579 0.001196166 0.001158935 0.041027455 0.040871711 0.040853928 0.040902111 0.040899451 0.040975326 0.185104297 0.186534045 0.166689495 0.171065927 0.166741975 0.170079080 0.300832714 0.295231516 0.280836505 0.277302386 0.285547775 0.292661517
0.075144529 0.052133322 0.086174726 0.083137751 0.060134888 0.079131126 0.104446173 0.072487831 0.120484591 0.116449594 0.083531380 0.110432148 0.001173656 0.001166177 0.001212079 0.001212432 0.001152067 0.001188977 0.040866303 0.040855913 0.040909213 0.040873535 0.040860695 0.040875214 0.177300204 0.161261157 0.166610149 0.174352352 0.168552519 0.174195552 0.262158569 0.254705855 0.261666930 0.267544266 0.275045515 0.264521741
0.055155516 0.077142000 0.055142164 0.099120140 0.058145761 0.056117058 0.076566935 0.107464552 0.076481104 0.138400555 0.081472397 0.078455925 0.001179944 0.001187620 0.001186560 0.001184751 0.001186439 0.001169383 0.040841851 0.040806217 0.040851885 0.040881595 0.040842961 0.040859487 0.147614237 0.155904646 0.144221051 0.135176209 0.147008018 0.150112254 0.261467159 0.260635450 0.247510785 0.250614534 0.268157744 0.253428123
0.068146229 0.085157871 0.051130056 0.052155495 0.058148146 0.075141430 0.095428467 0.118498564 0.071473598 0.072480917 0.081452131 0.104451180 0.001190778 0.001197310 0.001197496 0.001173228 0.001153756 0.001146398 0.040833107 0.040899980 0.040850322 0.040853152 0.040936302 0.040823073 0.160245454 0.147475846 0.150685264 0.153506139 0.162120712 0.161763990 0.245536869 0.239361262 0.239420702 0.234801483 0.260892034 0.236955709
0.094148159 0.083133698 0.077161074 0.091146469 0.080138445 0.074097157 0.131471157 0.116505146 0.107485533 0.127413988 0.111418009 0.103457689 0.001174085 0.001202626 0.001204416 0.001195726 0.001137613 0.001197779 0.040859667 0.040885756 0.040907326 0.040881356 0.040878789 0.040842990 0.174846261 0.184650321 0.178361848 0.179312412 0.179340334 0.186533730 0.283479431 0.301613299 0.301269847 0.281529275 0.299643326 0.301807268
0.083170891 0.060142994 0.087144613 0.088168621 0.067155600 0.053142071 0.116445303 0.083503485 0.121556520 0.123480558 0.093490601 0.074470997 0.001188902 0.001179992 0.001168237 0.001182363 0.001191811 0.001193675 0.040771837 0.040932929 0.040859709 0.040843847 0.040915021 0.040848386 0.174204493 0.165214062 0.166257234 0.172875012 0.174504498 0.176214464 0.279333376 0.274355670 0.265156004 0.270379993 0.273426825 0.268652749
0.090148926 0.057143450 0.056134462 0.058145761 0.092155457 0.093146563 0.125440598 0.079466343 0.078521252 0.081510305 0.128396988 0.130471468 0.001169892 0.001202348 0.001182097 0.001161960 0.001178788 0.001170873 0.040839819 0.040905783 0.040876678 0.040917448 0.040863264 0.040933095 0.177027863 0.171785137 0.159564533 0.169508629 0.166330401 0.196966277 0.293318215 0.282834952 0.282633628 0.275018920 0.270494275 0.284087435
0.057146072 0.094160795 0.082149982 0.069159746 0.098138571 0.097165585 0.079459667 0.131411552 0.114433527 0.096474171 0.137495041 0.135446310 0.001171260 0.001183272 0.001192473 0.001188417 0.001189583 0.001195647 0.040870089 0.040847231 0.040796017 0.040904725 0.040796789 0.040827506 0.207397564 0.185649921 0.196151544 0.180157477 0.185452091 0.195285279 0.285737203 0.295474626 0.313762906 0.308896896 0.303523277 0.286615366
0.087189913 0.073182583 0.091184855 0.078185081 0.085182190 0.066170454 0.121725559 0.102784157 0.127711535 0.109703541 0.118717194 0.092707872 0.001338006 0.001340993 0.001348296 0.001230623 0.001220994 0.001265612 0.041095315 0.041233437 0.041125938 0.041218088 0.041109020 0.041159257 0.178127608 0.192277762 0.183823116 0.187859750 0.181058211 0.181811169 0.289752568 0.283889269 0.285230757 0.285117810 0.285033362 0.282982991
0.082181931 0.067169428 0.074198961 0.088198423 0.055194378 0.078216076 0.114746332 0.093734741 0.103678703 0.123720646 0.076790810 0.109686852 0.001319095 0.001264307 0.001175975 0.001227463 0.001357190 0.001229554 0.041039031 0.041104543 0.041069133 0.041151213 0.041327972 0.041185085 0.172524449 0.170537308 0.161888150 0.173431181 0.161903491 0.177657925 0.265448952 0.259670457 0.263524249 0.268164741 0.272021586 0.264400856
0.051174164 0.067173719 0.095194340 0.094178677 0.053208351 0.096198797 0.071736813 0.093677282 0.132660151 0.131624937 0.074770689 0.134655714 0.001254516 0.001201965 0.001327908 0.001355082 0.001243695 0.001172296 0.041089090 0.041143041 0.041075845 0.041037169 0.041136252 0.041022032 0.179661785 0.175434599 0.178784994 0.191149461 0.168414337 0.177264798 0.280054834 0.295748787 0.292384013 0.289801764 0.280469747 0.286702473
0.079200745 0.069191217 0.058166981 0.079204798 0.073198318 0.071204185 0.110650301 0.096687794 0.081715345 0.110705614 0.102690220 0.099692106 0.001177594 0.001279608 0.001259290 0.001247542 0.001352456 0.001210934 0.041070151 0.041175774 0.041085316 0.041107832 0.041063270 0.041169056 0.152787853 0.162214793 0.152680548 0.158809433 0.157613787 0.162667416 0.251226540 0.263429136 0.257177745 0.255032272 0.257129011 0.260593662
0.093185902 0.083209515 0.086220980 0.083193541 0.082223892 0.053177357 0.130697489 0.116814375 0.120711565 0.116630316 0.114686966 0.074745893 0.001352111 0.001237907 0.001272438 0.001230656 0.001161167 0.001285504 0.041141021 0.041114104 0.041044858 0.041047068 0.041029541 0.041244668 0.182031846 0.192030773 0.168703356 0.182582141 0.184877946 0.176029364 0.274040744 0.289418851 0.279217671 0.275394407 0.288992371 0.282794853
0.081223249 0.071187735 0.071205616 0.078194618 0.057174921 0.089241028 0.113769770 0.099667072 0.099712133 0.109688282 0.079706192 0.124717474 0.001361733 0.001192466 0.001192343 0.001300652 0.001260536 0.001350191 0.041031387 0.041089669 0.041087732 0.041112030 0.041153332 0.041086575 0.165736362 0.167927869 0.176017493 0.164063945 0.156987730 0.164030745 0.262603186 0.269074126 0.266936750 0.263348322 0.258388879 0.264517717
0.096239567 0.062148571 0.082208872 0.097200155 0.080187321 0.096177578 0.134643555 0.086851120 0.114672184 0.135734081 0.111731529 0.134661436 0.001257117 0.001306166 0.001229056 0.001245815 0.001224810 0.001220702 0.041140131 0.041356241 0.041098653 0.041070789 0.041156498 0.041128086 0.181672100 0.182714564 0.184377758 0.192725298 0.192675516 0.195424957 0.311483263 0.309120728 0.304500584 0.303244726 0.320196276 0.313944529
0.063185930 0.079180002 0.088227987 0.067175627 0.068192482 0.084165812 0.088675022 0.110772848 0.123681068 0.093767166 0.095810413 0.117704153 0.001244223 0.001227409 0.001278188 0.001300546 0.001244339 0.001236192 0.041019803 0.041033811 0.041094083 0.041105711 0.041087328 0.041085838 0.182342243 0.157656624 0.172010977 0.164803564 0.163120908 0.164523428 0.280074851 0.266135087 0.273928094 0.264650439 0.269888874 0.259908164
0.075135708 0.095167637 0.084155560 0.066131592 0.085146427 0.051100731 0.104486942 0.132493496 0.117429733 0.092440128 0.118448973 0.071496010 0.001220652 0.001196389 0.001175503 0.001145947 0.001151910 0.001171353 0.040829800 0.040817267 0.040846647 0.040869614 0.040844441 0.040888975 0.173790618 0.172725452 0.176945637 0.179235065 0.171249135 0.175314581 0.284555632 0.280162675 0.295827825 0.268984898 0.278066862 0.276315093
0.085234404 0.055215597 0.088220119 0.071200371 0.090191126 0.064197063 0.118684769 0.076718330 0.123661041 0.099764109 0.125700951 0.089790106 0.001243734 0.001151666 0.001237354 0.001242725 0.001281517 0.001343156 0.041011010 0.041023106 0.041159290 0.041070249 0.041102079 0.041157571 0.182493282 0.168945225 0.170383452 0.175389359 0.176775902 0.164254321 0.296646065 0.269084293 0.275878605 0.268262282 0.282191012 0.274321247
0.067182779 0.096201181 0.058182001 0.050179958 0.058200598 0.071176529 0.093654156 0.134659767 0.081723690 0.069732428 0.081762552 0.099680185 0.001293302 0.001291404 0.001267807 0.001257107 0.001278580 0.001321903 0.041009929 0.040978532 0.041078468 0.041121465 0.041151759 0.041046915 0.148424903 0.150611003 0.150537092 0.139883796 0.149603607 0.141443079 0.255410931 0.253090304 0.267861755 0.246354290 0.262830167 0.252098013
0.060165644 0.073160172 0.079138756 0.069168329 0.056146622 0.096154451 0.083523750 0.102485657 0.110444307 0.096607208 0.078461170 0.134389877 0.001168484 0.001173911 0.001151558 0.001173323 0.001166879 0.001200287 0.040847675 0.040855091 0.040890521 0.040827408 0.040877305 0.040929254 0.173337608 0.156819610 0.170077862 0.160284844 0.169625692 0.163355257 0.277009132 0.262044903 0.271401252 0.273788987 0.273217014 0.257482251
0.083180189 0.075181007 0.074176788 0.060172558 0.072150707 0.085194111 0.116685390 0.104722738 0.103727102 0.083749771 0.100742340 0.118666410 0.001158792 0.001463111 0.001507710 0.001391256 0.001438554 0.001471702 0.041051530 0.041194547 0.041101855 0.041204795 0.041097895 0.041036375 0.172318878 0.173589272 0.170790164 0.165173768 0.167231846 0.167662096 0.270157608 0.282544230 0.266433118 0.271094385 0.263854203 0.263244122
0.093194962 0.082196712 0.051199198 0.074178457 0.060173988 0.065197229 0.130658150 0.114671469 0.071720362 0.103664398 0.083764315 0.090760231 0.001197287 0.001573899 0.001227166 0.001216022 0.001390309 0.001336580 0.041046790 0.041096435 0.041186840 0.041109342 0.041145756 0.041166498 0.158599132 0.170994292 0.169008149 0.170126329 0.173368318 0.165716735 0.268202718 0.285908445 0.258618953 0.276179556 0.271080221 0.260875800
0.092175245 0.070174694 0.055198908 0.092203617 0.071184874 0.092199564 0.128729582 0.097726822 0.076824427 0.128823519 0.099710226 0.128734589 0.001496854 0.001532589 0.001295256 0.001248699 0.001525631 0.001194432 0.041025614 0.041122512 0.041211927 0.041098305 0.041184403 0.041098851 0.195529599 0.190349915 0.180700137 0.188526124 0.191471553 0.168598566 0.304694670 0.301416378 0.281251416 0.292294294 0.286380151 0.295944471
0.081231117 0.069190741 0.089229584 0.069186687 0.092274904 0.099220991 0.113713741 0.096735239 0.124738216 0.096725702 0.128701448 0.138677597 0.001324820 0.001222985 0.001518122 0.001343535 0.001474183 0.001364277 0.041031159 0.041120344 0.041125842 0.041101418 0.041147400 0.041088475 0.191724340 0.175463501 0.188302841 0.192985775 0.182135516 0.177248400 0.296384686 0.294860196 0.295952750 0.290732600 0.311697716 0.298352111
0.076222897 0.064183474 0.095177174 0.082171917 0.088247061 0.082186699 0.106710434 0.089748383 0.132726669 0.114762783 0.123723269 0.114775658 0.001377817 0.001254161 0.001329640 0.001392970 0.001362487 0.001399292 0.041114749 0.041119816 0.041070674 0.041098161 0.040992482 0.041156905 0.191698338 0.189307877 0.178714626 0.183093240 0.178836742 0.182411858 0.299576802 0.287163989 0.286231572 0.290836466 0.279600420 0.289863701
0.070174217 0.050199270 0.081205606 0.051199436 0.067175865 0.061227560 0.097711086 0.069737196 0.113682508 0.071805477 0.093683243 0.085698366 0.001301992 0.001386498 0.001442946 0.001420259 0.001271489 0.001264683 0.041137663 0.041142250 0.041118662 0.041165485 0.041115546 0.041163917 0.150863399 0.147980091 0.152651486 0.153999206 0.163253885 0.163679113 0.241738100 0.234775454 0.226330509 0.239749305 0.250501556 0.235019976
0.053190231 0.079192638 0.079230547 0.063151836 0.079186916 0.096173286 0.074729681 0.110638380 0.110738277 0.088794947 0.110738993 0.134706020 0.001273485 0.001334973 0.001395889 0.001222439 0.001326486 0.001180524 0.041088992 0.040993527 0.041016080 0.041165030 0.041101867 0.041128457 0.173687650 0.164382783 0.179676514 0.165488573 0.192025281 0.162812012 0.281199691 0.304816094 0.281309233 0.275333124 0.276203777 0.263135140
0.081156254 0.070141315 0.064123154 0.084138632 0.094138622 0.089130878 0.113676786 0.097718716 0.089690447 0.117669344 0.131708622 0.124822617 0.001164366 0.001143502 0.001156659 0.001159656 0.001146602 0.001150040 0.041027595 0.041140175 0.041005282 0.041090613 0.041137957 0.041129231 0.184170595 0.165510462 0.178436620 0.172771978 0.184002252 0.185545362 0.293929240 0.277473927 0.279118998 0.277805382 0.276835333 0.279921173
0.090210438 0.083175182 0.059178352 0.086205721 0.062194586 0.077198505 0.125710726 0.116661072 0.082712889 0.120664358 0.086726904 0.107657671 0.001324085 0.001468018 0.001164248 0.001275302 0.001297772 0.001345162 0.041083473 0.041046127 0.041180078 0.041074920 0.041271975 0.041161574 0.169063468 0.175591690 0.169922679 0.185280287 0.162968402 0.180469250 0.272315210 0.280855973 0.267336315 0.284524013 0.275277365 0.285146885
0.086212158 0.095194817 0.100208044 0.058174610 0.080168724 0.089218855 0.120664120 0.132717848 0.139686584 0.081730843 0.111718178 0.124660015 0.001381786 0.001317067 0.001421468 0.001315185 0.001359091 0.001295520 0.041049631 0.041010121 0.041105842 0.041233206 0.041103556 0.041160627 0.192800049 0.183420843 0.180729699 0.184422053 0.188222650 0.193884376 0.309613262 0.299574021 0.299044311 0.288689895 0.299681602 0.298933653
0.052207708 0.081219435 0.079179764 0.095187426 0.051173449 0.071196318 0.072815895 0.113670826 0.110729456 0.132692575 0.071724892 0.099759340 0.001234890 0.001369508 0.001216135 0.001212448 0.001248764 0.001348903 0.041265537 0.041031332 0.041093527 0.041090963 0.041088555 0.041150136 0.175828964 0.182828017 0.162011488 0.155233136 0.153984620 0.162834776 0.270062196 0.269363904 0.276139550 0.274107230 0.269116871 0.270724721
0.097240686 0.059180975 0.094186306 0.057201385 0.067176580 0.070240498 0.135677099 0.082713604 0.131702185 0.079736710 0.093774557 0.097721100 0.001301379 0.001192345 0.001278204 0.001364165 0.001270122 0.001446905 0.041037791 0.041111485 0.041058293 0.041077414 0.041188874 0.041201564 0.165756311 0.172050810 0.167238352 0.186491967 0.184306811 0.175229932 0.269691385 0.275359196 0.270172037 0.270014995 0.269323450 0.296806197
0.095207453 0.089150190 0.075181723 0.063194513 0.050187349 0.063184738 0.132699013 0.124725103 0.104791880 0.088728905 0.069685698 0.088700294 0.001341908 0.001439685 0.001300645 0.001356318 0.001247501 0.001342203 0.041158054 0.041066172 0.041097151 0.041149909 0.041244975 0.041178639 0.151589671 0.158013881 0.166247447 0.174620914 0.149180375 0.160174734 0.258371241 0.284396775 0.291693372 0.286959120 0.263143103 0.272889811
0.064179897 0.076176167 0.078199387 0.052173615 0.064182758 0.091229677 0.089719772 0.106679678 0.109695673 0.072757244 0.089711666 0.127707720 0.001366755 0.001269303 0.001379200 0.001398082 0.001241725 0.001393105 0.041063494 0.041109374 0.041089345 0.041004670 0.041391010 0.041073058 0.158125981 0.161198311 0.180956508 0.152002972 0.170384378 0.154680844 0.258991450 0.255826315 0.253466244 0.254729265 0.259968810 0.250286652
0.082179070 0.061174631 0.094160795 0.083179951 0.055179596 0.085199594 0.114712715 0.085713148 0.131651163 0.116688967 0.076774120 0.118712187 0.001265502 0.001262722 0.001254037 0.001184942 0.001335608 0.001233024 0.041044837 0.041119481 0.041160103 0.041121397 0.041237135 0.041265340 0.177074143 0.171558607 0.165179341 0.175704204 0.179050268 0.177185269 0.283737755 0.277671612 0.278886051 0.297796336 0.275594573 0.296651771
0.066186666 0.068187475 0.055209637 0.076209545 0.085180044 0.069200039 0.092702627 0.095688820 0.076809168 0.106666565 0.118694305 0.096692085 0.001373801 0.001342514 0.001236590 0.001633204 0.001294988 0.001282777 0.041087534 0.041061951 0.041330203 0.041089535 0.041149057 0.041099792 0.164636779 0.169486658 0.161242321 0.165688416 0.158227952 0.152661229 0.257205206 0.245362723 0.254933013 0.263266232 0.250371067 0.264575731
0.062171698 0.093215466 0.058165073 0.100188017 0.075185776 0.093197346 0.086641073 0.130665779 0.081699848 0.139829397 0.104654789 0.130652189 0.001296556 0.001362122 0.001193781 0.001222932 0.001389063 0.001322833 0.041030232 0.041084960 0.041297728 0.041110517 0.041090645 0.041071342 0.182762880 0.191594154 0.180151762 0.179582360 0.193455092 0.190651030 0.287996176 0.296201653 0.287042890 0.292350614 0.300310373 0.296691389
0.057193279 0.062175035 0.097203493 0.081185579 0.053164959 0.088204145 0.079670668 0.086653948 0.135648727 0.113729954 0.074675560 0.123722553 0.001276865 0.001240013 0.001349465 0.001273288 0.001253809 0.001341107 0.040994509 0.041068570 0.041083942 0.041156291 0.041314999 0.041131131 0.169672636 0.166077844 0.163724339 0.177112262 0.165653531 0.198988777 0.296424382 0.277748775 0.268302180 0.279571510 0.283004498 0.270484272
0.086210966 0.099166870 0.061201096 0.069175005 0.085167646 0.057207584 0.120637178 0.138644218 0.085810900 0.096740007 0.118651390 0.079727173 0.001375430 0.001453367 0.001257551 0.001339114 0.001391779 0.001239594 0.040991609 0.041075960 0.041144237 0.041104291 0.041106299 0.041170062 0.190171445 0.171372344 0.177959560 0.173204279 0.182806234 0.172040988 0.287111488 0.266856055 0.274218398 0.292724292 0.300972474 0.297725208
0.057180882 0.054182053 0.056182146 0.077193737 0.067140579 0.094188929 0.079754114 0.075687170 0.078774214 0.107686281 0.093703032 0.131691933 0.001162793 0.001504031 0.001245777 0.001454841 0.001438864 0.001249755 0.041120394 0.041088653 0.041088994 0.041062470 0.041154601 0.041205952 0.165155847 0.174531618 0.151066092 0.144601228 0.176512625 0.145463057 0.250547500 0.257051388 0.271857134 0.259284425 0.253132531 0.241990589
0.059203863 0.077198505 0.088179111 0.058196783 0.050173998 0.081192255 0.082683802 0.107657194 0.123731852 0.081719637 0.069724083 0.113712072 0.001293798 0.001288529 0.001337298 0.001300039 0.001324258 0.001337787 0.040994580 0.041078297 0.041072230 0.041129880 0.041109417 0.041119583 0.149182996 0.155144266 0.153438213 0.159432200 0.152764018 0.162049901 0.270695451 0.273156681 0.249982942 0.273191755 0.257142550 0.254306211
0.078210831 0.051179171 0.056207418 0.091212273 0.070207834 0.057179689 0.109702110 0.071684837 0.078732729 0.127660036 0.097727776 0.079719543 0.001374779 0.001323340 0.001213425 0.001386682 0.001345621 0.001218610 0.041013806 0.041159748 0.041159025 0.041099115 0.041109481 0.041135949 0.155707312 0.161218446 0.155685232 0.150647737 0.157303560 0.155303510 0.247587300 0.262296443 0.252450193 0.241297627 0.252728835 0.253458528
0.083218336 0.056201458 0.083189726 0.074183226 0.060169458 0.059210539 0.116629601 0.078738928 0.116666555 0.103667498 0.083732367 0.082698345 0.001317946 0.001294127 0.001315857 0.001259106 0.001379088 0.001428633 0.041005407 0.041128593 0.041038181 0.041131147 0.041119937 0.041085666 0.164560354 0.165958755 0.155451883 0.165210847 0.157820791 0.161697402 0.268723351 0.258694460 0.254150185 0.256638970 0.250036044 0.248266028
0.096210241 0.065176964 0.062175512 0.058164597 0.071213722 0.079217672 0.134778500 0.090661764 0.086692810 0.081757784 0.099673986 0.110696077 0.001321549 0.001287370 0.001183578 0.001364469 0.001213902 0.001306726 0.040973992 0.041118385 0.041022585 0.041137630 0.041143309 0.041138206 0.148202650 0.161431178 0.155677594 0.154761790 0.175097960 0.150163288 0.250284297 0.266542974 0.268490873 0.288672169 0.272122118 0.261475936
0.093206406 0.088207483 0.089184999 0.067183018 0.075176477 0.093222618 0.130706310 0.123659611 0.124772310 0.093680859 0.104655504 0.130691528 0.001395178 0.001437789 0.001278749 0.001209188 0.001253412 0.001223723 0.040988334 0.041114828 0.041065004 0.041055600 0.041092428 0.041123855 0.182388417 0.178568365 0.197321144 0.212910076 0.193779190 0.181535938 0.300137161 0.299679606 0.301779732 0.291307824 0.308696567 0.297519138
0.059200048 0.095229626 0.082223892 0.063226700 0.094250679 0.056182623 0.082692862 0.132652521 0.114674807 0.088686943 0.131644487 0.078688622 0.001332182 0.001515497 0.001236831 0.001179112 0.001281991 0.001356758 0.041283394 0.041192295 0.041079573 0.041100842 0.041077537 0.041341873 0.172699767 0.168904677 0.173563715 0.171479737 0.161941927 0.165314265 0.287563417 0.265226687 0.279835527 0.275366035 0.278845108 0.269608551
