0.097219229 0.063177347 0.095208645 0.080205202 0.056175232 0.085183620 0.100239992 0.091202259 0.091202259 0.097516537 0.063538790 0.095525980 0.080503225 0.056457996 0.085425377 0.100388527 0.091407299 0.091407299 0.001185239 0.001190959 0.001154287 0.001201551 0.001182053 0.001190204 0.001195259 0.001186291 0.001209833 0.040885957 0.040909998 0.040728994 0.040788798 0.040826731 0.040862358 0.040825872 0.040887681 0.041019213 0.000000000 0.129573674 0.000000000 0.091302849 0.108406267 0.086118250 0.000000000 0.000000000 0.000000000 0.132037939 0.126117430 0.126038840 0.128831725 0.152494379 0.142510941 0.115241495 0.132676653 0.132651186 0.078151683 0.129593978 0.088506719 0.123770659 0.152493336 0.142183713 0.055058004 0.091359905 0.091304485
0.067174435 0.054165602 0.100249052 0.058156967 0.093188047 0.056160212 0.068175316 0.050162077 0.050162077 0.067413568 0.054449558 0.100316763 0.058387756 0.093511343 0.056443453 0.068419933 0.050453663 0.050453663 0.001149434 0.001178912 0.001199603 0.001195761 0.001161742 0.001190273 0.001159788 0.001171686 0.001192712 0.040809761 0.040661855 0.040656391 0.040642794 0.040846680 0.040797348 0.040782795 0.040975270 0.041111558 0.097214064 0.083111996 0.000000000 0.061232992 0.112188057 0.070309393 0.079256257 0.085215872 0.085238793 0.115039175 0.091922423 0.090878142 0.084111981 0.117520241 0.090752950 0.104011359 0.114990290 0.114955419 0.110295259 0.084576095 0.061315209 0.095520694 0.118202291 0.104203682 0.111234019 0.109034136 0.108985116
0.074184895 0.100205183 0.083204031 0.069181204 0.089211226 0.077174664 0.091193438 0.093210936 0.093210936 0.074427843 0.100403070 0.083393812 0.069404364 0.089415312 0.077386379 0.091557980 0.093377113 0.093377113 0.001152712 0.001191556 0.001178089 0.001189488 0.001195076 0.001201425 0.001194711 0.001147762 0.001167973 0.040771494 0.040664997 0.040777177 0.040821000 0.040809843 0.040887017 0.040909553 0.040840375 0.040967708 0.090081369 0.000000000 0.108320500 0.086209624 0.083246903 0.075110962 0.110335661 0.101184566 0.101163235 0.142231674 0.128529649 0.136875541 0.132871689 0.115302883 0.127493138 0.108348560 0.130668536 0.130640822 0.107767211 0.076170660 0.139351335 0.097959510 0.083269005 0.125939405 0.110364196 0.119913877 0.119799895
0.057156086 0.067174196 0.062153578 0.095188379 0.067105770 0.068178654 0.099213123 0.072172165 0.072172165 0.057410002 0.067452431 0.062424660 0.095384359 0.067462683 0.068417072 0.099535942 0.072410107 0.072410107 0.001145425 0.001203395 0.001166779 0.001226050 0.001166600 0.001143347 0.001143881 0.001163462 0.001184366 0.040775323 0.040820752 0.040908341 0.040868154 0.040848255 0.040750061 0.040664254 0.040909613 0.041034891 0.090474395 0.086369429 0.143609678 0.000000000 0.071232761 0.102215127 0.000000000 0.070294594 0.070308136 0.119977952 0.123429902 0.128895225 0.145613354 0.124965851 0.101559804 0.090106071 0.126630953 0.126561520 0.110484968 0.109116068 0.154445607 0.076849309 0.093880086 0.104747055 0.063308016 0.132335490 0.132294392
0.066169500 0.100174189 0.070177317 0.082177162 0.085177898 0.099200010 0.061170578 0.084168196 0.084168196 0.066440582 0.100409031 0.070434570 0.082391977 0.085369349 0.099387646 0.061521530 0.084429502 0.084429502 0.001181300 0.001151474 0.001174042 0.001180387 0.001171210 0.001182190 0.001152362 0.001205486 0.001227453 0.040846543 0.040855648 0.040887698 0.040721116 0.040829997 0.040725591 0.040917978 0.040766305 0.040891135 0.159450560 0.000000000 0.084170455 0.097919736 0.102225020 0.000000000 0.066232168 0.060266622 0.060269469 0.140250930 0.113347997 0.116441695 0.102722431 0.114275401 0.130121288 0.112270946 0.128347218 0.128237210 0.159461027 0.059527223 0.127194676 0.115909057 0.102245901 0.058532012 0.118556634 0.096712764 0.096664092
0.062186003 0.088193417 0.082189560 0.054164171 0.059160233 0.088239193 0.063171387 0.064172268 0.064172268 0.062410355 0.088372946 0.082419872 0.054437876 0.059551477 0.088373661 0.063413382 0.064521313 0.064521313 0.001189968 0.001155367 0.001178658 0.001175131 0.001200738 0.001215969 0.001149873 0.001163741 0.001182825 0.040752304 0.040822844 0.040817186 0.040872484 0.040885091 0.040784577 0.040839379 0.040646517 0.040787589 0.093002981 0.000000000 0.060090125 0.082289507 0.082333148 0.000000000 0.061270873 0.082160247 0.082156497 0.087068080 0.115844133 0.113126379 0.082724440 0.114049425 0.116996877 0.094353761 0.110258008 0.110147377 0.116294468 0.059324837 0.067288924 0.083560815 0.106758425 0.061450298 0.070815273 0.087747505 0.087704195
0.074198961 0.058176041 0.085218668 0.094192743 0.075187922 0.078211784 0.095228434 0.091207743 0.091207743 0.074389696 0.058541536 0.085443974 0.094438791 0.075391054 0.078438044 0.095351458 0.091460705 0.091460705 0.001211134 0.001170574 0.001153307 0.001194752 0.001170847 0.001183887 0.001187791 0.001202759 0.001226895 0.040771520 0.040728141 0.040901333 0.040824453 0.040812362 0.040813523 0.040801725 0.040760430 0.040890661 0.088185420 0.063298055 0.000000000 0.000000000 0.095219749 0.099326024 0.000000000 0.111352960 0.111373897 0.098290938 0.123748786 0.142816132 0.129650677 0.124734894 0.123978986 0.130258395 0.104751424 0.104728203 0.126944336 0.096155122 0.064042829 0.112210343 0.134680956 0.099337309 0.066492628 0.111440576 0.111395282
0.094213724 0.061169624 0.086227894 0.086199045 0.071171284 0.075197220 0.067183971 0.096239805 0.096239805 0.094586134 0.061413050 0.086417437 0.086411238 0.071400166 0.075382471 0.067421436 0.096427441 0.096427441 0.001201316 0.001184329 0.001182720 0.001192672 0.001157572 0.001181364 0.001177950 0.001192136 0.001212646 0.040921261 0.040789823 0.040748606 0.040874634 0.040866818 0.040788636 0.040827887 0.040808209 0.040935633 0.099057317 0.119712677 0.087228046 0.123136206 0.094083523 0.106260674 0.083279111 0.124347933 0.124386374 0.103419708 0.126985691 0.136837768 0.127457998 0.121334466 0.131886205 0.128331100 0.115168821 0.115111605 0.116205036 0.128596089 0.109374819 0.124221358 0.099057720 0.130416106 0.083298668 0.124427349 0.124404720
0.059171438 0.067182779 0.100227594 0.087174177 0.092211962 0.076197863 0.068179131 0.061193228 0.061193228 0.059513807 0.067539215 0.100617170 0.087407351 0.092371702 0.076414347 0.068435431 0.061450005 0.061450005 0.001195079 0.001150671 0.001178986 0.001204162 0.001177052 0.001192284 0.001157538 0.001183157 0.001202914 0.040905161 0.040783965 0.040869395 0.040769755 0.040794697 0.040914403 0.040881937 0.040870715 0.041028043 0.114900212 0.086245785 0.000000000 0.085303402 0.120394060 0.092253594 0.137917601 0.043260376 0.043260600 0.086737811 0.102171461 0.097710035 0.131926376 0.127088937 0.137352368 0.128584720 0.128198418 0.128153344 0.135911874 0.086261173 0.059391133 0.141176297 0.136082628 0.109783317 0.148629395 0.103656496 0.103629062
0.051168203 0.054201841 0.059151649 0.087190628 0.068133831 0.071158648 0.091201067 0.088222742 0.088222742 0.051399231 0.054384232 0.059390783 0.087432623 0.068401098 0.071701765 0.091432095 0.088377237 0.088377237 0.001194223 0.001155817 0.001183710 0.001203828 0.001152834 0.001159986 0.001198713 0.001181409 0.001200343 0.040877408 0.040657151 0.040832173 0.040721285 0.040759350 0.040885818 0.040748380 0.040658482 0.040768464 0.059296083 0.120261694 0.055215205 0.000000000 0.084891697 0.087255598 0.000000000 0.000000000 0.000000000 0.117365304 0.122766599 0.107871891 0.094192558 0.124655692 0.134531299 0.129940007 0.125512006 0.125449718 0.085052995 0.120271089 0.094251477 0.063037527 0.084912657 0.124235970 0.073130830 0.048311326 0.048288670
